A_bkg = -0.0180397 +/- 0.0021461 L(-1 - 1) 
A_sigD_blind = -0.0271947 +/- 0.0010257 L(-1 - 1) 
N_B =  297526 +/- 5217.2 L(0 - 1e+09) 
N_S =  1049951 +/- 5288.9 L(0 - 1e+09) 
b =  0.59515 +/- 0.012494 L(0 - 1) 
c =  0.022367 +/- 0.0031466 L(-0.1 - 0.1) 
delta_j =  0.76532 +/- 0.070496 L(0 - 10) 
frac_g1 =  0.25254 +/- 0.054842 L(0 - 1) 
frac_g2 =  0.79969 +/- 0.030098 L(0 - 1) 
frac_j =  0.18926 +/- 0.029315 L(0 - 1) 
gamma_j = -0.216444 +/- 0.030324 L(-1 - 1) 
mean_g1 = -0.000794701 +/- 0.0028875 L(-1 - 1) 
mean_g1b = -0.000607609 +/- 0.0030097 L(-1 - 1) 
mean_g2 = -0.000397193 +/- 0.0044018 L(-1 - 1) 
mean_g2b =  0.0034382 +/- 0.0047066 L(-1 - 1) 
mean_g3 =  0.041685 +/- 0.060256 L(-1 - 1) 
mean_g3b =  0.031366 +/- 0.056466 L(-1 - 1) 
mean_j = -0.384580 +/- 0.041569 L(-1 - 1) 
sigma_1 =  0.16929 +/- 0.0077448 L(0 - 1) 
sigma_2 =  0.26822 +/- 0.013690 L(0 - 1) 
sigma_3 =  0.47853 +/- 0.046250 L(0 - 1) 
sigma_j =  0.60697 +/- 0.12682 L(0 - 1) 
Status: OK 3
