A_bkg =  0.000097874 +/- 0.00093693 L(-1 - 1) 
A_sigD_blind = -0.0110516 +/- 0.00043681 L(-1 - 1) 
N_B =  1563444 +/- 11637 L(0 - 1e+09) 
N_S =  5768160 +/- 11816 L(0 - 1e+09) 
b =  0.58473 +/- 0.0054805 L(0 - 1) 
c =  0.022152 +/- 0.0014038 L(-0.1 - 0.1) 
delta_j =  0.79119 +/- 0.031852 L(0 - 10) 
frac_g1 =  0.34738 +/- 0.026822 L(0 - 1) 
frac_g2 =  0.81928 +/- 0.018842 L(0 - 1) 
frac_j =  0.18916 +/- 0.011736 L(0 - 1) 
gamma_j = -0.199487 +/- 0.017634 L(-1 - 1) 
mean_g1 = -0.000999310 +/- 0.0010233 L(-1 - 1) 
mean_g1b = -0.00491282 +/- 0.00098230 L(-1 - 1) 
mean_g2 = -0.00142812 +/- 0.0025030 L(-1 - 1) 
mean_g2b = -0.00631837 +/- 0.0024472 L(-1 - 1) 
mean_g3 =  0.067546 +/- 0.031147 L(-1 - 1) 
mean_g3b =  0.057106 +/- 0.030283 L(-1 - 1) 
mean_j = -0.428339 +/- 0.028465 L(-1 - 1) 
sigma_1 =  0.18254 +/- 0.0029281 L(0 - 1) 
sigma_2 =  0.28663 +/- 0.0079845 L(0 - 1) 
sigma_3 =  0.49270 +/- 0.024403 L(0 - 1) 
sigma_j =  0.61313 +/- 0.047170 L(0 - 1) 
Status: OK 3
