A_bkg =  0.00045669 +/- 0.0010268 L(-1 - 1) 
A_sigD_blind = -0.0107726 +/- 0.00041598 L(-1 - 1) 
N_B =  1340147 +/- 11756 L(0 - 1e+09) 
N_S =  6287918 +/- 11965 L(0 - 1e+09) 
b =  0.57557 +/- 0.0058991 L(0 - 1) 
c =  0.023521 +/- 0.0015420 L(-0.1 - 0.1) 
delta_j =  0.76960 +/- 0.029172 L(0 - 10) 
frac_g1 =  0.39785 +/- 0.023931 L(0 - 1) 
frac_g2 =  0.84665 +/- 0.015487 L(0 - 1) 
frac_j =  0.17246 +/- 0.0084041 L(0 - 1) 
gamma_j = -0.206299 +/- 0.016984 L(-1 - 1) 
mean_g1 =  0.0028463 +/- 0.00076314 L(-1 - 1) 
mean_g1b = -0.00396991 +/- 0.00077629 L(-1 - 1) 
mean_g2 = -0.00678355 +/- 0.0021120 L(-1 - 1) 
mean_g2b = -0.0106730 +/- 0.0020905 L(-1 - 1) 
mean_g3 =  0.079159 +/- 0.033206 L(-1 - 1) 
mean_g3b =  0.061621 +/- 0.031662 L(-1 - 1) 
mean_j = -0.470159 +/- 0.029025 L(-1 - 1) 
sigma_1 =  0.18353 +/- 0.0023173 L(0 - 1) 
sigma_2 =  0.28695 +/- 0.0070519 L(0 - 1) 
sigma_3 =  0.50580 +/- 0.023379 L(0 - 1) 
sigma_j =  0.60893 +/- 0.035873 L(0 - 1) 
Status: OK 3
