A_bkg =  0.0098358 +/- 0.00064886 L(-1 - 1) 
A_sigD_blind = -0.00177516 +/- 0.00040748 L(-1 - 1) 
N_B =  3096339 +/- 19210 L(0 - 1e+09) 
N_S =  6825803 +/- 19307 L(0 - 1e+09) 
b =  0.55731 +/- 0.0039184 L(0 - 1) 
c =  0.018894 +/- 0.00086781 L(-0.1 - 0.1) 
delta_j =  0.61164 +/- 0.037891 L(0 - 10) 
frac_g1 =  0.53543 +/- 0.017433 L(0 - 1) 
frac_g2 =  0.24923 +/- 0.034961 L(0 - 1) 
frac_j =  0.20227 +/- 0.015574 L(0 - 1) 
gamma_j = -0.216381 +/- 0.016941 L(-1 - 1) 
mean_g1 =  0.022485 +/- 0.0069410 L(-1 - 1) 
mean_g1b =  0.018161 +/- 0.0069269 L(-1 - 1) 
mean_g2 =  0.097823 +/- 0.026213 L(-1 - 1) 
mean_g2b =  0.094606 +/- 0.026009 L(-1 - 1) 
mean_g3 =  0.00089055 +/- 0.0012139 L(-1 - 1) 
mean_g3b = -0.000813673 +/- 0.0011948 L(-1 - 1) 
mean_j = -0.257224 +/- 0.025202 L(-2 - 2) 
sigma_1 =  0.27653 +/- 0.0053656 L(0 - 2) 
sigma_2 =  0.48689 +/- 0.017763 L(0 - 2) 
sigma_3 =  0.17827 +/- 0.0025432 L(0 - 2) 
sigma_j =  0.37366 +/- 0.051477 L(0 - 5) 
Status: OK 3
