A =  0.00060599 +/- 0.00046951 L(-1 - 1) 
A_bkg =  0.011399 +/- 0.00072069 L(-1 - 1) 
N_B =  2502547 +/- 19647 L(0 - 1e+09) 
N_S =  5158666 +/- 19715 L(0 - 1e+09) 
b =  0.55966 +/- 0.0048427 L(0 - 1) 
c =  0.015103 +/- 0.0010259 L(-0.1 - 0.1) 
delta_j =  0.66110 +/- 0.055618 L(0 - 10) 
frac_g1 =  0.55605 +/- 0.017466 L(0 - 1) 
frac_g2 =  0.30017 +/- 0.032244 L(0 - 1) 
frac_j =  0.15749 +/- 0.015580 L(0 - 1) 
gamma_j = -0.279273 +/- 0.024966 L(-1 - 1) 
mean_g1 =  0.010784 +/- 0.0035512 L(-1 - 1) 
mean_g1b =  0.0052029 +/- 0.0035543 L(-1 - 1) 
mean_g2 =  0.065498 +/- 0.023698 L(-1 - 1) 
mean_g2b =  0.065133 +/- 0.023671 L(-1 - 1) 
mean_g3 =  0.0014930 +/- 0.0011284 L(-1 - 1) 
mean_g3b = -0.000704942 +/- 0.0011291 L(-1 - 1) 
mean_j = -0.308041 +/- 0.030571 L(-2 - 2) 
sigma_1 =  0.27874 +/- 0.0060889 L(0 - 2) 
sigma_2 =  0.50546 +/- 0.020194 L(0 - 2) 
sigma_3 =  0.17918 +/- 0.0028732 L(0 - 2) 
sigma_j =  0.55800 +/- 0.095541 L(0 - 5) 
Status: OK 3
Status: OK 3
Status: OK 3
Status: OK 3
Status: OK 3
Status: OK 3
Status: OK 3
