A_bkg =  0.012430 +/- 0.00087837 L(-1 - 1) 
A_sigD_blind =  0.00083738 +/- 0.00063281 L(-1 - 1) 
N_B =  4821916 +/- 50048 L(0 - 1e+09) 
N_S =  6890503 +/- 50065 L(0 - 1e+09) 
b =  0.55172 +/- 0.0090384 L(0 - 1) 
c =  0.019452 +/- 0.0010573 L(-0.1 - 0.1) 
delta_j =  0.57025 +/- 0.096008 L(0 - 10) 
frac_g1 =  0.53516 +/- 0.017834 L(0 - 1) 
frac_g2 =  0.27579 +/- 0.033332 L(0 - 1) 
frac_j =  0.15757 +/- 0.022658 L(0 - 1) 
gamma_j = -0.234791 +/- 0.049135 L(-1 - 1) 
mean_g1 =  0.0094891 +/- 0.0043764 L(-1 - 1) 
mean_g1b =  0.00055178 +/- 0.0042549 L(-1 - 1) 
mean_g2 =  0.024089 +/- 0.030109 L(-1 - 1) 
mean_g2b =  0.028460 +/- 0.030234 L(-1 - 1) 
mean_g3 =  0.0054171 +/- 0.0010249 L(-1 - 1) 
mean_g3b = -0.00121150 +/- 0.0010139 L(-1 - 1) 
mean_j = -0.218273 +/- 0.067877 L(-2 - 2) 
sigma_1 =  0.27766 +/- 0.0062054 L(0 - 2) 
sigma_2 =  0.53204 +/- 0.022690 L(0 - 2) 
sigma_3 =  0.17374 +/- 0.0027149 L(0 - 2) 
sigma_j =  0.56095 +/- 0.17487 L(0 - 5) 
Status: OK 3
