A_bkg =  0.010011 +/- 0.00066150 L(-1 - 1) 
A_sigD_blind = -0.00316645 +/- 0.00038193 L(-1 - 1) 
N_B =  2958114 +/- 12551 L(0 - 1e+09) 
N_S =  7636415 +/- 12736 L(0 - 1e+09) 
b =  0.55218 +/- 0.0035998 L(0 - 1) 
c =  0.025930 +/- 0.00088920 L(-0.1 - 0.1) 
delta_j =  0.70963 +/- 0.033865 L(0 - 10) 
frac_g1 =  0.50936 +/- 0.022646 L(0 - 1) 
frac_g2 =  0.18635 +/- 0.057715 L(0 - 1) 
frac_j =  0.21649 +/- 0.014630 L(0 - 1) 
gamma_j = -0.218032 +/- 0.014141 L(-1 - 1) 
mean_g1 =  0.022679 +/- 0.0077365 L(-1 - 1) 
mean_g1b =  0.018604 +/- 0.0077591 L(-1 - 1) 
mean_g2 =  0.14958 +/- 0.044892 L(-1 - 1) 
mean_g2b =  0.14408 +/- 0.044156 L(-1 - 1) 
mean_g3 =  0.0027940 +/- 0.0010802 L(-1 - 1) 
mean_g3b = -0.00166110 +/- 0.0011081 L(-1 - 1) 
mean_j = -0.253291 +/- 0.018951 L(-2 - 2) 
sigma_1 =  0.26553 +/- 0.0082644 L(0 - 2) 
sigma_2 =  0.41402 +/- 0.015950 L(0 - 2) 
sigma_3 =  0.17807 +/- 0.0031811 L(0 - 2) 
sigma_j =  0.37913 +/- 0.044221 L(0 - 5) 
Status: OK 3
