A_bkg = -0.00653072 +/- 0.00063501 L(-1 - 1) 
A_sigD_blind = -0.0161834 +/- 0.00035942 L(-1 - 1) 
N_B =  3289745 +/- 15745 L(0 - 1e+09) 
N_S =  8683244 +/- 15915 L(0 - 1e+09) 
b =  0.55466 +/- 0.0033974 L(0 - 1) 
c =  0.024644 +/- 0.00081749 L(-0.1 - 0.1) 
delta_j =  0.61552 +/- 0.023307 L(0 - 10) 
frac_g1 =  0.50377 +/- 0.020420 L(0 - 1) 
frac_g2 =  0.17913 +/- 0.037174 L(0 - 1) 
frac_j =  0.20847 +/- 0.0084063 L(0 - 1) 
gamma_j = -0.225911 +/- 0.013782 L(-1 - 1) 
mean_g1 =  0.027731 +/- 0.0056792 L(-1 - 1) 
mean_g1b =  0.027782 +/- 0.0055095 L(-1 - 1) 
mean_g2 =  0.16010 +/- 0.036440 L(-1 - 1) 
mean_g2b =  0.15444 +/- 0.034196 L(-1 - 1) 
mean_g3 =  0.0012007 +/- 0.0010637 L(-1 - 1) 
mean_g3b =  0.000069353 +/- 0.0010160 L(-1 - 1) 
mean_j = -0.284530 +/- 0.020043 L(-2 - 2) 
sigma_1 =  0.26888 +/- 0.0061465 L(0 - 2) 
sigma_2 =  0.44350 +/- 0.013195 L(0 - 2) 
sigma_3 =  0.17904 +/- 0.0027720 L(0 - 2) 
sigma_j =  0.34057 +/- 0.024929 L(0 - 5) 
Status: OK 3
