/home/LHCB-T3/smaccoli/CPV_in_D02hh/data/pGun/Dst2D0pi_D02Kpi_2016_Up/1543/pGun_Dst2D0pi_D02Kpi.root
/home/LHCB-T3/smaccoli/CPV_in_D02hh/data/pGun/Dst2D0pi_D02Kpi_2016_Up/1544/pGun_Dst2D0pi_D02Kpi.root
/home/LHCB-T3/smaccoli/CPV_in_D02hh/data/pGun/Dst2D0pi_D02Kpi_2016_Up/1545/pGun_Dst2D0pi_D02Kpi.root
/home/LHCB-T3/smaccoli/CPV_in_D02hh/data/pGun/Dst2D0pi_D02Kpi_2016_Up/1546/pGun_Dst2D0pi_D02Kpi.root
/home/LHCB-T3/smaccoli/CPV_in_D02hh/data/pGun/Dst2D0pi_D02Kpi_2016_Up/1547/pGun_Dst2D0pi_D02Kpi.root
/home/LHCB-T3/smaccoli/CPV_in_D02hh/data/pGun/Dst2D0pi_D02Kpi_2016_Up/1548/pGun_Dst2D0pi_D02Kpi.root
/home/LHCB-T3/smaccoli/CPV_in_D02hh/data/pGun/Dst2D0pi_D02Kpi_2016_Up/1549/pGun_Dst2D0pi_D02Kpi.root
/home/LHCB-T3/smaccoli/CPV_in_D02hh/data/pGun/Dst2D0pi_D02Kpi_2016_Up/154/pGun_Dst2D0pi_D02Kpi.root
/home/LHCB-T3/smaccoli/CPV_in_D02hh/data/pGun/Dst2D0pi_D02Kpi_2016_Up/1550/pGun_Dst2D0pi_D02Kpi.root
/home/LHCB-T3/smaccoli/CPV_in_D02hh/data/pGun/Dst2D0pi_D02Kpi_2016_Up/1551/pGun_Dst2D0pi_D02Kpi.root
/home/LHCB-T3/smaccoli/CPV_in_D02hh/data/pGun/Dst2D0pi_D02Kpi_2016_Up/1552/pGun_Dst2D0pi_D02Kpi.root
/home/LHCB-T3/smaccoli/CPV_in_D02hh/data/pGun/Dst2D0pi_D02Kpi_2016_Up/1553/pGun_Dst2D0pi_D02Kpi.root
/home/LHCB-T3/smaccoli/CPV_in_D02hh/data/pGun/Dst2D0pi_D02Kpi_2016_Up/1554/pGun_Dst2D0pi_D02Kpi.root
/home/LHCB-T3/smaccoli/CPV_in_D02hh/data/pGun/Dst2D0pi_D02Kpi_2016_Up/1555/pGun_Dst2D0pi_D02Kpi.root
/home/LHCB-T3/smaccoli/CPV_in_D02hh/data/pGun/Dst2D0pi_D02Kpi_2016_Up/1556/pGun_Dst2D0pi_D02Kpi.root
/home/LHCB-T3/smaccoli/CPV_in_D02hh/data/pGun/Dst2D0pi_D02Kpi_2016_Up/1557/pGun_Dst2D0pi_D02Kpi.root
/home/LHCB-T3/smaccoli/CPV_in_D02hh/data/pGun/Dst2D0pi_D02Kpi_2016_Up/1559/pGun_Dst2D0pi_D02Kpi.root
/home/LHCB-T3/smaccoli/CPV_in_D02hh/data/pGun/Dst2D0pi_D02Kpi_2016_Up/155/pGun_Dst2D0pi_D02Kpi.root
/home/LHCB-T3/smaccoli/CPV_in_D02hh/data/pGun/Dst2D0pi_D02Kpi_2016_Up/1560/pGun_Dst2D0pi_D02Kpi.root
/home/LHCB-T3/smaccoli/CPV_in_D02hh/data/pGun/Dst2D0pi_D02Kpi_2016_Up/1561/pGun_Dst2D0pi_D02Kpi.root
/home/LHCB-T3/smaccoli/CPV_in_D02hh/data/pGun/Dst2D0pi_D02Kpi_2016_Up/1562/pGun_Dst2D0pi_D02Kpi.root
/home/LHCB-T3/smaccoli/CPV_in_D02hh/data/pGun/Dst2D0pi_D02Kpi_2016_Up/1563/pGun_Dst2D0pi_D02Kpi.root
/home/LHCB-T3/smaccoli/CPV_in_D02hh/data/pGun/Dst2D0pi_D02Kpi_2016_Up/1565/pGun_Dst2D0pi_D02Kpi.root
/home/LHCB-T3/smaccoli/CPV_in_D02hh/data/pGun/Dst2D0pi_D02Kpi_2016_Up/1566/pGun_Dst2D0pi_D02Kpi.root
/home/LHCB-T3/smaccoli/CPV_in_D02hh/data/pGun/Dst2D0pi_D02Kpi_2016_Up/1567/pGun_Dst2D0pi_D02Kpi.root
/home/LHCB-T3/smaccoli/CPV_in_D02hh/data/pGun/Dst2D0pi_D02Kpi_2016_Up/1568/pGun_Dst2D0pi_D02Kpi.root
/home/LHCB-T3/smaccoli/CPV_in_D02hh/data/pGun/Dst2D0pi_D02Kpi_2016_Up/1569/pGun_Dst2D0pi_D02Kpi.root
/home/LHCB-T3/smaccoli/CPV_in_D02hh/data/pGun/Dst2D0pi_D02Kpi_2016_Up/156/pGun_Dst2D0pi_D02Kpi.root
/home/LHCB-T3/smaccoli/CPV_in_D02hh/data/pGun/Dst2D0pi_D02Kpi_2016_Up/1570/pGun_Dst2D0pi_D02Kpi.root
/home/LHCB-T3/smaccoli/CPV_in_D02hh/data/pGun/Dst2D0pi_D02Kpi_2016_Up/1571/pGun_Dst2D0pi_D02Kpi.root
/home/LHCB-T3/smaccoli/CPV_in_D02hh/data/pGun/Dst2D0pi_D02Kpi_2016_Up/1572/pGun_Dst2D0pi_D02Kpi.root
/home/LHCB-T3/smaccoli/CPV_in_D02hh/data/pGun/Dst2D0pi_D02Kpi_2016_Up/1573/pGun_Dst2D0pi_D02Kpi.root
/home/LHCB-T3/smaccoli/CPV_in_D02hh/data/pGun/Dst2D0pi_D02Kpi_2016_Up/1574/pGun_Dst2D0pi_D02Kpi.root
/home/LHCB-T3/smaccoli/CPV_in_D02hh/data/pGun/Dst2D0pi_D02Kpi_2016_Up/1575/pGun_Dst2D0pi_D02Kpi.root
/home/LHCB-T3/smaccoli/CPV_in_D02hh/data/pGun/Dst2D0pi_D02Kpi_2016_Up/1576/pGun_Dst2D0pi_D02Kpi.root
/home/LHCB-T3/smaccoli/CPV_in_D02hh/data/pGun/Dst2D0pi_D02Kpi_2016_Up/1577/pGun_Dst2D0pi_D02Kpi.root
/home/LHCB-T3/smaccoli/CPV_in_D02hh/data/pGun/Dst2D0pi_D02Kpi_2016_Up/1578/pGun_Dst2D0pi_D02Kpi.root
/home/LHCB-T3/smaccoli/CPV_in_D02hh/data/pGun/Dst2D0pi_D02Kpi_2016_Up/1579/pGun_Dst2D0pi_D02Kpi.root
/home/LHCB-T3/smaccoli/CPV_in_D02hh/data/pGun/Dst2D0pi_D02Kpi_2016_Up/157/pGun_Dst2D0pi_D02Kpi.root
/home/LHCB-T3/smaccoli/CPV_in_D02hh/data/pGun/Dst2D0pi_D02Kpi_2016_Up/1580/pGun_Dst2D0pi_D02Kpi.root
/home/LHCB-T3/smaccoli/CPV_in_D02hh/data/pGun/Dst2D0pi_D02Kpi_2016_Up/1581/pGun_Dst2D0pi_D02Kpi.root
/home/LHCB-T3/smaccoli/CPV_in_D02hh/data/pGun/Dst2D0pi_D02Kpi_2016_Up/1582/pGun_Dst2D0pi_D02Kpi.root
/home/LHCB-T3/smaccoli/CPV_in_D02hh/data/pGun/Dst2D0pi_D02Kpi_2016_Up/1583/pGun_Dst2D0pi_D02Kpi.root
/home/LHCB-T3/smaccoli/CPV_in_D02hh/data/pGun/Dst2D0pi_D02Kpi_2016_Up/1585/pGun_Dst2D0pi_D02Kpi.root
/home/LHCB-T3/smaccoli/CPV_in_D02hh/data/pGun/Dst2D0pi_D02Kpi_2016_Up/1586/pGun_Dst2D0pi_D02Kpi.root
/home/LHCB-T3/smaccoli/CPV_in_D02hh/data/pGun/Dst2D0pi_D02Kpi_2016_Up/1587/pGun_Dst2D0pi_D02Kpi.root
/home/LHCB-T3/smaccoli/CPV_in_D02hh/data/pGun/Dst2D0pi_D02Kpi_2016_Up/1588/pGun_Dst2D0pi_D02Kpi.root
/home/LHCB-T3/smaccoli/CPV_in_D02hh/data/pGun/Dst2D0pi_D02Kpi_2016_Up/1589/pGun_Dst2D0pi_D02Kpi.root
/home/LHCB-T3/smaccoli/CPV_in_D02hh/data/pGun/Dst2D0pi_D02Kpi_2016_Up/158/pGun_Dst2D0pi_D02Kpi.root
/home/LHCB-T3/smaccoli/CPV_in_D02hh/data/pGun/Dst2D0pi_D02Kpi_2016_Up/1594/pGun_Dst2D0pi_D02Kpi.root
/home/LHCB-T3/smaccoli/CPV_in_D02hh/data/pGun/Dst2D0pi_D02Kpi_2016_Up/1596/pGun_Dst2D0pi_D02Kpi.root
/home/LHCB-T3/smaccoli/CPV_in_D02hh/data/pGun/Dst2D0pi_D02Kpi_2016_Up/1597/pGun_Dst2D0pi_D02Kpi.root
/home/LHCB-T3/smaccoli/CPV_in_D02hh/data/pGun/Dst2D0pi_D02Kpi_2016_Up/1598/pGun_Dst2D0pi_D02Kpi.root
/home/LHCB-T3/smaccoli/CPV_in_D02hh/data/pGun/Dst2D0pi_D02Kpi_2016_Up/1599/pGun_Dst2D0pi_D02Kpi.root
/home/LHCB-T3/smaccoli/CPV_in_D02hh/data/pGun/Dst2D0pi_D02Kpi_2016_Up/159/pGun_Dst2D0pi_D02Kpi.root
/home/LHCB-T3/smaccoli/CPV_in_D02hh/data/pGun/Dst2D0pi_D02Kpi_2016_Up/15/pGun_Dst2D0pi_D02Kpi.root
/home/LHCB-T3/smaccoli/CPV_in_D02hh/data/pGun/Dst2D0pi_D02Kpi_2016_Up/1600/pGun_Dst2D0pi_D02Kpi.root
/home/LHCB-T3/smaccoli/CPV_in_D02hh/data/pGun/Dst2D0pi_D02Kpi_2016_Up/1601/pGun_Dst2D0pi_D02Kpi.root
/home/LHCB-T3/smaccoli/CPV_in_D02hh/data/pGun/Dst2D0pi_D02Kpi_2016_Up/1602/pGun_Dst2D0pi_D02Kpi.root
/home/LHCB-T3/smaccoli/CPV_in_D02hh/data/pGun/Dst2D0pi_D02Kpi_2016_Up/1603/pGun_Dst2D0pi_D02Kpi.root
/home/LHCB-T3/smaccoli/CPV_in_D02hh/data/pGun/Dst2D0pi_D02Kpi_2016_Up/1604/pGun_Dst2D0pi_D02Kpi.root
/home/LHCB-T3/smaccoli/CPV_in_D02hh/data/pGun/Dst2D0pi_D02Kpi_2016_Up/1605/pGun_Dst2D0pi_D02Kpi.root
/home/LHCB-T3/smaccoli/CPV_in_D02hh/data/pGun/Dst2D0pi_D02Kpi_2016_Up/1607/pGun_Dst2D0pi_D02Kpi.root
/home/LHCB-T3/smaccoli/CPV_in_D02hh/data/pGun/Dst2D0pi_D02Kpi_2016_Up/1608/pGun_Dst2D0pi_D02Kpi.root
/home/LHCB-T3/smaccoli/CPV_in_D02hh/data/pGun/Dst2D0pi_D02Kpi_2016_Up/1609/pGun_Dst2D0pi_D02Kpi.root
/home/LHCB-T3/smaccoli/CPV_in_D02hh/data/pGun/Dst2D0pi_D02Kpi_2016_Up/160/pGun_Dst2D0pi_D02Kpi.root
/home/LHCB-T3/smaccoli/CPV_in_D02hh/data/pGun/Dst2D0pi_D02Kpi_2016_Up/1610/pGun_Dst2D0pi_D02Kpi.root
/home/LHCB-T3/smaccoli/CPV_in_D02hh/data/pGun/Dst2D0pi_D02Kpi_2016_Up/1611/pGun_Dst2D0pi_D02Kpi.root
/home/LHCB-T3/smaccoli/CPV_in_D02hh/data/pGun/Dst2D0pi_D02Kpi_2016_Up/1614/pGun_Dst2D0pi_D02Kpi.root
/home/LHCB-T3/smaccoli/CPV_in_D02hh/data/pGun/Dst2D0pi_D02Kpi_2016_Up/1615/pGun_Dst2D0pi_D02Kpi.root
/home/LHCB-T3/smaccoli/CPV_in_D02hh/data/pGun/Dst2D0pi_D02Kpi_2016_Up/1616/pGun_Dst2D0pi_D02Kpi.root
/home/LHCB-T3/smaccoli/CPV_in_D02hh/data/pGun/Dst2D0pi_D02Kpi_2016_Up/1618/pGun_Dst2D0pi_D02Kpi.root
/home/LHCB-T3/smaccoli/CPV_in_D02hh/data/pGun/Dst2D0pi_D02Kpi_2016_Up/161/pGun_Dst2D0pi_D02Kpi.root
/home/LHCB-T3/smaccoli/CPV_in_D02hh/data/pGun/Dst2D0pi_D02Kpi_2016_Up/1620/pGun_Dst2D0pi_D02Kpi.root
/home/LHCB-T3/smaccoli/CPV_in_D02hh/data/pGun/Dst2D0pi_D02Kpi_2016_Up/1624/pGun_Dst2D0pi_D02Kpi.root
/home/LHCB-T3/smaccoli/CPV_in_D02hh/data/pGun/Dst2D0pi_D02Kpi_2016_Up/1626/pGun_Dst2D0pi_D02Kpi.root
/home/LHCB-T3/smaccoli/CPV_in_D02hh/data/pGun/Dst2D0pi_D02Kpi_2016_Up/1628/pGun_Dst2D0pi_D02Kpi.root
/home/LHCB-T3/smaccoli/CPV_in_D02hh/data/pGun/Dst2D0pi_D02Kpi_2016_Up/1629/pGun_Dst2D0pi_D02Kpi.root
/home/LHCB-T3/smaccoli/CPV_in_D02hh/data/pGun/Dst2D0pi_D02Kpi_2016_Up/162/pGun_Dst2D0pi_D02Kpi.root
/home/LHCB-T3/smaccoli/CPV_in_D02hh/data/pGun/Dst2D0pi_D02Kpi_2016_Up/1631/pGun_Dst2D0pi_D02Kpi.root
/home/LHCB-T3/smaccoli/CPV_in_D02hh/data/pGun/Dst2D0pi_D02Kpi_2016_Up/1632/pGun_Dst2D0pi_D02Kpi.root
/home/LHCB-T3/smaccoli/CPV_in_D02hh/data/pGun/Dst2D0pi_D02Kpi_2016_Up/1633/pGun_Dst2D0pi_D02Kpi.root
/home/LHCB-T3/smaccoli/CPV_in_D02hh/data/pGun/Dst2D0pi_D02Kpi_2016_Up/1634/pGun_Dst2D0pi_D02Kpi.root
/home/LHCB-T3/smaccoli/CPV_in_D02hh/data/pGun/Dst2D0pi_D02Kpi_2016_Up/1637/pGun_Dst2D0pi_D02Kpi.root
/home/LHCB-T3/smaccoli/CPV_in_D02hh/data/pGun/Dst2D0pi_D02Kpi_2016_Up/1638/pGun_Dst2D0pi_D02Kpi.root
/home/LHCB-T3/smaccoli/CPV_in_D02hh/data/pGun/Dst2D0pi_D02Kpi_2016_Up/1639/pGun_Dst2D0pi_D02Kpi.root
/home/LHCB-T3/smaccoli/CPV_in_D02hh/data/pGun/Dst2D0pi_D02Kpi_2016_Up/163/pGun_Dst2D0pi_D02Kpi.root
/home/LHCB-T3/smaccoli/CPV_in_D02hh/data/pGun/Dst2D0pi_D02Kpi_2016_Up/1641/pGun_Dst2D0pi_D02Kpi.root
/home/LHCB-T3/smaccoli/CPV_in_D02hh/data/pGun/Dst2D0pi_D02Kpi_2016_Up/1643/pGun_Dst2D0pi_D02Kpi.root
/home/LHCB-T3/smaccoli/CPV_in_D02hh/data/pGun/Dst2D0pi_D02Kpi_2016_Up/1644/pGun_Dst2D0pi_D02Kpi.root
/home/LHCB-T3/smaccoli/CPV_in_D02hh/data/pGun/Dst2D0pi_D02Kpi_2016_Up/1645/pGun_Dst2D0pi_D02Kpi.root
/home/LHCB-T3/smaccoli/CPV_in_D02hh/data/pGun/Dst2D0pi_D02Kpi_2016_Up/1646/pGun_Dst2D0pi_D02Kpi.root
/home/LHCB-T3/smaccoli/CPV_in_D02hh/data/pGun/Dst2D0pi_D02Kpi_2016_Up/1647/pGun_Dst2D0pi_D02Kpi.root
/home/LHCB-T3/smaccoli/CPV_in_D02hh/data/pGun/Dst2D0pi_D02Kpi_2016_Up/1648/pGun_Dst2D0pi_D02Kpi.root
/home/LHCB-T3/smaccoli/CPV_in_D02hh/data/pGun/Dst2D0pi_D02Kpi_2016_Up/1649/pGun_Dst2D0pi_D02Kpi.root
/home/LHCB-T3/smaccoli/CPV_in_D02hh/data/pGun/Dst2D0pi_D02Kpi_2016_Up/164/pGun_Dst2D0pi_D02Kpi.root
/home/LHCB-T3/smaccoli/CPV_in_D02hh/data/pGun/Dst2D0pi_D02Kpi_2016_Up/1650/pGun_Dst2D0pi_D02Kpi.root
/home/LHCB-T3/smaccoli/CPV_in_D02hh/data/pGun/Dst2D0pi_D02Kpi_2016_Up/1651/pGun_Dst2D0pi_D02Kpi.root
/home/LHCB-T3/smaccoli/CPV_in_D02hh/data/pGun/Dst2D0pi_D02Kpi_2016_Up/1652/pGun_Dst2D0pi_D02Kpi.root
