/home/LHCB-T3/smaccoli/CPV_in_D02hh/data/pGun/Dst2D0pi_D02Kpi_2016_Up/4920/pGun_Dst2D0pi_D02Kpi.root
/home/LHCB-T3/smaccoli/CPV_in_D02hh/data/pGun/Dst2D0pi_D02Kpi_2016_Up/4921/pGun_Dst2D0pi_D02Kpi.root
/home/LHCB-T3/smaccoli/CPV_in_D02hh/data/pGun/Dst2D0pi_D02Kpi_2016_Up/4922/pGun_Dst2D0pi_D02Kpi.root
/home/LHCB-T3/smaccoli/CPV_in_D02hh/data/pGun/Dst2D0pi_D02Kpi_2016_Up/4923/pGun_Dst2D0pi_D02Kpi.root
/home/LHCB-T3/smaccoli/CPV_in_D02hh/data/pGun/Dst2D0pi_D02Kpi_2016_Up/4924/pGun_Dst2D0pi_D02Kpi.root
/home/LHCB-T3/smaccoli/CPV_in_D02hh/data/pGun/Dst2D0pi_D02Kpi_2016_Up/4925/pGun_Dst2D0pi_D02Kpi.root
/home/LHCB-T3/smaccoli/CPV_in_D02hh/data/pGun/Dst2D0pi_D02Kpi_2016_Up/4926/pGun_Dst2D0pi_D02Kpi.root
/home/LHCB-T3/smaccoli/CPV_in_D02hh/data/pGun/Dst2D0pi_D02Kpi_2016_Up/4927/pGun_Dst2D0pi_D02Kpi.root
/home/LHCB-T3/smaccoli/CPV_in_D02hh/data/pGun/Dst2D0pi_D02Kpi_2016_Up/4928/pGun_Dst2D0pi_D02Kpi.root
/home/LHCB-T3/smaccoli/CPV_in_D02hh/data/pGun/Dst2D0pi_D02Kpi_2016_Up/4929/pGun_Dst2D0pi_D02Kpi.root
/home/LHCB-T3/smaccoli/CPV_in_D02hh/data/pGun/Dst2D0pi_D02Kpi_2016_Up/492/pGun_Dst2D0pi_D02Kpi.root
/home/LHCB-T3/smaccoli/CPV_in_D02hh/data/pGun/Dst2D0pi_D02Kpi_2016_Up/4930/pGun_Dst2D0pi_D02Kpi.root
/home/LHCB-T3/smaccoli/CPV_in_D02hh/data/pGun/Dst2D0pi_D02Kpi_2016_Up/4932/pGun_Dst2D0pi_D02Kpi.root
/home/LHCB-T3/smaccoli/CPV_in_D02hh/data/pGun/Dst2D0pi_D02Kpi_2016_Up/4934/pGun_Dst2D0pi_D02Kpi.root
/home/LHCB-T3/smaccoli/CPV_in_D02hh/data/pGun/Dst2D0pi_D02Kpi_2016_Up/4935/pGun_Dst2D0pi_D02Kpi.root
/home/LHCB-T3/smaccoli/CPV_in_D02hh/data/pGun/Dst2D0pi_D02Kpi_2016_Up/4936/pGun_Dst2D0pi_D02Kpi.root
/home/LHCB-T3/smaccoli/CPV_in_D02hh/data/pGun/Dst2D0pi_D02Kpi_2016_Up/4937/pGun_Dst2D0pi_D02Kpi.root
/home/LHCB-T3/smaccoli/CPV_in_D02hh/data/pGun/Dst2D0pi_D02Kpi_2016_Up/4938/pGun_Dst2D0pi_D02Kpi.root
/home/LHCB-T3/smaccoli/CPV_in_D02hh/data/pGun/Dst2D0pi_D02Kpi_2016_Up/4939/pGun_Dst2D0pi_D02Kpi.root
/home/LHCB-T3/smaccoli/CPV_in_D02hh/data/pGun/Dst2D0pi_D02Kpi_2016_Up/493/pGun_Dst2D0pi_D02Kpi.root
/home/LHCB-T3/smaccoli/CPV_in_D02hh/data/pGun/Dst2D0pi_D02Kpi_2016_Up/4940/pGun_Dst2D0pi_D02Kpi.root
/home/LHCB-T3/smaccoli/CPV_in_D02hh/data/pGun/Dst2D0pi_D02Kpi_2016_Up/4941/pGun_Dst2D0pi_D02Kpi.root
/home/LHCB-T3/smaccoli/CPV_in_D02hh/data/pGun/Dst2D0pi_D02Kpi_2016_Up/4942/pGun_Dst2D0pi_D02Kpi.root
/home/LHCB-T3/smaccoli/CPV_in_D02hh/data/pGun/Dst2D0pi_D02Kpi_2016_Up/4943/pGun_Dst2D0pi_D02Kpi.root
/home/LHCB-T3/smaccoli/CPV_in_D02hh/data/pGun/Dst2D0pi_D02Kpi_2016_Up/4945/pGun_Dst2D0pi_D02Kpi.root
/home/LHCB-T3/smaccoli/CPV_in_D02hh/data/pGun/Dst2D0pi_D02Kpi_2016_Up/4946/pGun_Dst2D0pi_D02Kpi.root
/home/LHCB-T3/smaccoli/CPV_in_D02hh/data/pGun/Dst2D0pi_D02Kpi_2016_Up/4947/pGun_Dst2D0pi_D02Kpi.root
/home/LHCB-T3/smaccoli/CPV_in_D02hh/data/pGun/Dst2D0pi_D02Kpi_2016_Up/4948/pGun_Dst2D0pi_D02Kpi.root
/home/LHCB-T3/smaccoli/CPV_in_D02hh/data/pGun/Dst2D0pi_D02Kpi_2016_Up/4949/pGun_Dst2D0pi_D02Kpi.root
/home/LHCB-T3/smaccoli/CPV_in_D02hh/data/pGun/Dst2D0pi_D02Kpi_2016_Up/494/pGun_Dst2D0pi_D02Kpi.root
/home/LHCB-T3/smaccoli/CPV_in_D02hh/data/pGun/Dst2D0pi_D02Kpi_2016_Up/4950/pGun_Dst2D0pi_D02Kpi.root
/home/LHCB-T3/smaccoli/CPV_in_D02hh/data/pGun/Dst2D0pi_D02Kpi_2016_Up/4951/pGun_Dst2D0pi_D02Kpi.root
/home/LHCB-T3/smaccoli/CPV_in_D02hh/data/pGun/Dst2D0pi_D02Kpi_2016_Up/4952/pGun_Dst2D0pi_D02Kpi.root
/home/LHCB-T3/smaccoli/CPV_in_D02hh/data/pGun/Dst2D0pi_D02Kpi_2016_Up/4953/pGun_Dst2D0pi_D02Kpi.root
/home/LHCB-T3/smaccoli/CPV_in_D02hh/data/pGun/Dst2D0pi_D02Kpi_2016_Up/4954/pGun_Dst2D0pi_D02Kpi.root
/home/LHCB-T3/smaccoli/CPV_in_D02hh/data/pGun/Dst2D0pi_D02Kpi_2016_Up/4955/pGun_Dst2D0pi_D02Kpi.root
/home/LHCB-T3/smaccoli/CPV_in_D02hh/data/pGun/Dst2D0pi_D02Kpi_2016_Up/4956/pGun_Dst2D0pi_D02Kpi.root
/home/LHCB-T3/smaccoli/CPV_in_D02hh/data/pGun/Dst2D0pi_D02Kpi_2016_Up/4957/pGun_Dst2D0pi_D02Kpi.root
/home/LHCB-T3/smaccoli/CPV_in_D02hh/data/pGun/Dst2D0pi_D02Kpi_2016_Up/4958/pGun_Dst2D0pi_D02Kpi.root
/home/LHCB-T3/smaccoli/CPV_in_D02hh/data/pGun/Dst2D0pi_D02Kpi_2016_Up/4959/pGun_Dst2D0pi_D02Kpi.root
/home/LHCB-T3/smaccoli/CPV_in_D02hh/data/pGun/Dst2D0pi_D02Kpi_2016_Up/495/pGun_Dst2D0pi_D02Kpi.root
/home/LHCB-T3/smaccoli/CPV_in_D02hh/data/pGun/Dst2D0pi_D02Kpi_2016_Up/4960/pGun_Dst2D0pi_D02Kpi.root
/home/LHCB-T3/smaccoli/CPV_in_D02hh/data/pGun/Dst2D0pi_D02Kpi_2016_Up/4961/pGun_Dst2D0pi_D02Kpi.root
/home/LHCB-T3/smaccoli/CPV_in_D02hh/data/pGun/Dst2D0pi_D02Kpi_2016_Up/4962/pGun_Dst2D0pi_D02Kpi.root
/home/LHCB-T3/smaccoli/CPV_in_D02hh/data/pGun/Dst2D0pi_D02Kpi_2016_Up/4963/pGun_Dst2D0pi_D02Kpi.root
/home/LHCB-T3/smaccoli/CPV_in_D02hh/data/pGun/Dst2D0pi_D02Kpi_2016_Up/4964/pGun_Dst2D0pi_D02Kpi.root
/home/LHCB-T3/smaccoli/CPV_in_D02hh/data/pGun/Dst2D0pi_D02Kpi_2016_Up/4965/pGun_Dst2D0pi_D02Kpi.root
/home/LHCB-T3/smaccoli/CPV_in_D02hh/data/pGun/Dst2D0pi_D02Kpi_2016_Up/4968/pGun_Dst2D0pi_D02Kpi.root
/home/LHCB-T3/smaccoli/CPV_in_D02hh/data/pGun/Dst2D0pi_D02Kpi_2016_Up/4969/pGun_Dst2D0pi_D02Kpi.root
/home/LHCB-T3/smaccoli/CPV_in_D02hh/data/pGun/Dst2D0pi_D02Kpi_2016_Up/496/pGun_Dst2D0pi_D02Kpi.root
/home/LHCB-T3/smaccoli/CPV_in_D02hh/data/pGun/Dst2D0pi_D02Kpi_2016_Up/4970/pGun_Dst2D0pi_D02Kpi.root
/home/LHCB-T3/smaccoli/CPV_in_D02hh/data/pGun/Dst2D0pi_D02Kpi_2016_Up/4971/pGun_Dst2D0pi_D02Kpi.root
/home/LHCB-T3/smaccoli/CPV_in_D02hh/data/pGun/Dst2D0pi_D02Kpi_2016_Up/4972/pGun_Dst2D0pi_D02Kpi.root
/home/LHCB-T3/smaccoli/CPV_in_D02hh/data/pGun/Dst2D0pi_D02Kpi_2016_Up/4973/pGun_Dst2D0pi_D02Kpi.root
/home/LHCB-T3/smaccoli/CPV_in_D02hh/data/pGun/Dst2D0pi_D02Kpi_2016_Up/4974/pGun_Dst2D0pi_D02Kpi.root
/home/LHCB-T3/smaccoli/CPV_in_D02hh/data/pGun/Dst2D0pi_D02Kpi_2016_Up/4975/pGun_Dst2D0pi_D02Kpi.root
/home/LHCB-T3/smaccoli/CPV_in_D02hh/data/pGun/Dst2D0pi_D02Kpi_2016_Up/4977/pGun_Dst2D0pi_D02Kpi.root
/home/LHCB-T3/smaccoli/CPV_in_D02hh/data/pGun/Dst2D0pi_D02Kpi_2016_Up/4978/pGun_Dst2D0pi_D02Kpi.root
/home/LHCB-T3/smaccoli/CPV_in_D02hh/data/pGun/Dst2D0pi_D02Kpi_2016_Up/4979/pGun_Dst2D0pi_D02Kpi.root
/home/LHCB-T3/smaccoli/CPV_in_D02hh/data/pGun/Dst2D0pi_D02Kpi_2016_Up/497/pGun_Dst2D0pi_D02Kpi.root
/home/LHCB-T3/smaccoli/CPV_in_D02hh/data/pGun/Dst2D0pi_D02Kpi_2016_Up/4980/pGun_Dst2D0pi_D02Kpi.root
/home/LHCB-T3/smaccoli/CPV_in_D02hh/data/pGun/Dst2D0pi_D02Kpi_2016_Up/4981/pGun_Dst2D0pi_D02Kpi.root
/home/LHCB-T3/smaccoli/CPV_in_D02hh/data/pGun/Dst2D0pi_D02Kpi_2016_Up/4982/pGun_Dst2D0pi_D02Kpi.root
/home/LHCB-T3/smaccoli/CPV_in_D02hh/data/pGun/Dst2D0pi_D02Kpi_2016_Up/4983/pGun_Dst2D0pi_D02Kpi.root
/home/LHCB-T3/smaccoli/CPV_in_D02hh/data/pGun/Dst2D0pi_D02Kpi_2016_Up/4984/pGun_Dst2D0pi_D02Kpi.root
/home/LHCB-T3/smaccoli/CPV_in_D02hh/data/pGun/Dst2D0pi_D02Kpi_2016_Up/4985/pGun_Dst2D0pi_D02Kpi.root
/home/LHCB-T3/smaccoli/CPV_in_D02hh/data/pGun/Dst2D0pi_D02Kpi_2016_Up/4986/pGun_Dst2D0pi_D02Kpi.root
/home/LHCB-T3/smaccoli/CPV_in_D02hh/data/pGun/Dst2D0pi_D02Kpi_2016_Up/4987/pGun_Dst2D0pi_D02Kpi.root
/home/LHCB-T3/smaccoli/CPV_in_D02hh/data/pGun/Dst2D0pi_D02Kpi_2016_Up/4988/pGun_Dst2D0pi_D02Kpi.root
/home/LHCB-T3/smaccoli/CPV_in_D02hh/data/pGun/Dst2D0pi_D02Kpi_2016_Up/4989/pGun_Dst2D0pi_D02Kpi.root
/home/LHCB-T3/smaccoli/CPV_in_D02hh/data/pGun/Dst2D0pi_D02Kpi_2016_Up/498/pGun_Dst2D0pi_D02Kpi.root
/home/LHCB-T3/smaccoli/CPV_in_D02hh/data/pGun/Dst2D0pi_D02Kpi_2016_Up/4990/pGun_Dst2D0pi_D02Kpi.root
/home/LHCB-T3/smaccoli/CPV_in_D02hh/data/pGun/Dst2D0pi_D02Kpi_2016_Up/4991/pGun_Dst2D0pi_D02Kpi.root
/home/LHCB-T3/smaccoli/CPV_in_D02hh/data/pGun/Dst2D0pi_D02Kpi_2016_Up/4992/pGun_Dst2D0pi_D02Kpi.root
/home/LHCB-T3/smaccoli/CPV_in_D02hh/data/pGun/Dst2D0pi_D02Kpi_2016_Up/4993/pGun_Dst2D0pi_D02Kpi.root
/home/LHCB-T3/smaccoli/CPV_in_D02hh/data/pGun/Dst2D0pi_D02Kpi_2016_Up/4996/pGun_Dst2D0pi_D02Kpi.root
/home/LHCB-T3/smaccoli/CPV_in_D02hh/data/pGun/Dst2D0pi_D02Kpi_2016_Up/4997/pGun_Dst2D0pi_D02Kpi.root
/home/LHCB-T3/smaccoli/CPV_in_D02hh/data/pGun/Dst2D0pi_D02Kpi_2016_Up/4998/pGun_Dst2D0pi_D02Kpi.root
/home/LHCB-T3/smaccoli/CPV_in_D02hh/data/pGun/Dst2D0pi_D02Kpi_2016_Up/499/pGun_Dst2D0pi_D02Kpi.root
/home/LHCB-T3/smaccoli/CPV_in_D02hh/data/pGun/Dst2D0pi_D02Kpi_2016_Up/49/pGun_Dst2D0pi_D02Kpi.root
/home/LHCB-T3/smaccoli/CPV_in_D02hh/data/pGun/Dst2D0pi_D02Kpi_2016_Up/4/pGun_Dst2D0pi_D02Kpi.root
/home/LHCB-T3/smaccoli/CPV_in_D02hh/data/pGun/Dst2D0pi_D02Kpi_2016_Up/500/pGun_Dst2D0pi_D02Kpi.root
/home/LHCB-T3/smaccoli/CPV_in_D02hh/data/pGun/Dst2D0pi_D02Kpi_2016_Up/501/pGun_Dst2D0pi_D02Kpi.root
/home/LHCB-T3/smaccoli/CPV_in_D02hh/data/pGun/Dst2D0pi_D02Kpi_2016_Up/502/pGun_Dst2D0pi_D02Kpi.root
/home/LHCB-T3/smaccoli/CPV_in_D02hh/data/pGun/Dst2D0pi_D02Kpi_2016_Up/503/pGun_Dst2D0pi_D02Kpi.root
/home/LHCB-T3/smaccoli/CPV_in_D02hh/data/pGun/Dst2D0pi_D02Kpi_2016_Up/504/pGun_Dst2D0pi_D02Kpi.root
/home/LHCB-T3/smaccoli/CPV_in_D02hh/data/pGun/Dst2D0pi_D02Kpi_2016_Up/505/pGun_Dst2D0pi_D02Kpi.root
/home/LHCB-T3/smaccoli/CPV_in_D02hh/data/pGun/Dst2D0pi_D02Kpi_2016_Up/506/pGun_Dst2D0pi_D02Kpi.root
/home/LHCB-T3/smaccoli/CPV_in_D02hh/data/pGun/Dst2D0pi_D02Kpi_2016_Up/507/pGun_Dst2D0pi_D02Kpi.root
/home/LHCB-T3/smaccoli/CPV_in_D02hh/data/pGun/Dst2D0pi_D02Kpi_2016_Up/508/pGun_Dst2D0pi_D02Kpi.root
/home/LHCB-T3/smaccoli/CPV_in_D02hh/data/pGun/Dst2D0pi_D02Kpi_2016_Up/509/pGun_Dst2D0pi_D02Kpi.root
/home/LHCB-T3/smaccoli/CPV_in_D02hh/data/pGun/Dst2D0pi_D02Kpi_2016_Up/50/pGun_Dst2D0pi_D02Kpi.root
/home/LHCB-T3/smaccoli/CPV_in_D02hh/data/pGun/Dst2D0pi_D02Kpi_2016_Up/510/pGun_Dst2D0pi_D02Kpi.root
/home/LHCB-T3/smaccoli/CPV_in_D02hh/data/pGun/Dst2D0pi_D02Kpi_2016_Up/511/pGun_Dst2D0pi_D02Kpi.root
/home/LHCB-T3/smaccoli/CPV_in_D02hh/data/pGun/Dst2D0pi_D02Kpi_2016_Up/512/pGun_Dst2D0pi_D02Kpi.root
/home/LHCB-T3/smaccoli/CPV_in_D02hh/data/pGun/Dst2D0pi_D02Kpi_2016_Up/513/pGun_Dst2D0pi_D02Kpi.root
/home/LHCB-T3/smaccoli/CPV_in_D02hh/data/pGun/Dst2D0pi_D02Kpi_2016_Up/514/pGun_Dst2D0pi_D02Kpi.root
/home/LHCB-T3/smaccoli/CPV_in_D02hh/data/pGun/Dst2D0pi_D02Kpi_2016_Up/515/pGun_Dst2D0pi_D02Kpi.root
/home/LHCB-T3/smaccoli/CPV_in_D02hh/data/pGun/Dst2D0pi_D02Kpi_2016_Up/516/pGun_Dst2D0pi_D02Kpi.root
