P1_ETA	DeltaA: 1.82937e-05	DeltaA_err: 1.49158e-05
P1_PHI	DeltaA: -3.12932e-05	DeltaA_err: 1.69702e-05
P1_PT	DeltaA: 2.36138e-05	DeltaA_err: 3.25169e-05
P1_PX	DeltaA: -1.69266e-05	DeltaA_err: 2.29774e-05
P1_PY	DeltaA: 3.17931e-05	DeltaA_err: 2.24589e-05
P1_PZ	DeltaA: -8.45063e-06	DeltaA_err: 9.44437e-06
P2_ETA	DeltaA: 6.00615e-06	DeltaA_err: 1.76909e-05
P2_PHI	DeltaA: -1.38916e-05	DeltaA_err: 1.50866e-05
P2_PT	DeltaA: 1.14787e-05	DeltaA_err: 2.91687e-05
P2_PX	DeltaA: 3.92627e-05	DeltaA_err: 2.76484e-05
P2_PY	DeltaA: -3.17018e-05	DeltaA_err: 3.13504e-05
P2_PZ	DeltaA: 8.7743e-06	DeltaA_err: 7.34104e-06
X_P	DeltaA: -8.44232e-05	DeltaA_err: 0.000367192
X_PT	DeltaA: -0.000532528	DeltaA_err: 0.00103161
