A_bkg =  0.012384 +/- 0.0049416 L(-1 - 1) 
A_sigD_blind = -0.00250582 +/- 0.0015631 L(-1 - 1) 
JSU1_delta_nu =  0.0000 C L(-5 - 5) 
JSU1_delta_tau =  0.0000 C L(-5 - 5) 
JSU1_nu = -0.608202 +/- 0.053249 C L(-5 - 5) 
JSU1_tau =  0.51206 +/- 0.022015 C L(0 - 5) 
N_bkg =  76204 +/- 373.62 L(0 - 1e+10) 
N_sigD =  466807 +/- 728.14 L(0 - 1e+10) 
bkg_0_LMslope =  0.0000 C L(-10 - 1) 
bkg_0_frac =  1.0000 C L(0 - 1) 
bkg_0_slope = -0.00436165 +/- 0.00012940 C L(-10 - 0) 
bkg_delta_LMslope =  0.0000 C L(-10 - 10) 
bkg_delta_frac =  0.0000 C L(-10 - 10) 
bkg_delta_slope = -0.0000738096 +/- 0.00010682 L(-10 - 10) 
sigD_0_frac1 =  0.50068 +/- 0.017134 C L(0 - 1) 
sigD_0_mean1 =  1869.7 +/- 0.029080 C L(1850 - 2000) 
sigD_0_sigma1 =  12.608 +/- 0.20563 C L(0 - 40) 
sigD_0_sigma2 =  7.2540 +/- 0.058722 C L(0 - 50) 
sigD_delta_frac1 =  0.0000 C L(-10 - 10) 
sigD_delta_mean =  0.025271 +/- 0.014685 L(-10 - 10) 
sigD_delta_sigma1 =  0.0000 C L(-10 - 10) 
sigD_delta_sigma2 =  0.0000 C L(-10 - 10) 
