/storage/gpfs_data/local/lhcb/users/ferrari/ADKPi_ntuples/2015/MagDown/255/tuple_D2KS0H_D2KPiPi_MS_2015.root
/storage/gpfs_data/local/lhcb/users/ferrari/ADKPi_ntuples/2015/MagDown/256/tuple_D2KS0H_D2KPiPi_MS_2015.root
/storage/gpfs_data/local/lhcb/users/ferrari/ADKPi_ntuples/2015/MagDown/257/tuple_D2KS0H_D2KPiPi_MS_2015.root
/storage/gpfs_data/local/lhcb/users/ferrari/ADKPi_ntuples/2015/MagDown/258/tuple_D2KS0H_D2KPiPi_MS_2015.root
/storage/gpfs_data/local/lhcb/users/ferrari/ADKPi_ntuples/2015/MagDown/259/tuple_D2KS0H_D2KPiPi_MS_2015.root
/storage/gpfs_data/local/lhcb/users/ferrari/ADKPi_ntuples/2015/MagDown/25/tuple_D2KS0H_D2KPiPi_MS_2015.root
/storage/gpfs_data/local/lhcb/users/ferrari/ADKPi_ntuples/2015/MagDown/260/tuple_D2KS0H_D2KPiPi_MS_2015.root
/storage/gpfs_data/local/lhcb/users/ferrari/ADKPi_ntuples/2015/MagDown/261/tuple_D2KS0H_D2KPiPi_MS_2015.root
/storage/gpfs_data/local/lhcb/users/ferrari/ADKPi_ntuples/2015/MagDown/262/tuple_D2KS0H_D2KPiPi_MS_2015.root
