/storage/gpfs_data/local/lhcb/users/ferrari/ADKPi_ntuples/2017/MagUp/93/tuple_D2KS0H_D2KPiPi_MS_2017.root
/storage/gpfs_data/local/lhcb/users/ferrari/ADKPi_ntuples/2017/MagUp/94/tuple_D2KS0H_D2KPiPi_MS_2017.root
/storage/gpfs_data/local/lhcb/users/ferrari/ADKPi_ntuples/2017/MagUp/95/tuple_D2KS0H_D2KPiPi_MS_2017.root
/storage/gpfs_data/local/lhcb/users/ferrari/ADKPi_ntuples/2017/MagUp/96/tuple_D2KS0H_D2KPiPi_MS_2017.root
/storage/gpfs_data/local/lhcb/users/ferrari/ADKPi_ntuples/2017/MagUp/97/tuple_D2KS0H_D2KPiPi_MS_2017.root
/storage/gpfs_data/local/lhcb/users/ferrari/ADKPi_ntuples/2017/MagUp/98/tuple_D2KS0H_D2KPiPi_MS_2017.root
/storage/gpfs_data/local/lhcb/users/ferrari/ADKPi_ntuples/2017/MagUp/99/tuple_D2KS0H_D2KPiPi_MS_2017.root
/storage/gpfs_data/local/lhcb/users/ferrari/ADKPi_ntuples/2017/MagUp/9/tuple_D2KS0H_D2KPiPi_MS_2017.root
