/storage/gpfs_data/local/lhcb/users/ferrari/ADKPi_ntuples/2018/MagUp/1025/tuple_D2KS0H_D2KPiPi_MS_2018.root
/storage/gpfs_data/local/lhcb/users/ferrari/ADKPi_ntuples/2018/MagUp/1026/tuple_D2KS0H_D2KPiPi_MS_2018.root
/storage/gpfs_data/local/lhcb/users/ferrari/ADKPi_ntuples/2018/MagUp/1027/tuple_D2KS0H_D2KPiPi_MS_2018.root
/storage/gpfs_data/local/lhcb/users/ferrari/ADKPi_ntuples/2018/MagUp/1028/tuple_D2KS0H_D2KPiPi_MS_2018.root
/storage/gpfs_data/local/lhcb/users/ferrari/ADKPi_ntuples/2018/MagUp/1029/tuple_D2KS0H_D2KPiPi_MS_2018.root
/storage/gpfs_data/local/lhcb/users/ferrari/ADKPi_ntuples/2018/MagUp/102/tuple_D2KS0H_D2KPiPi_MS_2018.root
/storage/gpfs_data/local/lhcb/users/ferrari/ADKPi_ntuples/2018/MagUp/1030/tuple_D2KS0H_D2KPiPi_MS_2018.root
/storage/gpfs_data/local/lhcb/users/ferrari/ADKPi_ntuples/2018/MagUp/1031/tuple_D2KS0H_D2KPiPi_MS_2018.root
/storage/gpfs_data/local/lhcb/users/ferrari/ADKPi_ntuples/2018/MagUp/1032/tuple_D2KS0H_D2KPiPi_MS_2018.root
