/storage/gpfs_data/local/lhcb/users/ferrari/ADKPi_ntuples/2017/MagDown/156/tuple_D2KS0H_D2KPiPi_MS_2017.root
/storage/gpfs_data/local/lhcb/users/ferrari/ADKPi_ntuples/2017/MagDown/157/tuple_D2KS0H_D2KPiPi_MS_2017.root
/storage/gpfs_data/local/lhcb/users/ferrari/ADKPi_ntuples/2017/MagDown/158/tuple_D2KS0H_D2KPiPi_MS_2017.root
/storage/gpfs_data/local/lhcb/users/ferrari/ADKPi_ntuples/2017/MagDown/159/tuple_D2KS0H_D2KPiPi_MS_2017.root
/storage/gpfs_data/local/lhcb/users/ferrari/ADKPi_ntuples/2017/MagDown/15/tuple_D2KS0H_D2KPiPi_MS_2017.root
/storage/gpfs_data/local/lhcb/users/ferrari/ADKPi_ntuples/2017/MagDown/160/tuple_D2KS0H_D2KPiPi_MS_2017.root
/storage/gpfs_data/local/lhcb/users/ferrari/ADKPi_ntuples/2017/MagDown/161/tuple_D2KS0H_D2KPiPi_MS_2017.root
/storage/gpfs_data/local/lhcb/users/ferrari/ADKPi_ntuples/2017/MagDown/162/tuple_D2KS0H_D2KPiPi_MS_2017.root
/storage/gpfs_data/local/lhcb/users/ferrari/ADKPi_ntuples/2017/MagDown/163/tuple_D2KS0H_D2KPiPi_MS_2017.root
