/storage/gpfs_data/local/lhcb/users/ferrari/ADKPi_ntuples/2015/MagDown/141/tuple_D2KS0H_D2KPiPi_MS_2015.root
/storage/gpfs_data/local/lhcb/users/ferrari/ADKPi_ntuples/2015/MagDown/142/tuple_D2KS0H_D2KPiPi_MS_2015.root
/storage/gpfs_data/local/lhcb/users/ferrari/ADKPi_ntuples/2015/MagDown/143/tuple_D2KS0H_D2KPiPi_MS_2015.root
/storage/gpfs_data/local/lhcb/users/ferrari/ADKPi_ntuples/2015/MagDown/144/tuple_D2KS0H_D2KPiPi_MS_2015.root
/storage/gpfs_data/local/lhcb/users/ferrari/ADKPi_ntuples/2015/MagDown/145/tuple_D2KS0H_D2KPiPi_MS_2015.root
/storage/gpfs_data/local/lhcb/users/ferrari/ADKPi_ntuples/2015/MagDown/146/tuple_D2KS0H_D2KPiPi_MS_2015.root
/storage/gpfs_data/local/lhcb/users/ferrari/ADKPi_ntuples/2015/MagDown/147/tuple_D2KS0H_D2KPiPi_MS_2015.root
/storage/gpfs_data/local/lhcb/users/ferrari/ADKPi_ntuples/2015/MagDown/148/tuple_D2KS0H_D2KPiPi_MS_2015.root
/storage/gpfs_data/local/lhcb/users/ferrari/ADKPi_ntuples/2015/MagDown/149/tuple_D2KS0H_D2KPiPi_MS_2015.root
