/storage/gpfs_data/local/lhcb/users/ferrari/ADKPi_ntuples/2017/MagDown/130/tuple_D2KS0H_D2KPiPi_MS_2017.root
/storage/gpfs_data/local/lhcb/users/ferrari/ADKPi_ntuples/2017/MagDown/131/tuple_D2KS0H_D2KPiPi_MS_2017.root
/storage/gpfs_data/local/lhcb/users/ferrari/ADKPi_ntuples/2017/MagDown/132/tuple_D2KS0H_D2KPiPi_MS_2017.root
/storage/gpfs_data/local/lhcb/users/ferrari/ADKPi_ntuples/2017/MagDown/133/tuple_D2KS0H_D2KPiPi_MS_2017.root
/storage/gpfs_data/local/lhcb/users/ferrari/ADKPi_ntuples/2017/MagDown/134/tuple_D2KS0H_D2KPiPi_MS_2017.root
/storage/gpfs_data/local/lhcb/users/ferrari/ADKPi_ntuples/2017/MagDown/136/tuple_D2KS0H_D2KPiPi_MS_2017.root
/storage/gpfs_data/local/lhcb/users/ferrari/ADKPi_ntuples/2017/MagDown/137/tuple_D2KS0H_D2KPiPi_MS_2017.root
/storage/gpfs_data/local/lhcb/users/ferrari/ADKPi_ntuples/2017/MagDown/138/tuple_D2KS0H_D2KPiPi_MS_2017.root
/storage/gpfs_data/local/lhcb/users/ferrari/ADKPi_ntuples/2017/MagDown/139/tuple_D2KS0H_D2KPiPi_MS_2017.root
