/storage/gpfs_data/local/lhcb/users/ferrari/ADKPi_ntuples/2018/MagUp/203/tuple_D2KS0H_D2KPiPi_MS_2018.root
/storage/gpfs_data/local/lhcb/users/ferrari/ADKPi_ntuples/2018/MagUp/204/tuple_D2KS0H_D2KPiPi_MS_2018.root
/storage/gpfs_data/local/lhcb/users/ferrari/ADKPi_ntuples/2018/MagUp/205/tuple_D2KS0H_D2KPiPi_MS_2018.root
/storage/gpfs_data/local/lhcb/users/ferrari/ADKPi_ntuples/2018/MagUp/206/tuple_D2KS0H_D2KPiPi_MS_2018.root
/storage/gpfs_data/local/lhcb/users/ferrari/ADKPi_ntuples/2018/MagUp/207/tuple_D2KS0H_D2KPiPi_MS_2018.root
/storage/gpfs_data/local/lhcb/users/ferrari/ADKPi_ntuples/2018/MagUp/208/tuple_D2KS0H_D2KPiPi_MS_2018.root
/storage/gpfs_data/local/lhcb/users/ferrari/ADKPi_ntuples/2018/MagUp/209/tuple_D2KS0H_D2KPiPi_MS_2018.root
/storage/gpfs_data/local/lhcb/users/ferrari/ADKPi_ntuples/2018/MagUp/20/tuple_D2KS0H_D2KPiPi_MS_2018.root
/storage/gpfs_data/local/lhcb/users/ferrari/ADKPi_ntuples/2018/MagUp/210/tuple_D2KS0H_D2KPiPi_MS_2018.root
