/storage/gpfs_data/local/lhcb/users/ferrari/ADKPi_ntuples/2015/MagDown/222/tuple_D2KS0H_D2KPiPi_MS_2015.root
/storage/gpfs_data/local/lhcb/users/ferrari/ADKPi_ntuples/2015/MagDown/223/tuple_D2KS0H_D2KPiPi_MS_2015.root
/storage/gpfs_data/local/lhcb/users/ferrari/ADKPi_ntuples/2015/MagDown/224/tuple_D2KS0H_D2KPiPi_MS_2015.root
/storage/gpfs_data/local/lhcb/users/ferrari/ADKPi_ntuples/2015/MagDown/225/tuple_D2KS0H_D2KPiPi_MS_2015.root
/storage/gpfs_data/local/lhcb/users/ferrari/ADKPi_ntuples/2015/MagDown/226/tuple_D2KS0H_D2KPiPi_MS_2015.root
/storage/gpfs_data/local/lhcb/users/ferrari/ADKPi_ntuples/2015/MagDown/227/tuple_D2KS0H_D2KPiPi_MS_2015.root
/storage/gpfs_data/local/lhcb/users/ferrari/ADKPi_ntuples/2015/MagDown/228/tuple_D2KS0H_D2KPiPi_MS_2015.root
/storage/gpfs_data/local/lhcb/users/ferrari/ADKPi_ntuples/2015/MagDown/229/tuple_D2KS0H_D2KPiPi_MS_2015.root
/storage/gpfs_data/local/lhcb/users/ferrari/ADKPi_ntuples/2015/MagDown/22/tuple_D2KS0H_D2KPiPi_MS_2015.root
