/home/LHCB-T3/smaccoli/CPV_in_D02hh/data/pGun/Dp2KS0pipLL_2016_Dw/2070/pGun_Dp2KS0pipLL.root
/home/LHCB-T3/smaccoli/CPV_in_D02hh/data/pGun/Dp2KS0pipLL_2016_Dw/2071/pGun_Dp2KS0pipLL.root
/home/LHCB-T3/smaccoli/CPV_in_D02hh/data/pGun/Dp2KS0pipLL_2016_Dw/2072/pGun_Dp2KS0pipLL.root
/home/LHCB-T3/smaccoli/CPV_in_D02hh/data/pGun/Dp2KS0pipLL_2016_Dw/2073/pGun_Dp2KS0pipLL.root
/home/LHCB-T3/smaccoli/CPV_in_D02hh/data/pGun/Dp2KS0pipLL_2016_Dw/2074/pGun_Dp2KS0pipLL.root
/home/LHCB-T3/smaccoli/CPV_in_D02hh/data/pGun/Dp2KS0pipLL_2016_Dw/2075/pGun_Dp2KS0pipLL.root
/home/LHCB-T3/smaccoli/CPV_in_D02hh/data/pGun/Dp2KS0pipLL_2016_Dw/2076/pGun_Dp2KS0pipLL.root
/home/LHCB-T3/smaccoli/CPV_in_D02hh/data/pGun/Dp2KS0pipLL_2016_Dw/2077/pGun_Dp2KS0pipLL.root
/home/LHCB-T3/smaccoli/CPV_in_D02hh/data/pGun/Dp2KS0pipLL_2016_Dw/2078/pGun_Dp2KS0pipLL.root
/home/LHCB-T3/smaccoli/CPV_in_D02hh/data/pGun/Dp2KS0pipLL_2016_Dw/2079/pGun_Dp2KS0pipLL.root
/home/LHCB-T3/smaccoli/CPV_in_D02hh/data/pGun/Dp2KS0pipLL_2016_Dw/207/pGun_Dp2KS0pipLL.root
/home/LHCB-T3/smaccoli/CPV_in_D02hh/data/pGun/Dp2KS0pipLL_2016_Dw/2080/pGun_Dp2KS0pipLL.root
/home/LHCB-T3/smaccoli/CPV_in_D02hh/data/pGun/Dp2KS0pipLL_2016_Dw/2081/pGun_Dp2KS0pipLL.root
/home/LHCB-T3/smaccoli/CPV_in_D02hh/data/pGun/Dp2KS0pipLL_2016_Dw/2082/pGun_Dp2KS0pipLL.root
/home/LHCB-T3/smaccoli/CPV_in_D02hh/data/pGun/Dp2KS0pipLL_2016_Dw/2083/pGun_Dp2KS0pipLL.root
/home/LHCB-T3/smaccoli/CPV_in_D02hh/data/pGun/Dp2KS0pipLL_2016_Dw/2084/pGun_Dp2KS0pipLL.root
/home/LHCB-T3/smaccoli/CPV_in_D02hh/data/pGun/Dp2KS0pipLL_2016_Dw/2085/pGun_Dp2KS0pipLL.root
/home/LHCB-T3/smaccoli/CPV_in_D02hh/data/pGun/Dp2KS0pipLL_2016_Dw/2086/pGun_Dp2KS0pipLL.root
/home/LHCB-T3/smaccoli/CPV_in_D02hh/data/pGun/Dp2KS0pipLL_2016_Dw/2087/pGun_Dp2KS0pipLL.root
/home/LHCB-T3/smaccoli/CPV_in_D02hh/data/pGun/Dp2KS0pipLL_2016_Dw/2088/pGun_Dp2KS0pipLL.root
/home/LHCB-T3/smaccoli/CPV_in_D02hh/data/pGun/Dp2KS0pipLL_2016_Dw/2089/pGun_Dp2KS0pipLL.root
/home/LHCB-T3/smaccoli/CPV_in_D02hh/data/pGun/Dp2KS0pipLL_2016_Dw/208/pGun_Dp2KS0pipLL.root
/home/LHCB-T3/smaccoli/CPV_in_D02hh/data/pGun/Dp2KS0pipLL_2016_Dw/2090/pGun_Dp2KS0pipLL.root
/home/LHCB-T3/smaccoli/CPV_in_D02hh/data/pGun/Dp2KS0pipLL_2016_Dw/2091/pGun_Dp2KS0pipLL.root
/home/LHCB-T3/smaccoli/CPV_in_D02hh/data/pGun/Dp2KS0pipLL_2016_Dw/2092/pGun_Dp2KS0pipLL.root
/home/LHCB-T3/smaccoli/CPV_in_D02hh/data/pGun/Dp2KS0pipLL_2016_Dw/2093/pGun_Dp2KS0pipLL.root
/home/LHCB-T3/smaccoli/CPV_in_D02hh/data/pGun/Dp2KS0pipLL_2016_Dw/2094/pGun_Dp2KS0pipLL.root
/home/LHCB-T3/smaccoli/CPV_in_D02hh/data/pGun/Dp2KS0pipLL_2016_Dw/2095/pGun_Dp2KS0pipLL.root
/home/LHCB-T3/smaccoli/CPV_in_D02hh/data/pGun/Dp2KS0pipLL_2016_Dw/2096/pGun_Dp2KS0pipLL.root
/home/LHCB-T3/smaccoli/CPV_in_D02hh/data/pGun/Dp2KS0pipLL_2016_Dw/2097/pGun_Dp2KS0pipLL.root
/home/LHCB-T3/smaccoli/CPV_in_D02hh/data/pGun/Dp2KS0pipLL_2016_Dw/2098/pGun_Dp2KS0pipLL.root
/home/LHCB-T3/smaccoli/CPV_in_D02hh/data/pGun/Dp2KS0pipLL_2016_Dw/2099/pGun_Dp2KS0pipLL.root
/home/LHCB-T3/smaccoli/CPV_in_D02hh/data/pGun/Dp2KS0pipLL_2016_Dw/209/pGun_Dp2KS0pipLL.root
/home/LHCB-T3/smaccoli/CPV_in_D02hh/data/pGun/Dp2KS0pipLL_2016_Dw/20/pGun_Dp2KS0pipLL.root
/home/LHCB-T3/smaccoli/CPV_in_D02hh/data/pGun/Dp2KS0pipLL_2016_Dw/2100/pGun_Dp2KS0pipLL.root
/home/LHCB-T3/smaccoli/CPV_in_D02hh/data/pGun/Dp2KS0pipLL_2016_Dw/2101/pGun_Dp2KS0pipLL.root
/home/LHCB-T3/smaccoli/CPV_in_D02hh/data/pGun/Dp2KS0pipLL_2016_Dw/2102/pGun_Dp2KS0pipLL.root
/home/LHCB-T3/smaccoli/CPV_in_D02hh/data/pGun/Dp2KS0pipLL_2016_Dw/2103/pGun_Dp2KS0pipLL.root
/home/LHCB-T3/smaccoli/CPV_in_D02hh/data/pGun/Dp2KS0pipLL_2016_Dw/2104/pGun_Dp2KS0pipLL.root
/home/LHCB-T3/smaccoli/CPV_in_D02hh/data/pGun/Dp2KS0pipLL_2016_Dw/2105/pGun_Dp2KS0pipLL.root
/home/LHCB-T3/smaccoli/CPV_in_D02hh/data/pGun/Dp2KS0pipLL_2016_Dw/2106/pGun_Dp2KS0pipLL.root
/home/LHCB-T3/smaccoli/CPV_in_D02hh/data/pGun/Dp2KS0pipLL_2016_Dw/2107/pGun_Dp2KS0pipLL.root
/home/LHCB-T3/smaccoli/CPV_in_D02hh/data/pGun/Dp2KS0pipLL_2016_Dw/2108/pGun_Dp2KS0pipLL.root
/home/LHCB-T3/smaccoli/CPV_in_D02hh/data/pGun/Dp2KS0pipLL_2016_Dw/2109/pGun_Dp2KS0pipLL.root
/home/LHCB-T3/smaccoli/CPV_in_D02hh/data/pGun/Dp2KS0pipLL_2016_Dw/210/pGun_Dp2KS0pipLL.root
/home/LHCB-T3/smaccoli/CPV_in_D02hh/data/pGun/Dp2KS0pipLL_2016_Dw/2110/pGun_Dp2KS0pipLL.root
/home/LHCB-T3/smaccoli/CPV_in_D02hh/data/pGun/Dp2KS0pipLL_2016_Dw/2111/pGun_Dp2KS0pipLL.root
/home/LHCB-T3/smaccoli/CPV_in_D02hh/data/pGun/Dp2KS0pipLL_2016_Dw/2112/pGun_Dp2KS0pipLL.root
/home/LHCB-T3/smaccoli/CPV_in_D02hh/data/pGun/Dp2KS0pipLL_2016_Dw/2113/pGun_Dp2KS0pipLL.root
/home/LHCB-T3/smaccoli/CPV_in_D02hh/data/pGun/Dp2KS0pipLL_2016_Dw/2114/pGun_Dp2KS0pipLL.root
/home/LHCB-T3/smaccoli/CPV_in_D02hh/data/pGun/Dp2KS0pipLL_2016_Dw/2115/pGun_Dp2KS0pipLL.root
/home/LHCB-T3/smaccoli/CPV_in_D02hh/data/pGun/Dp2KS0pipLL_2016_Dw/2116/pGun_Dp2KS0pipLL.root
/home/LHCB-T3/smaccoli/CPV_in_D02hh/data/pGun/Dp2KS0pipLL_2016_Dw/2117/pGun_Dp2KS0pipLL.root
/home/LHCB-T3/smaccoli/CPV_in_D02hh/data/pGun/Dp2KS0pipLL_2016_Dw/2118/pGun_Dp2KS0pipLL.root
/home/LHCB-T3/smaccoli/CPV_in_D02hh/data/pGun/Dp2KS0pipLL_2016_Dw/2119/pGun_Dp2KS0pipLL.root
/home/LHCB-T3/smaccoli/CPV_in_D02hh/data/pGun/Dp2KS0pipLL_2016_Dw/211/pGun_Dp2KS0pipLL.root
/home/LHCB-T3/smaccoli/CPV_in_D02hh/data/pGun/Dp2KS0pipLL_2016_Dw/2120/pGun_Dp2KS0pipLL.root
/home/LHCB-T3/smaccoli/CPV_in_D02hh/data/pGun/Dp2KS0pipLL_2016_Dw/2121/pGun_Dp2KS0pipLL.root
/home/LHCB-T3/smaccoli/CPV_in_D02hh/data/pGun/Dp2KS0pipLL_2016_Dw/2122/pGun_Dp2KS0pipLL.root
/home/LHCB-T3/smaccoli/CPV_in_D02hh/data/pGun/Dp2KS0pipLL_2016_Dw/2123/pGun_Dp2KS0pipLL.root
/home/LHCB-T3/smaccoli/CPV_in_D02hh/data/pGun/Dp2KS0pipLL_2016_Dw/2124/pGun_Dp2KS0pipLL.root
/home/LHCB-T3/smaccoli/CPV_in_D02hh/data/pGun/Dp2KS0pipLL_2016_Dw/2125/pGun_Dp2KS0pipLL.root
/home/LHCB-T3/smaccoli/CPV_in_D02hh/data/pGun/Dp2KS0pipLL_2016_Dw/2126/pGun_Dp2KS0pipLL.root
/home/LHCB-T3/smaccoli/CPV_in_D02hh/data/pGun/Dp2KS0pipLL_2016_Dw/2127/pGun_Dp2KS0pipLL.root
/home/LHCB-T3/smaccoli/CPV_in_D02hh/data/pGun/Dp2KS0pipLL_2016_Dw/2128/pGun_Dp2KS0pipLL.root
/home/LHCB-T3/smaccoli/CPV_in_D02hh/data/pGun/Dp2KS0pipLL_2016_Dw/2129/pGun_Dp2KS0pipLL.root
/home/LHCB-T3/smaccoli/CPV_in_D02hh/data/pGun/Dp2KS0pipLL_2016_Dw/212/pGun_Dp2KS0pipLL.root
/home/LHCB-T3/smaccoli/CPV_in_D02hh/data/pGun/Dp2KS0pipLL_2016_Dw/2130/pGun_Dp2KS0pipLL.root
/home/LHCB-T3/smaccoli/CPV_in_D02hh/data/pGun/Dp2KS0pipLL_2016_Dw/2131/pGun_Dp2KS0pipLL.root
/home/LHCB-T3/smaccoli/CPV_in_D02hh/data/pGun/Dp2KS0pipLL_2016_Dw/2132/pGun_Dp2KS0pipLL.root
/home/LHCB-T3/smaccoli/CPV_in_D02hh/data/pGun/Dp2KS0pipLL_2016_Dw/2133/pGun_Dp2KS0pipLL.root
/home/LHCB-T3/smaccoli/CPV_in_D02hh/data/pGun/Dp2KS0pipLL_2016_Dw/2134/pGun_Dp2KS0pipLL.root
/home/LHCB-T3/smaccoli/CPV_in_D02hh/data/pGun/Dp2KS0pipLL_2016_Dw/2135/pGun_Dp2KS0pipLL.root
/home/LHCB-T3/smaccoli/CPV_in_D02hh/data/pGun/Dp2KS0pipLL_2016_Dw/2136/pGun_Dp2KS0pipLL.root
/home/LHCB-T3/smaccoli/CPV_in_D02hh/data/pGun/Dp2KS0pipLL_2016_Dw/2137/pGun_Dp2KS0pipLL.root
/home/LHCB-T3/smaccoli/CPV_in_D02hh/data/pGun/Dp2KS0pipLL_2016_Dw/2138/pGun_Dp2KS0pipLL.root
/home/LHCB-T3/smaccoli/CPV_in_D02hh/data/pGun/Dp2KS0pipLL_2016_Dw/2139/pGun_Dp2KS0pipLL.root
/home/LHCB-T3/smaccoli/CPV_in_D02hh/data/pGun/Dp2KS0pipLL_2016_Dw/213/pGun_Dp2KS0pipLL.root
/home/LHCB-T3/smaccoli/CPV_in_D02hh/data/pGun/Dp2KS0pipLL_2016_Dw/2140/pGun_Dp2KS0pipLL.root
/home/LHCB-T3/smaccoli/CPV_in_D02hh/data/pGun/Dp2KS0pipLL_2016_Dw/2141/pGun_Dp2KS0pipLL.root
/home/LHCB-T3/smaccoli/CPV_in_D02hh/data/pGun/Dp2KS0pipLL_2016_Dw/2142/pGun_Dp2KS0pipLL.root
/home/LHCB-T3/smaccoli/CPV_in_D02hh/data/pGun/Dp2KS0pipLL_2016_Dw/2143/pGun_Dp2KS0pipLL.root
/home/LHCB-T3/smaccoli/CPV_in_D02hh/data/pGun/Dp2KS0pipLL_2016_Dw/2144/pGun_Dp2KS0pipLL.root
/home/LHCB-T3/smaccoli/CPV_in_D02hh/data/pGun/Dp2KS0pipLL_2016_Dw/2145/pGun_Dp2KS0pipLL.root
/home/LHCB-T3/smaccoli/CPV_in_D02hh/data/pGun/Dp2KS0pipLL_2016_Dw/2146/pGun_Dp2KS0pipLL.root
/home/LHCB-T3/smaccoli/CPV_in_D02hh/data/pGun/Dp2KS0pipLL_2016_Dw/2147/pGun_Dp2KS0pipLL.root
/home/LHCB-T3/smaccoli/CPV_in_D02hh/data/pGun/Dp2KS0pipLL_2016_Dw/2148/pGun_Dp2KS0pipLL.root
/home/LHCB-T3/smaccoli/CPV_in_D02hh/data/pGun/Dp2KS0pipLL_2016_Dw/2149/pGun_Dp2KS0pipLL.root
/home/LHCB-T3/smaccoli/CPV_in_D02hh/data/pGun/Dp2KS0pipLL_2016_Dw/214/pGun_Dp2KS0pipLL.root
/home/LHCB-T3/smaccoli/CPV_in_D02hh/data/pGun/Dp2KS0pipLL_2016_Dw/2150/pGun_Dp2KS0pipLL.root
/home/LHCB-T3/smaccoli/CPV_in_D02hh/data/pGun/Dp2KS0pipLL_2016_Dw/2151/pGun_Dp2KS0pipLL.root
/home/LHCB-T3/smaccoli/CPV_in_D02hh/data/pGun/Dp2KS0pipLL_2016_Dw/2152/pGun_Dp2KS0pipLL.root
/home/LHCB-T3/smaccoli/CPV_in_D02hh/data/pGun/Dp2KS0pipLL_2016_Dw/2153/pGun_Dp2KS0pipLL.root
/home/LHCB-T3/smaccoli/CPV_in_D02hh/data/pGun/Dp2KS0pipLL_2016_Dw/2154/pGun_Dp2KS0pipLL.root
/home/LHCB-T3/smaccoli/CPV_in_D02hh/data/pGun/Dp2KS0pipLL_2016_Dw/2155/pGun_Dp2KS0pipLL.root
/home/LHCB-T3/smaccoli/CPV_in_D02hh/data/pGun/Dp2KS0pipLL_2016_Dw/2156/pGun_Dp2KS0pipLL.root
/home/LHCB-T3/smaccoli/CPV_in_D02hh/data/pGun/Dp2KS0pipLL_2016_Dw/2157/pGun_Dp2KS0pipLL.root
/home/LHCB-T3/smaccoli/CPV_in_D02hh/data/pGun/Dp2KS0pipLL_2016_Dw/2158/pGun_Dp2KS0pipLL.root
/home/LHCB-T3/smaccoli/CPV_in_D02hh/data/pGun/Dp2KS0pipLL_2016_Dw/2159/pGun_Dp2KS0pipLL.root
