/home/LHCB-T3/smaccoli/CPV_in_D02hh/data/pGun/Dp2KS0pipLL_2016_Dw/1358/pGun_Dp2KS0pipLL.root
/home/LHCB-T3/smaccoli/CPV_in_D02hh/data/pGun/Dp2KS0pipLL_2016_Dw/1359/pGun_Dp2KS0pipLL.root
/home/LHCB-T3/smaccoli/CPV_in_D02hh/data/pGun/Dp2KS0pipLL_2016_Dw/135/pGun_Dp2KS0pipLL.root
/home/LHCB-T3/smaccoli/CPV_in_D02hh/data/pGun/Dp2KS0pipLL_2016_Dw/1360/pGun_Dp2KS0pipLL.root
/home/LHCB-T3/smaccoli/CPV_in_D02hh/data/pGun/Dp2KS0pipLL_2016_Dw/1361/pGun_Dp2KS0pipLL.root
/home/LHCB-T3/smaccoli/CPV_in_D02hh/data/pGun/Dp2KS0pipLL_2016_Dw/1362/pGun_Dp2KS0pipLL.root
/home/LHCB-T3/smaccoli/CPV_in_D02hh/data/pGun/Dp2KS0pipLL_2016_Dw/1363/pGun_Dp2KS0pipLL.root
/home/LHCB-T3/smaccoli/CPV_in_D02hh/data/pGun/Dp2KS0pipLL_2016_Dw/1364/pGun_Dp2KS0pipLL.root
/home/LHCB-T3/smaccoli/CPV_in_D02hh/data/pGun/Dp2KS0pipLL_2016_Dw/1365/pGun_Dp2KS0pipLL.root
/home/LHCB-T3/smaccoli/CPV_in_D02hh/data/pGun/Dp2KS0pipLL_2016_Dw/1366/pGun_Dp2KS0pipLL.root
/home/LHCB-T3/smaccoli/CPV_in_D02hh/data/pGun/Dp2KS0pipLL_2016_Dw/1367/pGun_Dp2KS0pipLL.root
/home/LHCB-T3/smaccoli/CPV_in_D02hh/data/pGun/Dp2KS0pipLL_2016_Dw/1368/pGun_Dp2KS0pipLL.root
/home/LHCB-T3/smaccoli/CPV_in_D02hh/data/pGun/Dp2KS0pipLL_2016_Dw/1369/pGun_Dp2KS0pipLL.root
/home/LHCB-T3/smaccoli/CPV_in_D02hh/data/pGun/Dp2KS0pipLL_2016_Dw/136/pGun_Dp2KS0pipLL.root
/home/LHCB-T3/smaccoli/CPV_in_D02hh/data/pGun/Dp2KS0pipLL_2016_Dw/1370/pGun_Dp2KS0pipLL.root
/home/LHCB-T3/smaccoli/CPV_in_D02hh/data/pGun/Dp2KS0pipLL_2016_Dw/1371/pGun_Dp2KS0pipLL.root
/home/LHCB-T3/smaccoli/CPV_in_D02hh/data/pGun/Dp2KS0pipLL_2016_Dw/1372/pGun_Dp2KS0pipLL.root
/home/LHCB-T3/smaccoli/CPV_in_D02hh/data/pGun/Dp2KS0pipLL_2016_Dw/1373/pGun_Dp2KS0pipLL.root
/home/LHCB-T3/smaccoli/CPV_in_D02hh/data/pGun/Dp2KS0pipLL_2016_Dw/1374/pGun_Dp2KS0pipLL.root
/home/LHCB-T3/smaccoli/CPV_in_D02hh/data/pGun/Dp2KS0pipLL_2016_Dw/1375/pGun_Dp2KS0pipLL.root
/home/LHCB-T3/smaccoli/CPV_in_D02hh/data/pGun/Dp2KS0pipLL_2016_Dw/1376/pGun_Dp2KS0pipLL.root
/home/LHCB-T3/smaccoli/CPV_in_D02hh/data/pGun/Dp2KS0pipLL_2016_Dw/1377/pGun_Dp2KS0pipLL.root
/home/LHCB-T3/smaccoli/CPV_in_D02hh/data/pGun/Dp2KS0pipLL_2016_Dw/1378/pGun_Dp2KS0pipLL.root
/home/LHCB-T3/smaccoli/CPV_in_D02hh/data/pGun/Dp2KS0pipLL_2016_Dw/1379/pGun_Dp2KS0pipLL.root
/home/LHCB-T3/smaccoli/CPV_in_D02hh/data/pGun/Dp2KS0pipLL_2016_Dw/137/pGun_Dp2KS0pipLL.root
/home/LHCB-T3/smaccoli/CPV_in_D02hh/data/pGun/Dp2KS0pipLL_2016_Dw/1380/pGun_Dp2KS0pipLL.root
/home/LHCB-T3/smaccoli/CPV_in_D02hh/data/pGun/Dp2KS0pipLL_2016_Dw/1381/pGun_Dp2KS0pipLL.root
/home/LHCB-T3/smaccoli/CPV_in_D02hh/data/pGun/Dp2KS0pipLL_2016_Dw/1382/pGun_Dp2KS0pipLL.root
/home/LHCB-T3/smaccoli/CPV_in_D02hh/data/pGun/Dp2KS0pipLL_2016_Dw/1383/pGun_Dp2KS0pipLL.root
/home/LHCB-T3/smaccoli/CPV_in_D02hh/data/pGun/Dp2KS0pipLL_2016_Dw/1384/pGun_Dp2KS0pipLL.root
/home/LHCB-T3/smaccoli/CPV_in_D02hh/data/pGun/Dp2KS0pipLL_2016_Dw/1385/pGun_Dp2KS0pipLL.root
/home/LHCB-T3/smaccoli/CPV_in_D02hh/data/pGun/Dp2KS0pipLL_2016_Dw/1386/pGun_Dp2KS0pipLL.root
/home/LHCB-T3/smaccoli/CPV_in_D02hh/data/pGun/Dp2KS0pipLL_2016_Dw/1387/pGun_Dp2KS0pipLL.root
/home/LHCB-T3/smaccoli/CPV_in_D02hh/data/pGun/Dp2KS0pipLL_2016_Dw/1388/pGun_Dp2KS0pipLL.root
/home/LHCB-T3/smaccoli/CPV_in_D02hh/data/pGun/Dp2KS0pipLL_2016_Dw/1389/pGun_Dp2KS0pipLL.root
/home/LHCB-T3/smaccoli/CPV_in_D02hh/data/pGun/Dp2KS0pipLL_2016_Dw/138/pGun_Dp2KS0pipLL.root
/home/LHCB-T3/smaccoli/CPV_in_D02hh/data/pGun/Dp2KS0pipLL_2016_Dw/1390/pGun_Dp2KS0pipLL.root
/home/LHCB-T3/smaccoli/CPV_in_D02hh/data/pGun/Dp2KS0pipLL_2016_Dw/1391/pGun_Dp2KS0pipLL.root
/home/LHCB-T3/smaccoli/CPV_in_D02hh/data/pGun/Dp2KS0pipLL_2016_Dw/1392/pGun_Dp2KS0pipLL.root
/home/LHCB-T3/smaccoli/CPV_in_D02hh/data/pGun/Dp2KS0pipLL_2016_Dw/1393/pGun_Dp2KS0pipLL.root
/home/LHCB-T3/smaccoli/CPV_in_D02hh/data/pGun/Dp2KS0pipLL_2016_Dw/1394/pGun_Dp2KS0pipLL.root
/home/LHCB-T3/smaccoli/CPV_in_D02hh/data/pGun/Dp2KS0pipLL_2016_Dw/1395/pGun_Dp2KS0pipLL.root
/home/LHCB-T3/smaccoli/CPV_in_D02hh/data/pGun/Dp2KS0pipLL_2016_Dw/1396/pGun_Dp2KS0pipLL.root
/home/LHCB-T3/smaccoli/CPV_in_D02hh/data/pGun/Dp2KS0pipLL_2016_Dw/1397/pGun_Dp2KS0pipLL.root
/home/LHCB-T3/smaccoli/CPV_in_D02hh/data/pGun/Dp2KS0pipLL_2016_Dw/1398/pGun_Dp2KS0pipLL.root
/home/LHCB-T3/smaccoli/CPV_in_D02hh/data/pGun/Dp2KS0pipLL_2016_Dw/1399/pGun_Dp2KS0pipLL.root
/home/LHCB-T3/smaccoli/CPV_in_D02hh/data/pGun/Dp2KS0pipLL_2016_Dw/139/pGun_Dp2KS0pipLL.root
/home/LHCB-T3/smaccoli/CPV_in_D02hh/data/pGun/Dp2KS0pipLL_2016_Dw/13/pGun_Dp2KS0pipLL.root
/home/LHCB-T3/smaccoli/CPV_in_D02hh/data/pGun/Dp2KS0pipLL_2016_Dw/1400/pGun_Dp2KS0pipLL.root
/home/LHCB-T3/smaccoli/CPV_in_D02hh/data/pGun/Dp2KS0pipLL_2016_Dw/1401/pGun_Dp2KS0pipLL.root
/home/LHCB-T3/smaccoli/CPV_in_D02hh/data/pGun/Dp2KS0pipLL_2016_Dw/1402/pGun_Dp2KS0pipLL.root
/home/LHCB-T3/smaccoli/CPV_in_D02hh/data/pGun/Dp2KS0pipLL_2016_Dw/1403/pGun_Dp2KS0pipLL.root
/home/LHCB-T3/smaccoli/CPV_in_D02hh/data/pGun/Dp2KS0pipLL_2016_Dw/1404/pGun_Dp2KS0pipLL.root
/home/LHCB-T3/smaccoli/CPV_in_D02hh/data/pGun/Dp2KS0pipLL_2016_Dw/1405/pGun_Dp2KS0pipLL.root
/home/LHCB-T3/smaccoli/CPV_in_D02hh/data/pGun/Dp2KS0pipLL_2016_Dw/1406/pGun_Dp2KS0pipLL.root
/home/LHCB-T3/smaccoli/CPV_in_D02hh/data/pGun/Dp2KS0pipLL_2016_Dw/1407/pGun_Dp2KS0pipLL.root
/home/LHCB-T3/smaccoli/CPV_in_D02hh/data/pGun/Dp2KS0pipLL_2016_Dw/1408/pGun_Dp2KS0pipLL.root
/home/LHCB-T3/smaccoli/CPV_in_D02hh/data/pGun/Dp2KS0pipLL_2016_Dw/1409/pGun_Dp2KS0pipLL.root
/home/LHCB-T3/smaccoli/CPV_in_D02hh/data/pGun/Dp2KS0pipLL_2016_Dw/140/pGun_Dp2KS0pipLL.root
/home/LHCB-T3/smaccoli/CPV_in_D02hh/data/pGun/Dp2KS0pipLL_2016_Dw/1410/pGun_Dp2KS0pipLL.root
/home/LHCB-T3/smaccoli/CPV_in_D02hh/data/pGun/Dp2KS0pipLL_2016_Dw/1411/pGun_Dp2KS0pipLL.root
/home/LHCB-T3/smaccoli/CPV_in_D02hh/data/pGun/Dp2KS0pipLL_2016_Dw/1412/pGun_Dp2KS0pipLL.root
/home/LHCB-T3/smaccoli/CPV_in_D02hh/data/pGun/Dp2KS0pipLL_2016_Dw/1413/pGun_Dp2KS0pipLL.root
/home/LHCB-T3/smaccoli/CPV_in_D02hh/data/pGun/Dp2KS0pipLL_2016_Dw/1414/pGun_Dp2KS0pipLL.root
/home/LHCB-T3/smaccoli/CPV_in_D02hh/data/pGun/Dp2KS0pipLL_2016_Dw/1415/pGun_Dp2KS0pipLL.root
/home/LHCB-T3/smaccoli/CPV_in_D02hh/data/pGun/Dp2KS0pipLL_2016_Dw/1416/pGun_Dp2KS0pipLL.root
/home/LHCB-T3/smaccoli/CPV_in_D02hh/data/pGun/Dp2KS0pipLL_2016_Dw/1417/pGun_Dp2KS0pipLL.root
/home/LHCB-T3/smaccoli/CPV_in_D02hh/data/pGun/Dp2KS0pipLL_2016_Dw/1418/pGun_Dp2KS0pipLL.root
/home/LHCB-T3/smaccoli/CPV_in_D02hh/data/pGun/Dp2KS0pipLL_2016_Dw/1419/pGun_Dp2KS0pipLL.root
/home/LHCB-T3/smaccoli/CPV_in_D02hh/data/pGun/Dp2KS0pipLL_2016_Dw/141/pGun_Dp2KS0pipLL.root
/home/LHCB-T3/smaccoli/CPV_in_D02hh/data/pGun/Dp2KS0pipLL_2016_Dw/1420/pGun_Dp2KS0pipLL.root
/home/LHCB-T3/smaccoli/CPV_in_D02hh/data/pGun/Dp2KS0pipLL_2016_Dw/1421/pGun_Dp2KS0pipLL.root
/home/LHCB-T3/smaccoli/CPV_in_D02hh/data/pGun/Dp2KS0pipLL_2016_Dw/1422/pGun_Dp2KS0pipLL.root
/home/LHCB-T3/smaccoli/CPV_in_D02hh/data/pGun/Dp2KS0pipLL_2016_Dw/1423/pGun_Dp2KS0pipLL.root
/home/LHCB-T3/smaccoli/CPV_in_D02hh/data/pGun/Dp2KS0pipLL_2016_Dw/1424/pGun_Dp2KS0pipLL.root
/home/LHCB-T3/smaccoli/CPV_in_D02hh/data/pGun/Dp2KS0pipLL_2016_Dw/1425/pGun_Dp2KS0pipLL.root
/home/LHCB-T3/smaccoli/CPV_in_D02hh/data/pGun/Dp2KS0pipLL_2016_Dw/1426/pGun_Dp2KS0pipLL.root
/home/LHCB-T3/smaccoli/CPV_in_D02hh/data/pGun/Dp2KS0pipLL_2016_Dw/1427/pGun_Dp2KS0pipLL.root
/home/LHCB-T3/smaccoli/CPV_in_D02hh/data/pGun/Dp2KS0pipLL_2016_Dw/1428/pGun_Dp2KS0pipLL.root
/home/LHCB-T3/smaccoli/CPV_in_D02hh/data/pGun/Dp2KS0pipLL_2016_Dw/1429/pGun_Dp2KS0pipLL.root
/home/LHCB-T3/smaccoli/CPV_in_D02hh/data/pGun/Dp2KS0pipLL_2016_Dw/142/pGun_Dp2KS0pipLL.root
/home/LHCB-T3/smaccoli/CPV_in_D02hh/data/pGun/Dp2KS0pipLL_2016_Dw/1430/pGun_Dp2KS0pipLL.root
/home/LHCB-T3/smaccoli/CPV_in_D02hh/data/pGun/Dp2KS0pipLL_2016_Dw/1431/pGun_Dp2KS0pipLL.root
/home/LHCB-T3/smaccoli/CPV_in_D02hh/data/pGun/Dp2KS0pipLL_2016_Dw/1432/pGun_Dp2KS0pipLL.root
/home/LHCB-T3/smaccoli/CPV_in_D02hh/data/pGun/Dp2KS0pipLL_2016_Dw/1433/pGun_Dp2KS0pipLL.root
/home/LHCB-T3/smaccoli/CPV_in_D02hh/data/pGun/Dp2KS0pipLL_2016_Dw/1434/pGun_Dp2KS0pipLL.root
/home/LHCB-T3/smaccoli/CPV_in_D02hh/data/pGun/Dp2KS0pipLL_2016_Dw/1435/pGun_Dp2KS0pipLL.root
/home/LHCB-T3/smaccoli/CPV_in_D02hh/data/pGun/Dp2KS0pipLL_2016_Dw/1436/pGun_Dp2KS0pipLL.root
/home/LHCB-T3/smaccoli/CPV_in_D02hh/data/pGun/Dp2KS0pipLL_2016_Dw/1437/pGun_Dp2KS0pipLL.root
/home/LHCB-T3/smaccoli/CPV_in_D02hh/data/pGun/Dp2KS0pipLL_2016_Dw/1438/pGun_Dp2KS0pipLL.root
/home/LHCB-T3/smaccoli/CPV_in_D02hh/data/pGun/Dp2KS0pipLL_2016_Dw/1439/pGun_Dp2KS0pipLL.root
/home/LHCB-T3/smaccoli/CPV_in_D02hh/data/pGun/Dp2KS0pipLL_2016_Dw/143/pGun_Dp2KS0pipLL.root
/home/LHCB-T3/smaccoli/CPV_in_D02hh/data/pGun/Dp2KS0pipLL_2016_Dw/1440/pGun_Dp2KS0pipLL.root
/home/LHCB-T3/smaccoli/CPV_in_D02hh/data/pGun/Dp2KS0pipLL_2016_Dw/1441/pGun_Dp2KS0pipLL.root
/home/LHCB-T3/smaccoli/CPV_in_D02hh/data/pGun/Dp2KS0pipLL_2016_Dw/1442/pGun_Dp2KS0pipLL.root
/home/LHCB-T3/smaccoli/CPV_in_D02hh/data/pGun/Dp2KS0pipLL_2016_Dw/1443/pGun_Dp2KS0pipLL.root
/home/LHCB-T3/smaccoli/CPV_in_D02hh/data/pGun/Dp2KS0pipLL_2016_Dw/1444/pGun_Dp2KS0pipLL.root
/home/LHCB-T3/smaccoli/CPV_in_D02hh/data/pGun/Dp2KS0pipLL_2016_Dw/1445/pGun_Dp2KS0pipLL.root
/home/LHCB-T3/smaccoli/CPV_in_D02hh/data/pGun/Dp2KS0pipLL_2016_Dw/1446/pGun_Dp2KS0pipLL.root
