/storage/gpfs_data/local/lhcb/users/ferrari/Kpipi_ntuples/2016/MagUp/6046/tuple_D2KPiPi_MS_2016.root
/storage/gpfs_data/local/lhcb/users/ferrari/Kpipi_ntuples/2016/MagUp/6047/tuple_D2KPiPi_MS_2016.root
/storage/gpfs_data/local/lhcb/users/ferrari/Kpipi_ntuples/2016/MagUp/6048/tuple_D2KPiPi_MS_2016.root
/storage/gpfs_data/local/lhcb/users/ferrari/Kpipi_ntuples/2016/MagUp/6049/tuple_D2KPiPi_MS_2016.root
/storage/gpfs_data/local/lhcb/users/ferrari/Kpipi_ntuples/2016/MagUp/6050/tuple_D2KPiPi_MS_2016.root
/storage/gpfs_data/local/lhcb/users/ferrari/Kpipi_ntuples/2016/MagUp/6051/tuple_D2KPiPi_MS_2016.root
/storage/gpfs_data/local/lhcb/users/ferrari/Kpipi_ntuples/2016/MagUp/6052/tuple_D2KPiPi_MS_2016.root
/storage/gpfs_data/local/lhcb/users/ferrari/Kpipi_ntuples/2016/MagUp/6053/tuple_D2KPiPi_MS_2016.root
/storage/gpfs_data/local/lhcb/users/ferrari/Kpipi_ntuples/2016/MagUp/6054/tuple_D2KPiPi_MS_2016.root
