/storage/gpfs_data/local/lhcb/users/ferrari/Kpipi_ntuples/2017/MagUp/11/tuple_D2KPiPi_MS_2017.root
/storage/gpfs_data/local/lhcb/users/ferrari/Kpipi_ntuples/2017/MagUp/120/tuple_D2KPiPi_MS_2017.root
/storage/gpfs_data/local/lhcb/users/ferrari/Kpipi_ntuples/2017/MagUp/123/tuple_D2KPiPi_MS_2017.root
/storage/gpfs_data/local/lhcb/users/ferrari/Kpipi_ntuples/2017/MagUp/124/tuple_D2KPiPi_MS_2017.root
/storage/gpfs_data/local/lhcb/users/ferrari/Kpipi_ntuples/2017/MagUp/126/tuple_D2KPiPi_MS_2017.root
/storage/gpfs_data/local/lhcb/users/ferrari/Kpipi_ntuples/2017/MagUp/127/tuple_D2KPiPi_MS_2017.root
/storage/gpfs_data/local/lhcb/users/ferrari/Kpipi_ntuples/2017/MagUp/128/tuple_D2KPiPi_MS_2017.root
/storage/gpfs_data/local/lhcb/users/ferrari/Kpipi_ntuples/2017/MagUp/129/tuple_D2KPiPi_MS_2017.root
/storage/gpfs_data/local/lhcb/users/ferrari/Kpipi_ntuples/2017/MagUp/12/tuple_D2KPiPi_MS_2017.root
