/storage/gpfs_data/local/lhcb/users/ferrari/Kpipi_ntuples/2018/MagUp/26/tuple_D2KPiPi_MS_2018.root
/storage/gpfs_data/local/lhcb/users/ferrari/Kpipi_ntuples/2018/MagUp/270/tuple_D2KPiPi_MS_2018.root
/storage/gpfs_data/local/lhcb/users/ferrari/Kpipi_ntuples/2018/MagUp/271/tuple_D2KPiPi_MS_2018.root
/storage/gpfs_data/local/lhcb/users/ferrari/Kpipi_ntuples/2018/MagUp/272/tuple_D2KPiPi_MS_2018.root
/storage/gpfs_data/local/lhcb/users/ferrari/Kpipi_ntuples/2018/MagUp/273/tuple_D2KPiPi_MS_2018.root
/storage/gpfs_data/local/lhcb/users/ferrari/Kpipi_ntuples/2018/MagUp/275/tuple_D2KPiPi_MS_2018.root
/storage/gpfs_data/local/lhcb/users/ferrari/Kpipi_ntuples/2018/MagUp/277/tuple_D2KPiPi_MS_2018.root
/storage/gpfs_data/local/lhcb/users/ferrari/Kpipi_ntuples/2018/MagUp/278/tuple_D2KPiPi_MS_2018.root
/storage/gpfs_data/local/lhcb/users/ferrari/Kpipi_ntuples/2018/MagUp/279/tuple_D2KPiPi_MS_2018.root
