/storage/gpfs_data/local/lhcb/users/ferrari/Kpipi_ntuples/2018/MagUp/290/tuple_D2KPiPi_MS_2018.root
/storage/gpfs_data/local/lhcb/users/ferrari/Kpipi_ntuples/2018/MagUp/291/tuple_D2KPiPi_MS_2018.root
/storage/gpfs_data/local/lhcb/users/ferrari/Kpipi_ntuples/2018/MagUp/292/tuple_D2KPiPi_MS_2018.root
/storage/gpfs_data/local/lhcb/users/ferrari/Kpipi_ntuples/2018/MagUp/293/tuple_D2KPiPi_MS_2018.root
/storage/gpfs_data/local/lhcb/users/ferrari/Kpipi_ntuples/2018/MagUp/294/tuple_D2KPiPi_MS_2018.root
/storage/gpfs_data/local/lhcb/users/ferrari/Kpipi_ntuples/2018/MagUp/295/tuple_D2KPiPi_MS_2018.root
/storage/gpfs_data/local/lhcb/users/ferrari/Kpipi_ntuples/2018/MagUp/296/tuple_D2KPiPi_MS_2018.root
/storage/gpfs_data/local/lhcb/users/ferrari/Kpipi_ntuples/2018/MagUp/297/tuple_D2KPiPi_MS_2018.root
/storage/gpfs_data/local/lhcb/users/ferrari/Kpipi_ntuples/2018/MagUp/298/tuple_D2KPiPi_MS_2018.root
