/storage/gpfs_data/local/lhcb/users/ferrari/Kpipi_ntuples/2016/MagUp/2721/tuple_D2KPiPi_MS_2016.root
/storage/gpfs_data/local/lhcb/users/ferrari/Kpipi_ntuples/2016/MagUp/2722/tuple_D2KPiPi_MS_2016.root
/storage/gpfs_data/local/lhcb/users/ferrari/Kpipi_ntuples/2016/MagUp/2723/tuple_D2KPiPi_MS_2016.root
/storage/gpfs_data/local/lhcb/users/ferrari/Kpipi_ntuples/2016/MagUp/2724/tuple_D2KPiPi_MS_2016.root
/storage/gpfs_data/local/lhcb/users/ferrari/Kpipi_ntuples/2016/MagUp/2726/tuple_D2KPiPi_MS_2016.root
/storage/gpfs_data/local/lhcb/users/ferrari/Kpipi_ntuples/2016/MagUp/2727/tuple_D2KPiPi_MS_2016.root
/storage/gpfs_data/local/lhcb/users/ferrari/Kpipi_ntuples/2016/MagUp/2728/tuple_D2KPiPi_MS_2016.root
/storage/gpfs_data/local/lhcb/users/ferrari/Kpipi_ntuples/2016/MagUp/2729/tuple_D2KPiPi_MS_2016.root
/storage/gpfs_data/local/lhcb/users/ferrari/Kpipi_ntuples/2016/MagUp/272/tuple_D2KPiPi_MS_2016.root
