/storage/gpfs_data/local/lhcb/users/ferrari/Kpipi_ntuples/2017/MagUp/189/tuple_D2KPiPi_MS_2017.root
/storage/gpfs_data/local/lhcb/users/ferrari/Kpipi_ntuples/2017/MagUp/18/tuple_D2KPiPi_MS_2017.root
/storage/gpfs_data/local/lhcb/users/ferrari/Kpipi_ntuples/2017/MagUp/190/tuple_D2KPiPi_MS_2017.root
/storage/gpfs_data/local/lhcb/users/ferrari/Kpipi_ntuples/2017/MagUp/191/tuple_D2KPiPi_MS_2017.root
/storage/gpfs_data/local/lhcb/users/ferrari/Kpipi_ntuples/2017/MagUp/192/tuple_D2KPiPi_MS_2017.root
/storage/gpfs_data/local/lhcb/users/ferrari/Kpipi_ntuples/2017/MagUp/193/tuple_D2KPiPi_MS_2017.root
/storage/gpfs_data/local/lhcb/users/ferrari/Kpipi_ntuples/2017/MagUp/194/tuple_D2KPiPi_MS_2017.root
/storage/gpfs_data/local/lhcb/users/ferrari/Kpipi_ntuples/2017/MagUp/195/tuple_D2KPiPi_MS_2017.root
/storage/gpfs_data/local/lhcb/users/ferrari/Kpipi_ntuples/2017/MagUp/196/tuple_D2KPiPi_MS_2017.root
