/storage/gpfs_data/local/lhcb/users/ferrari/Kpipi_ntuples/2015/MagDown/239/tuple_D2KPiPi_MS_2015.root
/storage/gpfs_data/local/lhcb/users/ferrari/Kpipi_ntuples/2015/MagDown/23/tuple_D2KPiPi_MS_2015.root
/storage/gpfs_data/local/lhcb/users/ferrari/Kpipi_ntuples/2015/MagDown/240/tuple_D2KPiPi_MS_2015.root
/storage/gpfs_data/local/lhcb/users/ferrari/Kpipi_ntuples/2015/MagDown/241/tuple_D2KPiPi_MS_2015.root
/storage/gpfs_data/local/lhcb/users/ferrari/Kpipi_ntuples/2015/MagDown/242/tuple_D2KPiPi_MS_2015.root
/storage/gpfs_data/local/lhcb/users/ferrari/Kpipi_ntuples/2015/MagDown/243/tuple_D2KPiPi_MS_2015.root
/storage/gpfs_data/local/lhcb/users/ferrari/Kpipi_ntuples/2015/MagDown/244/tuple_D2KPiPi_MS_2015.root
/storage/gpfs_data/local/lhcb/users/ferrari/Kpipi_ntuples/2015/MagDown/245/tuple_D2KPiPi_MS_2015.root
/storage/gpfs_data/local/lhcb/users/ferrari/Kpipi_ntuples/2015/MagDown/246/tuple_D2KPiPi_MS_2015.root
