/storage/gpfs_data/local/lhcb/users/ferrari/Kpipi_ntuples/2016/MagUp/2217/tuple_D2KPiPi_MS_2016.root
/storage/gpfs_data/local/lhcb/users/ferrari/Kpipi_ntuples/2016/MagUp/2218/tuple_D2KPiPi_MS_2016.root
/storage/gpfs_data/local/lhcb/users/ferrari/Kpipi_ntuples/2016/MagUp/2220/tuple_D2KPiPi_MS_2016.root
/storage/gpfs_data/local/lhcb/users/ferrari/Kpipi_ntuples/2016/MagUp/2222/tuple_D2KPiPi_MS_2016.root
/storage/gpfs_data/local/lhcb/users/ferrari/Kpipi_ntuples/2016/MagUp/2223/tuple_D2KPiPi_MS_2016.root
/storage/gpfs_data/local/lhcb/users/ferrari/Kpipi_ntuples/2016/MagUp/2225/tuple_D2KPiPi_MS_2016.root
/storage/gpfs_data/local/lhcb/users/ferrari/Kpipi_ntuples/2016/MagUp/2226/tuple_D2KPiPi_MS_2016.root
/storage/gpfs_data/local/lhcb/users/ferrari/Kpipi_ntuples/2016/MagUp/2227/tuple_D2KPiPi_MS_2016.root
/storage/gpfs_data/local/lhcb/users/ferrari/Kpipi_ntuples/2016/MagUp/2228/tuple_D2KPiPi_MS_2016.root
