/storage/gpfs_data/local/lhcb/users/ferrari/Kpipi_ntuples/2015/MagDown/60/tuple_D2KPiPi_MS_2015.root
/storage/gpfs_data/local/lhcb/users/ferrari/Kpipi_ntuples/2015/MagDown/61/tuple_D2KPiPi_MS_2015.root
/storage/gpfs_data/local/lhcb/users/ferrari/Kpipi_ntuples/2015/MagDown/62/tuple_D2KPiPi_MS_2015.root
/storage/gpfs_data/local/lhcb/users/ferrari/Kpipi_ntuples/2015/MagDown/63/tuple_D2KPiPi_MS_2015.root
/storage/gpfs_data/local/lhcb/users/ferrari/Kpipi_ntuples/2015/MagDown/64/tuple_D2KPiPi_MS_2015.root
/storage/gpfs_data/local/lhcb/users/ferrari/Kpipi_ntuples/2015/MagDown/65/tuple_D2KPiPi_MS_2015.root
/storage/gpfs_data/local/lhcb/users/ferrari/Kpipi_ntuples/2015/MagDown/66/tuple_D2KPiPi_MS_2015.root
/storage/gpfs_data/local/lhcb/users/ferrari/Kpipi_ntuples/2015/MagDown/67/tuple_D2KPiPi_MS_2015.root
/storage/gpfs_data/local/lhcb/users/ferrari/Kpipi_ntuples/2015/MagDown/69/tuple_D2KPiPi_MS_2015.root
