/storage/gpfs_data/local/lhcb/users/ferrari/Kpipi_ntuples/2018/MagDown/308/tuple_D2KPiPi_MS_2018.root
/storage/gpfs_data/local/lhcb/users/ferrari/Kpipi_ntuples/2018/MagDown/309/tuple_D2KPiPi_MS_2018.root
/storage/gpfs_data/local/lhcb/users/ferrari/Kpipi_ntuples/2018/MagDown/311/tuple_D2KPiPi_MS_2018.root
/storage/gpfs_data/local/lhcb/users/ferrari/Kpipi_ntuples/2018/MagDown/314/tuple_D2KPiPi_MS_2018.root
/storage/gpfs_data/local/lhcb/users/ferrari/Kpipi_ntuples/2018/MagDown/315/tuple_D2KPiPi_MS_2018.root
/storage/gpfs_data/local/lhcb/users/ferrari/Kpipi_ntuples/2018/MagDown/316/tuple_D2KPiPi_MS_2018.root
/storage/gpfs_data/local/lhcb/users/ferrari/Kpipi_ntuples/2018/MagDown/317/tuple_D2KPiPi_MS_2018.root
/storage/gpfs_data/local/lhcb/users/ferrari/Kpipi_ntuples/2018/MagDown/318/tuple_D2KPiPi_MS_2018.root
/storage/gpfs_data/local/lhcb/users/ferrari/Kpipi_ntuples/2018/MagDown/31/tuple_D2KPiPi_MS_2018.root
