/storage/gpfs_data/local/lhcb/users/ferrari/Kpipi_ntuples/2017/MagUp/63/tuple_D2KPiPi_MS_2017.root
/storage/gpfs_data/local/lhcb/users/ferrari/Kpipi_ntuples/2017/MagUp/64/tuple_D2KPiPi_MS_2017.root
/storage/gpfs_data/local/lhcb/users/ferrari/Kpipi_ntuples/2017/MagUp/65/tuple_D2KPiPi_MS_2017.root
/storage/gpfs_data/local/lhcb/users/ferrari/Kpipi_ntuples/2017/MagUp/66/tuple_D2KPiPi_MS_2017.root
/storage/gpfs_data/local/lhcb/users/ferrari/Kpipi_ntuples/2017/MagUp/67/tuple_D2KPiPi_MS_2017.root
/storage/gpfs_data/local/lhcb/users/ferrari/Kpipi_ntuples/2017/MagUp/68/tuple_D2KPiPi_MS_2017.root
/storage/gpfs_data/local/lhcb/users/ferrari/Kpipi_ntuples/2017/MagUp/69/tuple_D2KPiPi_MS_2017.root
/storage/gpfs_data/local/lhcb/users/ferrari/Kpipi_ntuples/2017/MagUp/6/tuple_D2KPiPi_MS_2017.root
/storage/gpfs_data/local/lhcb/users/ferrari/Kpipi_ntuples/2017/MagUp/70/tuple_D2KPiPi_MS_2017.root
