/storage/gpfs_data/local/lhcb/users/ferrari/Kpipi_ntuples/2016/MagDown/485/tuple_D2KPiPi_MS_2016.root
/storage/gpfs_data/local/lhcb/users/ferrari/Kpipi_ntuples/2016/MagDown/487/tuple_D2KPiPi_MS_2016.root
/storage/gpfs_data/local/lhcb/users/ferrari/Kpipi_ntuples/2016/MagDown/488/tuple_D2KPiPi_MS_2016.root
/storage/gpfs_data/local/lhcb/users/ferrari/Kpipi_ntuples/2016/MagDown/489/tuple_D2KPiPi_MS_2016.root
/storage/gpfs_data/local/lhcb/users/ferrari/Kpipi_ntuples/2016/MagDown/48/tuple_D2KPiPi_MS_2016.root
/storage/gpfs_data/local/lhcb/users/ferrari/Kpipi_ntuples/2016/MagDown/490/tuple_D2KPiPi_MS_2016.root
/storage/gpfs_data/local/lhcb/users/ferrari/Kpipi_ntuples/2016/MagDown/491/tuple_D2KPiPi_MS_2016.root
/storage/gpfs_data/local/lhcb/users/ferrari/Kpipi_ntuples/2016/MagDown/492/tuple_D2KPiPi_MS_2016.root
/storage/gpfs_data/local/lhcb/users/ferrari/Kpipi_ntuples/2016/MagDown/493/tuple_D2KPiPi_MS_2016.root
