/storage/gpfs_data/local/lhcb/users/ferrari/Kpipi_ntuples/2016/MagUp/2730/tuple_D2KPiPi_MS_2016.root
/storage/gpfs_data/local/lhcb/users/ferrari/Kpipi_ntuples/2016/MagUp/2731/tuple_D2KPiPi_MS_2016.root
/storage/gpfs_data/local/lhcb/users/ferrari/Kpipi_ntuples/2016/MagUp/2732/tuple_D2KPiPi_MS_2016.root
/storage/gpfs_data/local/lhcb/users/ferrari/Kpipi_ntuples/2016/MagUp/2733/tuple_D2KPiPi_MS_2016.root
/storage/gpfs_data/local/lhcb/users/ferrari/Kpipi_ntuples/2016/MagUp/2734/tuple_D2KPiPi_MS_2016.root
/storage/gpfs_data/local/lhcb/users/ferrari/Kpipi_ntuples/2016/MagUp/2736/tuple_D2KPiPi_MS_2016.root
/storage/gpfs_data/local/lhcb/users/ferrari/Kpipi_ntuples/2016/MagUp/2737/tuple_D2KPiPi_MS_2016.root
/storage/gpfs_data/local/lhcb/users/ferrari/Kpipi_ntuples/2016/MagUp/2739/tuple_D2KPiPi_MS_2016.root
/storage/gpfs_data/local/lhcb/users/ferrari/Kpipi_ntuples/2016/MagUp/2740/tuple_D2KPiPi_MS_2016.root
