/storage/gpfs_data/local/lhcb/users/ferrari/Kpipi_ntuples/2017/MagDown/28/tuple_D2KPiPi_MS_2017.root
/storage/gpfs_data/local/lhcb/users/ferrari/Kpipi_ntuples/2017/MagDown/290/tuple_D2KPiPi_MS_2017.root
/storage/gpfs_data/local/lhcb/users/ferrari/Kpipi_ntuples/2017/MagDown/291/tuple_D2KPiPi_MS_2017.root
/storage/gpfs_data/local/lhcb/users/ferrari/Kpipi_ntuples/2017/MagDown/292/tuple_D2KPiPi_MS_2017.root
/storage/gpfs_data/local/lhcb/users/ferrari/Kpipi_ntuples/2017/MagDown/293/tuple_D2KPiPi_MS_2017.root
/storage/gpfs_data/local/lhcb/users/ferrari/Kpipi_ntuples/2017/MagDown/295/tuple_D2KPiPi_MS_2017.root
/storage/gpfs_data/local/lhcb/users/ferrari/Kpipi_ntuples/2017/MagDown/296/tuple_D2KPiPi_MS_2017.root
/storage/gpfs_data/local/lhcb/users/ferrari/Kpipi_ntuples/2017/MagDown/297/tuple_D2KPiPi_MS_2017.root
/storage/gpfs_data/local/lhcb/users/ferrari/Kpipi_ntuples/2017/MagDown/298/tuple_D2KPiPi_MS_2017.root
