/storage/gpfs_data/local/lhcb/users/ferrari/D2hh_ntuples/2015/MagUp/tuple19.root
/storage/gpfs_data/local/lhcb/users/ferrari/D2hh_ntuples/2015/MagUp/tuple1.root
/storage/gpfs_data/local/lhcb/users/ferrari/D2hh_ntuples/2015/MagUp/tuple20.root
/storage/gpfs_data/local/lhcb/users/ferrari/D2hh_ntuples/2015/MagUp/tuple21.root
/storage/gpfs_data/local/lhcb/users/ferrari/D2hh_ntuples/2015/MagUp/tuple22.root
/storage/gpfs_data/local/lhcb/users/ferrari/D2hh_ntuples/2015/MagUp/tuple23.root
/storage/gpfs_data/local/lhcb/users/ferrari/D2hh_ntuples/2015/MagUp/tuple24.root
/storage/gpfs_data/local/lhcb/users/ferrari/D2hh_ntuples/2015/MagUp/tuple25.root
/storage/gpfs_data/local/lhcb/users/ferrari/D2hh_ntuples/2015/MagUp/tuple26.root
