/storage/gpfs_data/local/lhcb/users/ferrari/D2hh_ntuples/2018/MagUp/251/tuple.root
/storage/gpfs_data/local/lhcb/users/ferrari/D2hh_ntuples/2018/MagUp/252/tuple.root
/storage/gpfs_data/local/lhcb/users/ferrari/D2hh_ntuples/2018/MagUp/253/tuple.root
/storage/gpfs_data/local/lhcb/users/ferrari/D2hh_ntuples/2018/MagUp/254/tuple.root
/storage/gpfs_data/local/lhcb/users/ferrari/D2hh_ntuples/2018/MagUp/255/tuple.root
/storage/gpfs_data/local/lhcb/users/ferrari/D2hh_ntuples/2018/MagUp/256/tuple.root
/storage/gpfs_data/local/lhcb/users/ferrari/D2hh_ntuples/2018/MagUp/257/tuple.root
/storage/gpfs_data/local/lhcb/users/ferrari/D2hh_ntuples/2018/MagUp/258/tuple.root
/storage/gpfs_data/local/lhcb/users/ferrari/D2hh_ntuples/2018/MagUp/259/tuple.root
