/storage/gpfs_data/local/lhcb/users/ferrari/D2hh_ntuples/2018/MagUp/365/tuple.root
/storage/gpfs_data/local/lhcb/users/ferrari/D2hh_ntuples/2018/MagUp/36/tuple.root
/storage/gpfs_data/local/lhcb/users/ferrari/D2hh_ntuples/2018/MagUp/37/tuple.root
/storage/gpfs_data/local/lhcb/users/ferrari/D2hh_ntuples/2018/MagUp/38/tuple.root
/storage/gpfs_data/local/lhcb/users/ferrari/D2hh_ntuples/2018/MagUp/39/tuple.root
/storage/gpfs_data/local/lhcb/users/ferrari/D2hh_ntuples/2018/MagUp/3/tuple.root
/storage/gpfs_data/local/lhcb/users/ferrari/D2hh_ntuples/2018/MagUp/40/tuple.root
/storage/gpfs_data/local/lhcb/users/ferrari/D2hh_ntuples/2018/MagUp/41/tuple.root
/storage/gpfs_data/local/lhcb/users/ferrari/D2hh_ntuples/2018/MagUp/42/tuple.root
