/storage/gpfs_data/local/lhcb/users/ferrari/D2hh_ntuples/2018/MagUp/1083/tuple.root
/storage/gpfs_data/local/lhcb/users/ferrari/D2hh_ntuples/2018/MagUp/1084/tuple.root
/storage/gpfs_data/local/lhcb/users/ferrari/D2hh_ntuples/2018/MagUp/1085/tuple.root
/storage/gpfs_data/local/lhcb/users/ferrari/D2hh_ntuples/2018/MagUp/1086/tuple.root
/storage/gpfs_data/local/lhcb/users/ferrari/D2hh_ntuples/2018/MagUp/1087/tuple.root
/storage/gpfs_data/local/lhcb/users/ferrari/D2hh_ntuples/2018/MagUp/1088/tuple.root
/storage/gpfs_data/local/lhcb/users/ferrari/D2hh_ntuples/2018/MagUp/108/tuple.root
/storage/gpfs_data/local/lhcb/users/ferrari/D2hh_ntuples/2018/MagUp/109/tuple.root
/storage/gpfs_data/local/lhcb/users/ferrari/D2hh_ntuples/2018/MagUp/10/tuple.root
