/storage/gpfs_data/local/lhcb/users/fbettit3/DACP_Run2_prompt/pGun/DstToD0pi_KK/2016/Up/46832/pGun_DT.root
/storage/gpfs_data/local/lhcb/users/fbettit3/DACP_Run2_prompt/pGun/DstToD0pi_KK/2016/Up/46833/pGun_DT.root
/storage/gpfs_data/local/lhcb/users/fbettit3/DACP_Run2_prompt/pGun/DstToD0pi_KK/2016/Up/46834/pGun_DT.root
/storage/gpfs_data/local/lhcb/users/fbettit3/DACP_Run2_prompt/pGun/DstToD0pi_KK/2016/Up/46835/pGun_DT.root
/storage/gpfs_data/local/lhcb/users/fbettit3/DACP_Run2_prompt/pGun/DstToD0pi_KK/2016/Up/46836/pGun_DT.root
/storage/gpfs_data/local/lhcb/users/fbettit3/DACP_Run2_prompt/pGun/DstToD0pi_KK/2016/Up/46837/pGun_DT.root
/storage/gpfs_data/local/lhcb/users/fbettit3/DACP_Run2_prompt/pGun/DstToD0pi_KK/2016/Up/46838/pGun_DT.root
/storage/gpfs_data/local/lhcb/users/fbettit3/DACP_Run2_prompt/pGun/DstToD0pi_KK/2016/Up/46839/pGun_DT.root
/storage/gpfs_data/local/lhcb/users/fbettit3/DACP_Run2_prompt/pGun/DstToD0pi_KK/2016/Up/46840/pGun_DT.root
/storage/gpfs_data/local/lhcb/users/fbettit3/DACP_Run2_prompt/pGun/DstToD0pi_KK/2016/Up/46841/pGun_DT.root
/storage/gpfs_data/local/lhcb/users/fbettit3/DACP_Run2_prompt/pGun/DstToD0pi_KK/2016/Up/46842/pGun_DT.root
/storage/gpfs_data/local/lhcb/users/fbettit3/DACP_Run2_prompt/pGun/DstToD0pi_KK/2016/Up/46843/pGun_DT.root
/storage/gpfs_data/local/lhcb/users/fbettit3/DACP_Run2_prompt/pGun/DstToD0pi_KK/2016/Up/46844/pGun_DT.root
/storage/gpfs_data/local/lhcb/users/fbettit3/DACP_Run2_prompt/pGun/DstToD0pi_KK/2016/Up/46845/pGun_DT.root
/storage/gpfs_data/local/lhcb/users/fbettit3/DACP_Run2_prompt/pGun/DstToD0pi_KK/2016/Up/46846/pGun_DT.root
/storage/gpfs_data/local/lhcb/users/fbettit3/DACP_Run2_prompt/pGun/DstToD0pi_KK/2016/Up/46847/pGun_DT.root
/storage/gpfs_data/local/lhcb/users/fbettit3/DACP_Run2_prompt/pGun/DstToD0pi_KK/2016/Up/46848/pGun_DT.root
/storage/gpfs_data/local/lhcb/users/fbettit3/DACP_Run2_prompt/pGun/DstToD0pi_KK/2016/Up/46849/pGun_DT.root
/storage/gpfs_data/local/lhcb/users/fbettit3/DACP_Run2_prompt/pGun/DstToD0pi_KK/2016/Up/46850/pGun_DT.root
/storage/gpfs_data/local/lhcb/users/fbettit3/DACP_Run2_prompt/pGun/DstToD0pi_KK/2016/Up/46851/pGun_DT.root
/storage/gpfs_data/local/lhcb/users/fbettit3/DACP_Run2_prompt/pGun/DstToD0pi_KK/2016/Up/46852/pGun_DT.root
/storage/gpfs_data/local/lhcb/users/fbettit3/DACP_Run2_prompt/pGun/DstToD0pi_KK/2016/Up/46853/pGun_DT.root
/storage/gpfs_data/local/lhcb/users/fbettit3/DACP_Run2_prompt/pGun/DstToD0pi_KK/2016/Up/46854/pGun_DT.root
/storage/gpfs_data/local/lhcb/users/fbettit3/DACP_Run2_prompt/pGun/DstToD0pi_KK/2016/Up/46855/pGun_DT.root
/storage/gpfs_data/local/lhcb/users/fbettit3/DACP_Run2_prompt/pGun/DstToD0pi_KK/2016/Up/46856/pGun_DT.root
/storage/gpfs_data/local/lhcb/users/fbettit3/DACP_Run2_prompt/pGun/DstToD0pi_KK/2016/Up/46857/pGun_DT.root
/storage/gpfs_data/local/lhcb/users/fbettit3/DACP_Run2_prompt/pGun/DstToD0pi_KK/2016/Up/46858/pGun_DT.root
/storage/gpfs_data/local/lhcb/users/fbettit3/DACP_Run2_prompt/pGun/DstToD0pi_KK/2016/Up/46859/pGun_DT.root
/storage/gpfs_data/local/lhcb/users/fbettit3/DACP_Run2_prompt/pGun/DstToD0pi_KK/2016/Up/46860/pGun_DT.root
/storage/gpfs_data/local/lhcb/users/fbettit3/DACP_Run2_prompt/pGun/DstToD0pi_KK/2016/Up/46861/pGun_DT.root
/storage/gpfs_data/local/lhcb/users/fbettit3/DACP_Run2_prompt/pGun/DstToD0pi_KK/2016/Up/46862/pGun_DT.root
/storage/gpfs_data/local/lhcb/users/fbettit3/DACP_Run2_prompt/pGun/DstToD0pi_KK/2016/Up/46863/pGun_DT.root
/storage/gpfs_data/local/lhcb/users/fbettit3/DACP_Run2_prompt/pGun/DstToD0pi_KK/2016/Up/46864/pGun_DT.root
/storage/gpfs_data/local/lhcb/users/fbettit3/DACP_Run2_prompt/pGun/DstToD0pi_KK/2016/Up/46865/pGun_DT.root
/storage/gpfs_data/local/lhcb/users/fbettit3/DACP_Run2_prompt/pGun/DstToD0pi_KK/2016/Up/46866/pGun_DT.root
/storage/gpfs_data/local/lhcb/users/fbettit3/DACP_Run2_prompt/pGun/DstToD0pi_KK/2016/Up/46867/pGun_DT.root
/storage/gpfs_data/local/lhcb/users/fbettit3/DACP_Run2_prompt/pGun/DstToD0pi_KK/2016/Up/46868/pGun_DT.root
/storage/gpfs_data/local/lhcb/users/fbettit3/DACP_Run2_prompt/pGun/DstToD0pi_KK/2016/Up/46869/pGun_DT.root
/storage/gpfs_data/local/lhcb/users/fbettit3/DACP_Run2_prompt/pGun/DstToD0pi_KK/2016/Up/46870/pGun_DT.root
/storage/gpfs_data/local/lhcb/users/fbettit3/DACP_Run2_prompt/pGun/DstToD0pi_KK/2016/Up/46871/pGun_DT.root
/storage/gpfs_data/local/lhcb/users/fbettit3/DACP_Run2_prompt/pGun/DstToD0pi_KK/2016/Up/46872/pGun_DT.root
/storage/gpfs_data/local/lhcb/users/fbettit3/DACP_Run2_prompt/pGun/DstToD0pi_KK/2016/Up/46873/pGun_DT.root
/storage/gpfs_data/local/lhcb/users/fbettit3/DACP_Run2_prompt/pGun/DstToD0pi_KK/2016/Up/46874/pGun_DT.root
/storage/gpfs_data/local/lhcb/users/fbettit3/DACP_Run2_prompt/pGun/DstToD0pi_KK/2016/Up/46875/pGun_DT.root
/storage/gpfs_data/local/lhcb/users/fbettit3/DACP_Run2_prompt/pGun/DstToD0pi_KK/2016/Up/46876/pGun_DT.root
/storage/gpfs_data/local/lhcb/users/fbettit3/DACP_Run2_prompt/pGun/DstToD0pi_KK/2016/Up/46877/pGun_DT.root
/storage/gpfs_data/local/lhcb/users/fbettit3/DACP_Run2_prompt/pGun/DstToD0pi_KK/2016/Up/46878/pGun_DT.root
/storage/gpfs_data/local/lhcb/users/fbettit3/DACP_Run2_prompt/pGun/DstToD0pi_KK/2016/Up/46879/pGun_DT.root
/storage/gpfs_data/local/lhcb/users/fbettit3/DACP_Run2_prompt/pGun/DstToD0pi_KK/2016/Up/46880/pGun_DT.root
/storage/gpfs_data/local/lhcb/users/fbettit3/DACP_Run2_prompt/pGun/DstToD0pi_KK/2016/Up/46881/pGun_DT.root
/storage/gpfs_data/local/lhcb/users/fbettit3/DACP_Run2_prompt/pGun/DstToD0pi_KK/2016/Up/46882/pGun_DT.root
/storage/gpfs_data/local/lhcb/users/fbettit3/DACP_Run2_prompt/pGun/DstToD0pi_KK/2016/Up/46883/pGun_DT.root
/storage/gpfs_data/local/lhcb/users/fbettit3/DACP_Run2_prompt/pGun/DstToD0pi_KK/2016/Up/46884/pGun_DT.root
/storage/gpfs_data/local/lhcb/users/fbettit3/DACP_Run2_prompt/pGun/DstToD0pi_KK/2016/Up/46885/pGun_DT.root
/storage/gpfs_data/local/lhcb/users/fbettit3/DACP_Run2_prompt/pGun/DstToD0pi_KK/2016/Up/46886/pGun_DT.root
/storage/gpfs_data/local/lhcb/users/fbettit3/DACP_Run2_prompt/pGun/DstToD0pi_KK/2016/Up/46887/pGun_DT.root
/storage/gpfs_data/local/lhcb/users/fbettit3/DACP_Run2_prompt/pGun/DstToD0pi_KK/2016/Up/46888/pGun_DT.root
/storage/gpfs_data/local/lhcb/users/fbettit3/DACP_Run2_prompt/pGun/DstToD0pi_KK/2016/Up/46889/pGun_DT.root
/storage/gpfs_data/local/lhcb/users/fbettit3/DACP_Run2_prompt/pGun/DstToD0pi_KK/2016/Up/46890/pGun_DT.root
/storage/gpfs_data/local/lhcb/users/fbettit3/DACP_Run2_prompt/pGun/DstToD0pi_KK/2016/Up/46891/pGun_DT.root
/storage/gpfs_data/local/lhcb/users/fbettit3/DACP_Run2_prompt/pGun/DstToD0pi_KK/2016/Up/46892/pGun_DT.root
/storage/gpfs_data/local/lhcb/users/fbettit3/DACP_Run2_prompt/pGun/DstToD0pi_KK/2016/Up/46893/pGun_DT.root
/storage/gpfs_data/local/lhcb/users/fbettit3/DACP_Run2_prompt/pGun/DstToD0pi_KK/2016/Up/46894/pGun_DT.root
/storage/gpfs_data/local/lhcb/users/fbettit3/DACP_Run2_prompt/pGun/DstToD0pi_KK/2016/Up/46895/pGun_DT.root
/storage/gpfs_data/local/lhcb/users/fbettit3/DACP_Run2_prompt/pGun/DstToD0pi_KK/2016/Up/46896/pGun_DT.root
/storage/gpfs_data/local/lhcb/users/fbettit3/DACP_Run2_prompt/pGun/DstToD0pi_KK/2016/Up/46897/pGun_DT.root
/storage/gpfs_data/local/lhcb/users/fbettit3/DACP_Run2_prompt/pGun/DstToD0pi_KK/2016/Up/46898/pGun_DT.root
/storage/gpfs_data/local/lhcb/users/fbettit3/DACP_Run2_prompt/pGun/DstToD0pi_KK/2016/Up/46899/pGun_DT.root
/storage/gpfs_data/local/lhcb/users/fbettit3/DACP_Run2_prompt/pGun/DstToD0pi_KK/2016/Up/46900/pGun_DT.root
/storage/gpfs_data/local/lhcb/users/fbettit3/DACP_Run2_prompt/pGun/DstToD0pi_KK/2016/Up/46901/pGun_DT.root
/storage/gpfs_data/local/lhcb/users/fbettit3/DACP_Run2_prompt/pGun/DstToD0pi_KK/2016/Up/46902/pGun_DT.root
/storage/gpfs_data/local/lhcb/users/fbettit3/DACP_Run2_prompt/pGun/DstToD0pi_KK/2016/Up/46903/pGun_DT.root
/storage/gpfs_data/local/lhcb/users/fbettit3/DACP_Run2_prompt/pGun/DstToD0pi_KK/2016/Up/46904/pGun_DT.root
/storage/gpfs_data/local/lhcb/users/fbettit3/DACP_Run2_prompt/pGun/DstToD0pi_KK/2016/Up/46905/pGun_DT.root
/storage/gpfs_data/local/lhcb/users/fbettit3/DACP_Run2_prompt/pGun/DstToD0pi_KK/2016/Up/46906/pGun_DT.root
/storage/gpfs_data/local/lhcb/users/fbettit3/DACP_Run2_prompt/pGun/DstToD0pi_KK/2016/Up/46907/pGun_DT.root
/storage/gpfs_data/local/lhcb/users/fbettit3/DACP_Run2_prompt/pGun/DstToD0pi_KK/2016/Up/46908/pGun_DT.root
/storage/gpfs_data/local/lhcb/users/fbettit3/DACP_Run2_prompt/pGun/DstToD0pi_KK/2016/Up/46909/pGun_DT.root
/storage/gpfs_data/local/lhcb/users/fbettit3/DACP_Run2_prompt/pGun/DstToD0pi_KK/2016/Up/46910/pGun_DT.root
/storage/gpfs_data/local/lhcb/users/fbettit3/DACP_Run2_prompt/pGun/DstToD0pi_KK/2016/Up/46911/pGun_DT.root
/storage/gpfs_data/local/lhcb/users/fbettit3/DACP_Run2_prompt/pGun/DstToD0pi_KK/2016/Up/46912/pGun_DT.root
/storage/gpfs_data/local/lhcb/users/fbettit3/DACP_Run2_prompt/pGun/DstToD0pi_KK/2016/Up/46913/pGun_DT.root
/storage/gpfs_data/local/lhcb/users/fbettit3/DACP_Run2_prompt/pGun/DstToD0pi_KK/2016/Up/46914/pGun_DT.root
/storage/gpfs_data/local/lhcb/users/fbettit3/DACP_Run2_prompt/pGun/DstToD0pi_KK/2016/Up/46915/pGun_DT.root
/storage/gpfs_data/local/lhcb/users/fbettit3/DACP_Run2_prompt/pGun/DstToD0pi_KK/2016/Up/46916/pGun_DT.root
/storage/gpfs_data/local/lhcb/users/fbettit3/DACP_Run2_prompt/pGun/DstToD0pi_KK/2016/Up/46917/pGun_DT.root
/storage/gpfs_data/local/lhcb/users/fbettit3/DACP_Run2_prompt/pGun/DstToD0pi_KK/2016/Up/46918/pGun_DT.root
/storage/gpfs_data/local/lhcb/users/fbettit3/DACP_Run2_prompt/pGun/DstToD0pi_KK/2016/Up/46919/pGun_DT.root
/storage/gpfs_data/local/lhcb/users/fbettit3/DACP_Run2_prompt/pGun/DstToD0pi_KK/2016/Up/46920/pGun_DT.root
/storage/gpfs_data/local/lhcb/users/fbettit3/DACP_Run2_prompt/pGun/DstToD0pi_KK/2016/Up/46921/pGun_DT.root
/storage/gpfs_data/local/lhcb/users/fbettit3/DACP_Run2_prompt/pGun/DstToD0pi_KK/2016/Up/46922/pGun_DT.root
/storage/gpfs_data/local/lhcb/users/fbettit3/DACP_Run2_prompt/pGun/DstToD0pi_KK/2016/Up/46923/pGun_DT.root
/storage/gpfs_data/local/lhcb/users/fbettit3/DACP_Run2_prompt/pGun/DstToD0pi_KK/2016/Up/46924/pGun_DT.root
/storage/gpfs_data/local/lhcb/users/fbettit3/DACP_Run2_prompt/pGun/DstToD0pi_KK/2016/Up/46925/pGun_DT.root
/storage/gpfs_data/local/lhcb/users/fbettit3/DACP_Run2_prompt/pGun/DstToD0pi_KK/2016/Up/46926/pGun_DT.root
/storage/gpfs_data/local/lhcb/users/fbettit3/DACP_Run2_prompt/pGun/DstToD0pi_KK/2016/Up/46927/pGun_DT.root
/storage/gpfs_data/local/lhcb/users/fbettit3/DACP_Run2_prompt/pGun/DstToD0pi_KK/2016/Up/46928/pGun_DT.root
/storage/gpfs_data/local/lhcb/users/fbettit3/DACP_Run2_prompt/pGun/DstToD0pi_KK/2016/Up/46929/pGun_DT.root
/storage/gpfs_data/local/lhcb/users/fbettit3/DACP_Run2_prompt/pGun/DstToD0pi_KK/2016/Up/46930/pGun_DT.root
