/storage/gpfs_data/local/lhcb/users/fbettit3/DACP_Run2_prompt/pGun/DstToD0pi_KK/2016/Up/40100/pGun_DT.root
/storage/gpfs_data/local/lhcb/users/fbettit3/DACP_Run2_prompt/pGun/DstToD0pi_KK/2016/Up/40101/pGun_DT.root
/storage/gpfs_data/local/lhcb/users/fbettit3/DACP_Run2_prompt/pGun/DstToD0pi_KK/2016/Up/40102/pGun_DT.root
/storage/gpfs_data/local/lhcb/users/fbettit3/DACP_Run2_prompt/pGun/DstToD0pi_KK/2016/Up/40103/pGun_DT.root
/storage/gpfs_data/local/lhcb/users/fbettit3/DACP_Run2_prompt/pGun/DstToD0pi_KK/2016/Up/40104/pGun_DT.root
/storage/gpfs_data/local/lhcb/users/fbettit3/DACP_Run2_prompt/pGun/DstToD0pi_KK/2016/Up/40105/pGun_DT.root
/storage/gpfs_data/local/lhcb/users/fbettit3/DACP_Run2_prompt/pGun/DstToD0pi_KK/2016/Up/40106/pGun_DT.root
/storage/gpfs_data/local/lhcb/users/fbettit3/DACP_Run2_prompt/pGun/DstToD0pi_KK/2016/Up/40107/pGun_DT.root
/storage/gpfs_data/local/lhcb/users/fbettit3/DACP_Run2_prompt/pGun/DstToD0pi_KK/2016/Up/40108/pGun_DT.root
/storage/gpfs_data/local/lhcb/users/fbettit3/DACP_Run2_prompt/pGun/DstToD0pi_KK/2016/Up/40109/pGun_DT.root
/storage/gpfs_data/local/lhcb/users/fbettit3/DACP_Run2_prompt/pGun/DstToD0pi_KK/2016/Up/40110/pGun_DT.root
/storage/gpfs_data/local/lhcb/users/fbettit3/DACP_Run2_prompt/pGun/DstToD0pi_KK/2016/Up/40111/pGun_DT.root
/storage/gpfs_data/local/lhcb/users/fbettit3/DACP_Run2_prompt/pGun/DstToD0pi_KK/2016/Up/40112/pGun_DT.root
/storage/gpfs_data/local/lhcb/users/fbettit3/DACP_Run2_prompt/pGun/DstToD0pi_KK/2016/Up/40113/pGun_DT.root
/storage/gpfs_data/local/lhcb/users/fbettit3/DACP_Run2_prompt/pGun/DstToD0pi_KK/2016/Up/40114/pGun_DT.root
/storage/gpfs_data/local/lhcb/users/fbettit3/DACP_Run2_prompt/pGun/DstToD0pi_KK/2016/Up/40115/pGun_DT.root
/storage/gpfs_data/local/lhcb/users/fbettit3/DACP_Run2_prompt/pGun/DstToD0pi_KK/2016/Up/40116/pGun_DT.root
/storage/gpfs_data/local/lhcb/users/fbettit3/DACP_Run2_prompt/pGun/DstToD0pi_KK/2016/Up/40117/pGun_DT.root
/storage/gpfs_data/local/lhcb/users/fbettit3/DACP_Run2_prompt/pGun/DstToD0pi_KK/2016/Up/40118/pGun_DT.root
/storage/gpfs_data/local/lhcb/users/fbettit3/DACP_Run2_prompt/pGun/DstToD0pi_KK/2016/Up/40119/pGun_DT.root
/storage/gpfs_data/local/lhcb/users/fbettit3/DACP_Run2_prompt/pGun/DstToD0pi_KK/2016/Up/40120/pGun_DT.root
/storage/gpfs_data/local/lhcb/users/fbettit3/DACP_Run2_prompt/pGun/DstToD0pi_KK/2016/Up/40121/pGun_DT.root
/storage/gpfs_data/local/lhcb/users/fbettit3/DACP_Run2_prompt/pGun/DstToD0pi_KK/2016/Up/40122/pGun_DT.root
/storage/gpfs_data/local/lhcb/users/fbettit3/DACP_Run2_prompt/pGun/DstToD0pi_KK/2016/Up/40123/pGun_DT.root
/storage/gpfs_data/local/lhcb/users/fbettit3/DACP_Run2_prompt/pGun/DstToD0pi_KK/2016/Up/40124/pGun_DT.root
/storage/gpfs_data/local/lhcb/users/fbettit3/DACP_Run2_prompt/pGun/DstToD0pi_KK/2016/Up/40125/pGun_DT.root
/storage/gpfs_data/local/lhcb/users/fbettit3/DACP_Run2_prompt/pGun/DstToD0pi_KK/2016/Up/40126/pGun_DT.root
/storage/gpfs_data/local/lhcb/users/fbettit3/DACP_Run2_prompt/pGun/DstToD0pi_KK/2016/Up/40127/pGun_DT.root
/storage/gpfs_data/local/lhcb/users/fbettit3/DACP_Run2_prompt/pGun/DstToD0pi_KK/2016/Up/40128/pGun_DT.root
/storage/gpfs_data/local/lhcb/users/fbettit3/DACP_Run2_prompt/pGun/DstToD0pi_KK/2016/Up/40129/pGun_DT.root
/storage/gpfs_data/local/lhcb/users/fbettit3/DACP_Run2_prompt/pGun/DstToD0pi_KK/2016/Up/40130/pGun_DT.root
/storage/gpfs_data/local/lhcb/users/fbettit3/DACP_Run2_prompt/pGun/DstToD0pi_KK/2016/Up/40131/pGun_DT.root
/storage/gpfs_data/local/lhcb/users/fbettit3/DACP_Run2_prompt/pGun/DstToD0pi_KK/2016/Up/40132/pGun_DT.root
/storage/gpfs_data/local/lhcb/users/fbettit3/DACP_Run2_prompt/pGun/DstToD0pi_KK/2016/Up/40133/pGun_DT.root
/storage/gpfs_data/local/lhcb/users/fbettit3/DACP_Run2_prompt/pGun/DstToD0pi_KK/2016/Up/40134/pGun_DT.root
/storage/gpfs_data/local/lhcb/users/fbettit3/DACP_Run2_prompt/pGun/DstToD0pi_KK/2016/Up/40135/pGun_DT.root
/storage/gpfs_data/local/lhcb/users/fbettit3/DACP_Run2_prompt/pGun/DstToD0pi_KK/2016/Up/40136/pGun_DT.root
/storage/gpfs_data/local/lhcb/users/fbettit3/DACP_Run2_prompt/pGun/DstToD0pi_KK/2016/Up/40137/pGun_DT.root
/storage/gpfs_data/local/lhcb/users/fbettit3/DACP_Run2_prompt/pGun/DstToD0pi_KK/2016/Up/40138/pGun_DT.root
/storage/gpfs_data/local/lhcb/users/fbettit3/DACP_Run2_prompt/pGun/DstToD0pi_KK/2016/Up/40139/pGun_DT.root
/storage/gpfs_data/local/lhcb/users/fbettit3/DACP_Run2_prompt/pGun/DstToD0pi_KK/2016/Up/40140/pGun_DT.root
/storage/gpfs_data/local/lhcb/users/fbettit3/DACP_Run2_prompt/pGun/DstToD0pi_KK/2016/Up/40141/pGun_DT.root
/storage/gpfs_data/local/lhcb/users/fbettit3/DACP_Run2_prompt/pGun/DstToD0pi_KK/2016/Up/40142/pGun_DT.root
/storage/gpfs_data/local/lhcb/users/fbettit3/DACP_Run2_prompt/pGun/DstToD0pi_KK/2016/Up/40143/pGun_DT.root
/storage/gpfs_data/local/lhcb/users/fbettit3/DACP_Run2_prompt/pGun/DstToD0pi_KK/2016/Up/40144/pGun_DT.root
/storage/gpfs_data/local/lhcb/users/fbettit3/DACP_Run2_prompt/pGun/DstToD0pi_KK/2016/Up/40145/pGun_DT.root
/storage/gpfs_data/local/lhcb/users/fbettit3/DACP_Run2_prompt/pGun/DstToD0pi_KK/2016/Up/40146/pGun_DT.root
/storage/gpfs_data/local/lhcb/users/fbettit3/DACP_Run2_prompt/pGun/DstToD0pi_KK/2016/Up/40147/pGun_DT.root
/storage/gpfs_data/local/lhcb/users/fbettit3/DACP_Run2_prompt/pGun/DstToD0pi_KK/2016/Up/40148/pGun_DT.root
/storage/gpfs_data/local/lhcb/users/fbettit3/DACP_Run2_prompt/pGun/DstToD0pi_KK/2016/Up/40149/pGun_DT.root
/storage/gpfs_data/local/lhcb/users/fbettit3/DACP_Run2_prompt/pGun/DstToD0pi_KK/2016/Up/40150/pGun_DT.root
/storage/gpfs_data/local/lhcb/users/fbettit3/DACP_Run2_prompt/pGun/DstToD0pi_KK/2016/Up/40151/pGun_DT.root
/storage/gpfs_data/local/lhcb/users/fbettit3/DACP_Run2_prompt/pGun/DstToD0pi_KK/2016/Up/40152/pGun_DT.root
/storage/gpfs_data/local/lhcb/users/fbettit3/DACP_Run2_prompt/pGun/DstToD0pi_KK/2016/Up/40153/pGun_DT.root
/storage/gpfs_data/local/lhcb/users/fbettit3/DACP_Run2_prompt/pGun/DstToD0pi_KK/2016/Up/40154/pGun_DT.root
/storage/gpfs_data/local/lhcb/users/fbettit3/DACP_Run2_prompt/pGun/DstToD0pi_KK/2016/Up/40155/pGun_DT.root
/storage/gpfs_data/local/lhcb/users/fbettit3/DACP_Run2_prompt/pGun/DstToD0pi_KK/2016/Up/40156/pGun_DT.root
/storage/gpfs_data/local/lhcb/users/fbettit3/DACP_Run2_prompt/pGun/DstToD0pi_KK/2016/Up/40157/pGun_DT.root
/storage/gpfs_data/local/lhcb/users/fbettit3/DACP_Run2_prompt/pGun/DstToD0pi_KK/2016/Up/40158/pGun_DT.root
/storage/gpfs_data/local/lhcb/users/fbettit3/DACP_Run2_prompt/pGun/DstToD0pi_KK/2016/Up/40159/pGun_DT.root
/storage/gpfs_data/local/lhcb/users/fbettit3/DACP_Run2_prompt/pGun/DstToD0pi_KK/2016/Up/40160/pGun_DT.root
/storage/gpfs_data/local/lhcb/users/fbettit3/DACP_Run2_prompt/pGun/DstToD0pi_KK/2016/Up/40161/pGun_DT.root
/storage/gpfs_data/local/lhcb/users/fbettit3/DACP_Run2_prompt/pGun/DstToD0pi_KK/2016/Up/40162/pGun_DT.root
/storage/gpfs_data/local/lhcb/users/fbettit3/DACP_Run2_prompt/pGun/DstToD0pi_KK/2016/Up/40163/pGun_DT.root
/storage/gpfs_data/local/lhcb/users/fbettit3/DACP_Run2_prompt/pGun/DstToD0pi_KK/2016/Up/40164/pGun_DT.root
/storage/gpfs_data/local/lhcb/users/fbettit3/DACP_Run2_prompt/pGun/DstToD0pi_KK/2016/Up/40165/pGun_DT.root
/storage/gpfs_data/local/lhcb/users/fbettit3/DACP_Run2_prompt/pGun/DstToD0pi_KK/2016/Up/40166/pGun_DT.root
/storage/gpfs_data/local/lhcb/users/fbettit3/DACP_Run2_prompt/pGun/DstToD0pi_KK/2016/Up/40167/pGun_DT.root
/storage/gpfs_data/local/lhcb/users/fbettit3/DACP_Run2_prompt/pGun/DstToD0pi_KK/2016/Up/40168/pGun_DT.root
/storage/gpfs_data/local/lhcb/users/fbettit3/DACP_Run2_prompt/pGun/DstToD0pi_KK/2016/Up/40169/pGun_DT.root
/storage/gpfs_data/local/lhcb/users/fbettit3/DACP_Run2_prompt/pGun/DstToD0pi_KK/2016/Up/40170/pGun_DT.root
/storage/gpfs_data/local/lhcb/users/fbettit3/DACP_Run2_prompt/pGun/DstToD0pi_KK/2016/Up/40171/pGun_DT.root
/storage/gpfs_data/local/lhcb/users/fbettit3/DACP_Run2_prompt/pGun/DstToD0pi_KK/2016/Up/40172/pGun_DT.root
/storage/gpfs_data/local/lhcb/users/fbettit3/DACP_Run2_prompt/pGun/DstToD0pi_KK/2016/Up/40173/pGun_DT.root
/storage/gpfs_data/local/lhcb/users/fbettit3/DACP_Run2_prompt/pGun/DstToD0pi_KK/2016/Up/40174/pGun_DT.root
/storage/gpfs_data/local/lhcb/users/fbettit3/DACP_Run2_prompt/pGun/DstToD0pi_KK/2016/Up/40175/pGun_DT.root
/storage/gpfs_data/local/lhcb/users/fbettit3/DACP_Run2_prompt/pGun/DstToD0pi_KK/2016/Up/40176/pGun_DT.root
/storage/gpfs_data/local/lhcb/users/fbettit3/DACP_Run2_prompt/pGun/DstToD0pi_KK/2016/Up/40177/pGun_DT.root
/storage/gpfs_data/local/lhcb/users/fbettit3/DACP_Run2_prompt/pGun/DstToD0pi_KK/2016/Up/40178/pGun_DT.root
/storage/gpfs_data/local/lhcb/users/fbettit3/DACP_Run2_prompt/pGun/DstToD0pi_KK/2016/Up/40179/pGun_DT.root
/storage/gpfs_data/local/lhcb/users/fbettit3/DACP_Run2_prompt/pGun/DstToD0pi_KK/2016/Up/40180/pGun_DT.root
/storage/gpfs_data/local/lhcb/users/fbettit3/DACP_Run2_prompt/pGun/DstToD0pi_KK/2016/Up/40181/pGun_DT.root
/storage/gpfs_data/local/lhcb/users/fbettit3/DACP_Run2_prompt/pGun/DstToD0pi_KK/2016/Up/40182/pGun_DT.root
/storage/gpfs_data/local/lhcb/users/fbettit3/DACP_Run2_prompt/pGun/DstToD0pi_KK/2016/Up/40183/pGun_DT.root
/storage/gpfs_data/local/lhcb/users/fbettit3/DACP_Run2_prompt/pGun/DstToD0pi_KK/2016/Up/40184/pGun_DT.root
/storage/gpfs_data/local/lhcb/users/fbettit3/DACP_Run2_prompt/pGun/DstToD0pi_KK/2016/Up/40185/pGun_DT.root
/storage/gpfs_data/local/lhcb/users/fbettit3/DACP_Run2_prompt/pGun/DstToD0pi_KK/2016/Up/40186/pGun_DT.root
/storage/gpfs_data/local/lhcb/users/fbettit3/DACP_Run2_prompt/pGun/DstToD0pi_KK/2016/Up/40187/pGun_DT.root
/storage/gpfs_data/local/lhcb/users/fbettit3/DACP_Run2_prompt/pGun/DstToD0pi_KK/2016/Up/40188/pGun_DT.root
/storage/gpfs_data/local/lhcb/users/fbettit3/DACP_Run2_prompt/pGun/DstToD0pi_KK/2016/Up/40189/pGun_DT.root
/storage/gpfs_data/local/lhcb/users/fbettit3/DACP_Run2_prompt/pGun/DstToD0pi_KK/2016/Up/40190/pGun_DT.root
/storage/gpfs_data/local/lhcb/users/fbettit3/DACP_Run2_prompt/pGun/DstToD0pi_KK/2016/Up/40191/pGun_DT.root
/storage/gpfs_data/local/lhcb/users/fbettit3/DACP_Run2_prompt/pGun/DstToD0pi_KK/2016/Up/40192/pGun_DT.root
/storage/gpfs_data/local/lhcb/users/fbettit3/DACP_Run2_prompt/pGun/DstToD0pi_KK/2016/Up/40193/pGun_DT.root
/storage/gpfs_data/local/lhcb/users/fbettit3/DACP_Run2_prompt/pGun/DstToD0pi_KK/2016/Up/40194/pGun_DT.root
/storage/gpfs_data/local/lhcb/users/fbettit3/DACP_Run2_prompt/pGun/DstToD0pi_KK/2016/Up/40195/pGun_DT.root
/storage/gpfs_data/local/lhcb/users/fbettit3/DACP_Run2_prompt/pGun/DstToD0pi_KK/2016/Up/40196/pGun_DT.root
/storage/gpfs_data/local/lhcb/users/fbettit3/DACP_Run2_prompt/pGun/DstToD0pi_KK/2016/Up/40197/pGun_DT.root
/storage/gpfs_data/local/lhcb/users/fbettit3/DACP_Run2_prompt/pGun/DstToD0pi_KK/2016/Up/40198/pGun_DT.root
