/storage/gpfs_data/local/lhcb/users/fbettit3/DACP_Run2_prompt/pGun/DstToD0pi_KK/2016/Up/49505/pGun_DT.root
/storage/gpfs_data/local/lhcb/users/fbettit3/DACP_Run2_prompt/pGun/DstToD0pi_KK/2016/Up/49506/pGun_DT.root
/storage/gpfs_data/local/lhcb/users/fbettit3/DACP_Run2_prompt/pGun/DstToD0pi_KK/2016/Up/49507/pGun_DT.root
/storage/gpfs_data/local/lhcb/users/fbettit3/DACP_Run2_prompt/pGun/DstToD0pi_KK/2016/Up/49508/pGun_DT.root
/storage/gpfs_data/local/lhcb/users/fbettit3/DACP_Run2_prompt/pGun/DstToD0pi_KK/2016/Up/49509/pGun_DT.root
/storage/gpfs_data/local/lhcb/users/fbettit3/DACP_Run2_prompt/pGun/DstToD0pi_KK/2016/Up/49510/pGun_DT.root
/storage/gpfs_data/local/lhcb/users/fbettit3/DACP_Run2_prompt/pGun/DstToD0pi_KK/2016/Up/49511/pGun_DT.root
/storage/gpfs_data/local/lhcb/users/fbettit3/DACP_Run2_prompt/pGun/DstToD0pi_KK/2016/Up/49512/pGun_DT.root
/storage/gpfs_data/local/lhcb/users/fbettit3/DACP_Run2_prompt/pGun/DstToD0pi_KK/2016/Up/49513/pGun_DT.root
/storage/gpfs_data/local/lhcb/users/fbettit3/DACP_Run2_prompt/pGun/DstToD0pi_KK/2016/Up/49514/pGun_DT.root
/storage/gpfs_data/local/lhcb/users/fbettit3/DACP_Run2_prompt/pGun/DstToD0pi_KK/2016/Up/49515/pGun_DT.root
/storage/gpfs_data/local/lhcb/users/fbettit3/DACP_Run2_prompt/pGun/DstToD0pi_KK/2016/Up/49516/pGun_DT.root
/storage/gpfs_data/local/lhcb/users/fbettit3/DACP_Run2_prompt/pGun/DstToD0pi_KK/2016/Up/49517/pGun_DT.root
/storage/gpfs_data/local/lhcb/users/fbettit3/DACP_Run2_prompt/pGun/DstToD0pi_KK/2016/Up/49518/pGun_DT.root
/storage/gpfs_data/local/lhcb/users/fbettit3/DACP_Run2_prompt/pGun/DstToD0pi_KK/2016/Up/49519/pGun_DT.root
/storage/gpfs_data/local/lhcb/users/fbettit3/DACP_Run2_prompt/pGun/DstToD0pi_KK/2016/Up/49520/pGun_DT.root
/storage/gpfs_data/local/lhcb/users/fbettit3/DACP_Run2_prompt/pGun/DstToD0pi_KK/2016/Up/49521/pGun_DT.root
/storage/gpfs_data/local/lhcb/users/fbettit3/DACP_Run2_prompt/pGun/DstToD0pi_KK/2016/Up/49522/pGun_DT.root
/storage/gpfs_data/local/lhcb/users/fbettit3/DACP_Run2_prompt/pGun/DstToD0pi_KK/2016/Up/49523/pGun_DT.root
/storage/gpfs_data/local/lhcb/users/fbettit3/DACP_Run2_prompt/pGun/DstToD0pi_KK/2016/Up/49524/pGun_DT.root
/storage/gpfs_data/local/lhcb/users/fbettit3/DACP_Run2_prompt/pGun/DstToD0pi_KK/2016/Up/49525/pGun_DT.root
/storage/gpfs_data/local/lhcb/users/fbettit3/DACP_Run2_prompt/pGun/DstToD0pi_KK/2016/Up/49526/pGun_DT.root
/storage/gpfs_data/local/lhcb/users/fbettit3/DACP_Run2_prompt/pGun/DstToD0pi_KK/2016/Up/49527/pGun_DT.root
/storage/gpfs_data/local/lhcb/users/fbettit3/DACP_Run2_prompt/pGun/DstToD0pi_KK/2016/Up/49528/pGun_DT.root
/storage/gpfs_data/local/lhcb/users/fbettit3/DACP_Run2_prompt/pGun/DstToD0pi_KK/2016/Up/49529/pGun_DT.root
/storage/gpfs_data/local/lhcb/users/fbettit3/DACP_Run2_prompt/pGun/DstToD0pi_KK/2016/Up/49530/pGun_DT.root
/storage/gpfs_data/local/lhcb/users/fbettit3/DACP_Run2_prompt/pGun/DstToD0pi_KK/2016/Up/49531/pGun_DT.root
/storage/gpfs_data/local/lhcb/users/fbettit3/DACP_Run2_prompt/pGun/DstToD0pi_KK/2016/Up/49532/pGun_DT.root
/storage/gpfs_data/local/lhcb/users/fbettit3/DACP_Run2_prompt/pGun/DstToD0pi_KK/2016/Up/49533/pGun_DT.root
/storage/gpfs_data/local/lhcb/users/fbettit3/DACP_Run2_prompt/pGun/DstToD0pi_KK/2016/Up/49534/pGun_DT.root
/storage/gpfs_data/local/lhcb/users/fbettit3/DACP_Run2_prompt/pGun/DstToD0pi_KK/2016/Up/49535/pGun_DT.root
/storage/gpfs_data/local/lhcb/users/fbettit3/DACP_Run2_prompt/pGun/DstToD0pi_KK/2016/Up/49536/pGun_DT.root
/storage/gpfs_data/local/lhcb/users/fbettit3/DACP_Run2_prompt/pGun/DstToD0pi_KK/2016/Up/49537/pGun_DT.root
/storage/gpfs_data/local/lhcb/users/fbettit3/DACP_Run2_prompt/pGun/DstToD0pi_KK/2016/Up/49538/pGun_DT.root
/storage/gpfs_data/local/lhcb/users/fbettit3/DACP_Run2_prompt/pGun/DstToD0pi_KK/2016/Up/49539/pGun_DT.root
/storage/gpfs_data/local/lhcb/users/fbettit3/DACP_Run2_prompt/pGun/DstToD0pi_KK/2016/Up/49540/pGun_DT.root
/storage/gpfs_data/local/lhcb/users/fbettit3/DACP_Run2_prompt/pGun/DstToD0pi_KK/2016/Up/49541/pGun_DT.root
/storage/gpfs_data/local/lhcb/users/fbettit3/DACP_Run2_prompt/pGun/DstToD0pi_KK/2016/Up/49542/pGun_DT.root
/storage/gpfs_data/local/lhcb/users/fbettit3/DACP_Run2_prompt/pGun/DstToD0pi_KK/2016/Up/49543/pGun_DT.root
/storage/gpfs_data/local/lhcb/users/fbettit3/DACP_Run2_prompt/pGun/DstToD0pi_KK/2016/Up/49544/pGun_DT.root
/storage/gpfs_data/local/lhcb/users/fbettit3/DACP_Run2_prompt/pGun/DstToD0pi_KK/2016/Up/49545/pGun_DT.root
/storage/gpfs_data/local/lhcb/users/fbettit3/DACP_Run2_prompt/pGun/DstToD0pi_KK/2016/Up/49546/pGun_DT.root
/storage/gpfs_data/local/lhcb/users/fbettit3/DACP_Run2_prompt/pGun/DstToD0pi_KK/2016/Up/49547/pGun_DT.root
/storage/gpfs_data/local/lhcb/users/fbettit3/DACP_Run2_prompt/pGun/DstToD0pi_KK/2016/Up/49548/pGun_DT.root
/storage/gpfs_data/local/lhcb/users/fbettit3/DACP_Run2_prompt/pGun/DstToD0pi_KK/2016/Up/49549/pGun_DT.root
/storage/gpfs_data/local/lhcb/users/fbettit3/DACP_Run2_prompt/pGun/DstToD0pi_KK/2016/Up/49550/pGun_DT.root
/storage/gpfs_data/local/lhcb/users/fbettit3/DACP_Run2_prompt/pGun/DstToD0pi_KK/2016/Up/49551/pGun_DT.root
/storage/gpfs_data/local/lhcb/users/fbettit3/DACP_Run2_prompt/pGun/DstToD0pi_KK/2016/Up/49552/pGun_DT.root
/storage/gpfs_data/local/lhcb/users/fbettit3/DACP_Run2_prompt/pGun/DstToD0pi_KK/2016/Up/49553/pGun_DT.root
/storage/gpfs_data/local/lhcb/users/fbettit3/DACP_Run2_prompt/pGun/DstToD0pi_KK/2016/Up/49554/pGun_DT.root
/storage/gpfs_data/local/lhcb/users/fbettit3/DACP_Run2_prompt/pGun/DstToD0pi_KK/2016/Up/49555/pGun_DT.root
/storage/gpfs_data/local/lhcb/users/fbettit3/DACP_Run2_prompt/pGun/DstToD0pi_KK/2016/Up/49556/pGun_DT.root
/storage/gpfs_data/local/lhcb/users/fbettit3/DACP_Run2_prompt/pGun/DstToD0pi_KK/2016/Up/49557/pGun_DT.root
/storage/gpfs_data/local/lhcb/users/fbettit3/DACP_Run2_prompt/pGun/DstToD0pi_KK/2016/Up/49558/pGun_DT.root
/storage/gpfs_data/local/lhcb/users/fbettit3/DACP_Run2_prompt/pGun/DstToD0pi_KK/2016/Up/49559/pGun_DT.root
/storage/gpfs_data/local/lhcb/users/fbettit3/DACP_Run2_prompt/pGun/DstToD0pi_KK/2016/Up/49560/pGun_DT.root
/storage/gpfs_data/local/lhcb/users/fbettit3/DACP_Run2_prompt/pGun/DstToD0pi_KK/2016/Up/49561/pGun_DT.root
/storage/gpfs_data/local/lhcb/users/fbettit3/DACP_Run2_prompt/pGun/DstToD0pi_KK/2016/Up/49562/pGun_DT.root
/storage/gpfs_data/local/lhcb/users/fbettit3/DACP_Run2_prompt/pGun/DstToD0pi_KK/2016/Up/49563/pGun_DT.root
/storage/gpfs_data/local/lhcb/users/fbettit3/DACP_Run2_prompt/pGun/DstToD0pi_KK/2016/Up/49564/pGun_DT.root
/storage/gpfs_data/local/lhcb/users/fbettit3/DACP_Run2_prompt/pGun/DstToD0pi_KK/2016/Up/49565/pGun_DT.root
/storage/gpfs_data/local/lhcb/users/fbettit3/DACP_Run2_prompt/pGun/DstToD0pi_KK/2016/Up/49566/pGun_DT.root
/storage/gpfs_data/local/lhcb/users/fbettit3/DACP_Run2_prompt/pGun/DstToD0pi_KK/2016/Up/49567/pGun_DT.root
/storage/gpfs_data/local/lhcb/users/fbettit3/DACP_Run2_prompt/pGun/DstToD0pi_KK/2016/Up/49568/pGun_DT.root
/storage/gpfs_data/local/lhcb/users/fbettit3/DACP_Run2_prompt/pGun/DstToD0pi_KK/2016/Up/49569/pGun_DT.root
/storage/gpfs_data/local/lhcb/users/fbettit3/DACP_Run2_prompt/pGun/DstToD0pi_KK/2016/Up/49570/pGun_DT.root
/storage/gpfs_data/local/lhcb/users/fbettit3/DACP_Run2_prompt/pGun/DstToD0pi_KK/2016/Up/49571/pGun_DT.root
/storage/gpfs_data/local/lhcb/users/fbettit3/DACP_Run2_prompt/pGun/DstToD0pi_KK/2016/Up/49572/pGun_DT.root
/storage/gpfs_data/local/lhcb/users/fbettit3/DACP_Run2_prompt/pGun/DstToD0pi_KK/2016/Up/49573/pGun_DT.root
/storage/gpfs_data/local/lhcb/users/fbettit3/DACP_Run2_prompt/pGun/DstToD0pi_KK/2016/Up/49574/pGun_DT.root
/storage/gpfs_data/local/lhcb/users/fbettit3/DACP_Run2_prompt/pGun/DstToD0pi_KK/2016/Up/49575/pGun_DT.root
/storage/gpfs_data/local/lhcb/users/fbettit3/DACP_Run2_prompt/pGun/DstToD0pi_KK/2016/Up/49576/pGun_DT.root
/storage/gpfs_data/local/lhcb/users/fbettit3/DACP_Run2_prompt/pGun/DstToD0pi_KK/2016/Up/49577/pGun_DT.root
/storage/gpfs_data/local/lhcb/users/fbettit3/DACP_Run2_prompt/pGun/DstToD0pi_KK/2016/Up/49578/pGun_DT.root
/storage/gpfs_data/local/lhcb/users/fbettit3/DACP_Run2_prompt/pGun/DstToD0pi_KK/2016/Up/49579/pGun_DT.root
/storage/gpfs_data/local/lhcb/users/fbettit3/DACP_Run2_prompt/pGun/DstToD0pi_KK/2016/Up/49580/pGun_DT.root
/storage/gpfs_data/local/lhcb/users/fbettit3/DACP_Run2_prompt/pGun/DstToD0pi_KK/2016/Up/49581/pGun_DT.root
/storage/gpfs_data/local/lhcb/users/fbettit3/DACP_Run2_prompt/pGun/DstToD0pi_KK/2016/Up/49582/pGun_DT.root
/storage/gpfs_data/local/lhcb/users/fbettit3/DACP_Run2_prompt/pGun/DstToD0pi_KK/2016/Up/49583/pGun_DT.root
/storage/gpfs_data/local/lhcb/users/fbettit3/DACP_Run2_prompt/pGun/DstToD0pi_KK/2016/Up/49584/pGun_DT.root
/storage/gpfs_data/local/lhcb/users/fbettit3/DACP_Run2_prompt/pGun/DstToD0pi_KK/2016/Up/49585/pGun_DT.root
/storage/gpfs_data/local/lhcb/users/fbettit3/DACP_Run2_prompt/pGun/DstToD0pi_KK/2016/Up/49586/pGun_DT.root
/storage/gpfs_data/local/lhcb/users/fbettit3/DACP_Run2_prompt/pGun/DstToD0pi_KK/2016/Up/49587/pGun_DT.root
/storage/gpfs_data/local/lhcb/users/fbettit3/DACP_Run2_prompt/pGun/DstToD0pi_KK/2016/Up/49588/pGun_DT.root
/storage/gpfs_data/local/lhcb/users/fbettit3/DACP_Run2_prompt/pGun/DstToD0pi_KK/2016/Up/49589/pGun_DT.root
/storage/gpfs_data/local/lhcb/users/fbettit3/DACP_Run2_prompt/pGun/DstToD0pi_KK/2016/Up/49590/pGun_DT.root
/storage/gpfs_data/local/lhcb/users/fbettit3/DACP_Run2_prompt/pGun/DstToD0pi_KK/2016/Up/49591/pGun_DT.root
/storage/gpfs_data/local/lhcb/users/fbettit3/DACP_Run2_prompt/pGun/DstToD0pi_KK/2016/Up/49592/pGun_DT.root
/storage/gpfs_data/local/lhcb/users/fbettit3/DACP_Run2_prompt/pGun/DstToD0pi_KK/2016/Up/49593/pGun_DT.root
/storage/gpfs_data/local/lhcb/users/fbettit3/DACP_Run2_prompt/pGun/DstToD0pi_KK/2016/Up/49594/pGun_DT.root
/storage/gpfs_data/local/lhcb/users/fbettit3/DACP_Run2_prompt/pGun/DstToD0pi_KK/2016/Up/49595/pGun_DT.root
/storage/gpfs_data/local/lhcb/users/fbettit3/DACP_Run2_prompt/pGun/DstToD0pi_KK/2016/Up/49596/pGun_DT.root
/storage/gpfs_data/local/lhcb/users/fbettit3/DACP_Run2_prompt/pGun/DstToD0pi_KK/2016/Up/49597/pGun_DT.root
/storage/gpfs_data/local/lhcb/users/fbettit3/DACP_Run2_prompt/pGun/DstToD0pi_KK/2016/Up/49598/pGun_DT.root
/storage/gpfs_data/local/lhcb/users/fbettit3/DACP_Run2_prompt/pGun/DstToD0pi_KK/2016/Up/49599/pGun_DT.root
/storage/gpfs_data/local/lhcb/users/fbettit3/DACP_Run2_prompt/pGun/DstToD0pi_KK/2016/Up/49600/pGun_DT.root
/storage/gpfs_data/local/lhcb/users/fbettit3/DACP_Run2_prompt/pGun/DstToD0pi_KK/2016/Up/49601/pGun_DT.root
/storage/gpfs_data/local/lhcb/users/fbettit3/DACP_Run2_prompt/pGun/DstToD0pi_KK/2016/Up/49602/pGun_DT.root
/storage/gpfs_data/local/lhcb/users/fbettit3/DACP_Run2_prompt/pGun/DstToD0pi_KK/2016/Up/49603/pGun_DT.root
