/home/LHCB-T3/smaccoli/CPV_in_D02hh/data/pGun/Dp2Kmpippip_2016_Dw/4980/pGun_Dp2Kmpippip.root
/home/LHCB-T3/smaccoli/CPV_in_D02hh/data/pGun/Dp2Kmpippip_2016_Dw/4981/pGun_Dp2Kmpippip.root
/home/LHCB-T3/smaccoli/CPV_in_D02hh/data/pGun/Dp2Kmpippip_2016_Dw/4982/pGun_Dp2Kmpippip.root
/home/LHCB-T3/smaccoli/CPV_in_D02hh/data/pGun/Dp2Kmpippip_2016_Dw/4983/pGun_Dp2Kmpippip.root
/home/LHCB-T3/smaccoli/CPV_in_D02hh/data/pGun/Dp2Kmpippip_2016_Dw/4985/pGun_Dp2Kmpippip.root
/home/LHCB-T3/smaccoli/CPV_in_D02hh/data/pGun/Dp2Kmpippip_2016_Dw/4986/pGun_Dp2Kmpippip.root
/home/LHCB-T3/smaccoli/CPV_in_D02hh/data/pGun/Dp2Kmpippip_2016_Dw/4987/pGun_Dp2Kmpippip.root
/home/LHCB-T3/smaccoli/CPV_in_D02hh/data/pGun/Dp2Kmpippip_2016_Dw/4988/pGun_Dp2Kmpippip.root
/home/LHCB-T3/smaccoli/CPV_in_D02hh/data/pGun/Dp2Kmpippip_2016_Dw/4989/pGun_Dp2Kmpippip.root
/home/LHCB-T3/smaccoli/CPV_in_D02hh/data/pGun/Dp2Kmpippip_2016_Dw/498/pGun_Dp2Kmpippip.root
/home/LHCB-T3/smaccoli/CPV_in_D02hh/data/pGun/Dp2Kmpippip_2016_Dw/4991/pGun_Dp2Kmpippip.root
/home/LHCB-T3/smaccoli/CPV_in_D02hh/data/pGun/Dp2Kmpippip_2016_Dw/4992/pGun_Dp2Kmpippip.root
/home/LHCB-T3/smaccoli/CPV_in_D02hh/data/pGun/Dp2Kmpippip_2016_Dw/4993/pGun_Dp2Kmpippip.root
/home/LHCB-T3/smaccoli/CPV_in_D02hh/data/pGun/Dp2Kmpippip_2016_Dw/4995/pGun_Dp2Kmpippip.root
/home/LHCB-T3/smaccoli/CPV_in_D02hh/data/pGun/Dp2Kmpippip_2016_Dw/4997/pGun_Dp2Kmpippip.root
/home/LHCB-T3/smaccoli/CPV_in_D02hh/data/pGun/Dp2Kmpippip_2016_Dw/4998/pGun_Dp2Kmpippip.root
/home/LHCB-T3/smaccoli/CPV_in_D02hh/data/pGun/Dp2Kmpippip_2016_Dw/4999/pGun_Dp2Kmpippip.root
/home/LHCB-T3/smaccoli/CPV_in_D02hh/data/pGun/Dp2Kmpippip_2016_Dw/499/pGun_Dp2Kmpippip.root
/home/LHCB-T3/smaccoli/CPV_in_D02hh/data/pGun/Dp2Kmpippip_2016_Dw/49/pGun_Dp2Kmpippip.root
/home/LHCB-T3/smaccoli/CPV_in_D02hh/data/pGun/Dp2Kmpippip_2016_Dw/4/pGun_Dp2Kmpippip.root
/home/LHCB-T3/smaccoli/CPV_in_D02hh/data/pGun/Dp2Kmpippip_2016_Dw/5001/pGun_Dp2Kmpippip.root
/home/LHCB-T3/smaccoli/CPV_in_D02hh/data/pGun/Dp2Kmpippip_2016_Dw/5002/pGun_Dp2Kmpippip.root
/home/LHCB-T3/smaccoli/CPV_in_D02hh/data/pGun/Dp2Kmpippip_2016_Dw/5003/pGun_Dp2Kmpippip.root
/home/LHCB-T3/smaccoli/CPV_in_D02hh/data/pGun/Dp2Kmpippip_2016_Dw/5005/pGun_Dp2Kmpippip.root
/home/LHCB-T3/smaccoli/CPV_in_D02hh/data/pGun/Dp2Kmpippip_2016_Dw/5006/pGun_Dp2Kmpippip.root
/home/LHCB-T3/smaccoli/CPV_in_D02hh/data/pGun/Dp2Kmpippip_2016_Dw/5007/pGun_Dp2Kmpippip.root
/home/LHCB-T3/smaccoli/CPV_in_D02hh/data/pGun/Dp2Kmpippip_2016_Dw/5009/pGun_Dp2Kmpippip.root
/home/LHCB-T3/smaccoli/CPV_in_D02hh/data/pGun/Dp2Kmpippip_2016_Dw/500/pGun_Dp2Kmpippip.root
/home/LHCB-T3/smaccoli/CPV_in_D02hh/data/pGun/Dp2Kmpippip_2016_Dw/5010/pGun_Dp2Kmpippip.root
/home/LHCB-T3/smaccoli/CPV_in_D02hh/data/pGun/Dp2Kmpippip_2016_Dw/5011/pGun_Dp2Kmpippip.root
/home/LHCB-T3/smaccoli/CPV_in_D02hh/data/pGun/Dp2Kmpippip_2016_Dw/5013/pGun_Dp2Kmpippip.root
/home/LHCB-T3/smaccoli/CPV_in_D02hh/data/pGun/Dp2Kmpippip_2016_Dw/5014/pGun_Dp2Kmpippip.root
/home/LHCB-T3/smaccoli/CPV_in_D02hh/data/pGun/Dp2Kmpippip_2016_Dw/5015/pGun_Dp2Kmpippip.root
/home/LHCB-T3/smaccoli/CPV_in_D02hh/data/pGun/Dp2Kmpippip_2016_Dw/5016/pGun_Dp2Kmpippip.root
/home/LHCB-T3/smaccoli/CPV_in_D02hh/data/pGun/Dp2Kmpippip_2016_Dw/5017/pGun_Dp2Kmpippip.root
/home/LHCB-T3/smaccoli/CPV_in_D02hh/data/pGun/Dp2Kmpippip_2016_Dw/5018/pGun_Dp2Kmpippip.root
/home/LHCB-T3/smaccoli/CPV_in_D02hh/data/pGun/Dp2Kmpippip_2016_Dw/5019/pGun_Dp2Kmpippip.root
/home/LHCB-T3/smaccoli/CPV_in_D02hh/data/pGun/Dp2Kmpippip_2016_Dw/501/pGun_Dp2Kmpippip.root
/home/LHCB-T3/smaccoli/CPV_in_D02hh/data/pGun/Dp2Kmpippip_2016_Dw/5020/pGun_Dp2Kmpippip.root
/home/LHCB-T3/smaccoli/CPV_in_D02hh/data/pGun/Dp2Kmpippip_2016_Dw/5022/pGun_Dp2Kmpippip.root
/home/LHCB-T3/smaccoli/CPV_in_D02hh/data/pGun/Dp2Kmpippip_2016_Dw/5023/pGun_Dp2Kmpippip.root
/home/LHCB-T3/smaccoli/CPV_in_D02hh/data/pGun/Dp2Kmpippip_2016_Dw/5026/pGun_Dp2Kmpippip.root
/home/LHCB-T3/smaccoli/CPV_in_D02hh/data/pGun/Dp2Kmpippip_2016_Dw/5027/pGun_Dp2Kmpippip.root
/home/LHCB-T3/smaccoli/CPV_in_D02hh/data/pGun/Dp2Kmpippip_2016_Dw/5028/pGun_Dp2Kmpippip.root
/home/LHCB-T3/smaccoli/CPV_in_D02hh/data/pGun/Dp2Kmpippip_2016_Dw/502/pGun_Dp2Kmpippip.root
/home/LHCB-T3/smaccoli/CPV_in_D02hh/data/pGun/Dp2Kmpippip_2016_Dw/5030/pGun_Dp2Kmpippip.root
/home/LHCB-T3/smaccoli/CPV_in_D02hh/data/pGun/Dp2Kmpippip_2016_Dw/5031/pGun_Dp2Kmpippip.root
/home/LHCB-T3/smaccoli/CPV_in_D02hh/data/pGun/Dp2Kmpippip_2016_Dw/5032/pGun_Dp2Kmpippip.root
/home/LHCB-T3/smaccoli/CPV_in_D02hh/data/pGun/Dp2Kmpippip_2016_Dw/5033/pGun_Dp2Kmpippip.root
/home/LHCB-T3/smaccoli/CPV_in_D02hh/data/pGun/Dp2Kmpippip_2016_Dw/5035/pGun_Dp2Kmpippip.root
/home/LHCB-T3/smaccoli/CPV_in_D02hh/data/pGun/Dp2Kmpippip_2016_Dw/5036/pGun_Dp2Kmpippip.root
/home/LHCB-T3/smaccoli/CPV_in_D02hh/data/pGun/Dp2Kmpippip_2016_Dw/5038/pGun_Dp2Kmpippip.root
/home/LHCB-T3/smaccoli/CPV_in_D02hh/data/pGun/Dp2Kmpippip_2016_Dw/5039/pGun_Dp2Kmpippip.root
/home/LHCB-T3/smaccoli/CPV_in_D02hh/data/pGun/Dp2Kmpippip_2016_Dw/503/pGun_Dp2Kmpippip.root
/home/LHCB-T3/smaccoli/CPV_in_D02hh/data/pGun/Dp2Kmpippip_2016_Dw/5040/pGun_Dp2Kmpippip.root
/home/LHCB-T3/smaccoli/CPV_in_D02hh/data/pGun/Dp2Kmpippip_2016_Dw/5041/pGun_Dp2Kmpippip.root
/home/LHCB-T3/smaccoli/CPV_in_D02hh/data/pGun/Dp2Kmpippip_2016_Dw/5042/pGun_Dp2Kmpippip.root
/home/LHCB-T3/smaccoli/CPV_in_D02hh/data/pGun/Dp2Kmpippip_2016_Dw/5043/pGun_Dp2Kmpippip.root
/home/LHCB-T3/smaccoli/CPV_in_D02hh/data/pGun/Dp2Kmpippip_2016_Dw/5045/pGun_Dp2Kmpippip.root
/home/LHCB-T3/smaccoli/CPV_in_D02hh/data/pGun/Dp2Kmpippip_2016_Dw/5046/pGun_Dp2Kmpippip.root
/home/LHCB-T3/smaccoli/CPV_in_D02hh/data/pGun/Dp2Kmpippip_2016_Dw/5047/pGun_Dp2Kmpippip.root
/home/LHCB-T3/smaccoli/CPV_in_D02hh/data/pGun/Dp2Kmpippip_2016_Dw/5048/pGun_Dp2Kmpippip.root
/home/LHCB-T3/smaccoli/CPV_in_D02hh/data/pGun/Dp2Kmpippip_2016_Dw/5049/pGun_Dp2Kmpippip.root
/home/LHCB-T3/smaccoli/CPV_in_D02hh/data/pGun/Dp2Kmpippip_2016_Dw/504/pGun_Dp2Kmpippip.root
/home/LHCB-T3/smaccoli/CPV_in_D02hh/data/pGun/Dp2Kmpippip_2016_Dw/5050/pGun_Dp2Kmpippip.root
/home/LHCB-T3/smaccoli/CPV_in_D02hh/data/pGun/Dp2Kmpippip_2016_Dw/5051/pGun_Dp2Kmpippip.root
/home/LHCB-T3/smaccoli/CPV_in_D02hh/data/pGun/Dp2Kmpippip_2016_Dw/5052/pGun_Dp2Kmpippip.root
/home/LHCB-T3/smaccoli/CPV_in_D02hh/data/pGun/Dp2Kmpippip_2016_Dw/5053/pGun_Dp2Kmpippip.root
/home/LHCB-T3/smaccoli/CPV_in_D02hh/data/pGun/Dp2Kmpippip_2016_Dw/5055/pGun_Dp2Kmpippip.root
/home/LHCB-T3/smaccoli/CPV_in_D02hh/data/pGun/Dp2Kmpippip_2016_Dw/5056/pGun_Dp2Kmpippip.root
/home/LHCB-T3/smaccoli/CPV_in_D02hh/data/pGun/Dp2Kmpippip_2016_Dw/5057/pGun_Dp2Kmpippip.root
/home/LHCB-T3/smaccoli/CPV_in_D02hh/data/pGun/Dp2Kmpippip_2016_Dw/5058/pGun_Dp2Kmpippip.root
/home/LHCB-T3/smaccoli/CPV_in_D02hh/data/pGun/Dp2Kmpippip_2016_Dw/5059/pGun_Dp2Kmpippip.root
/home/LHCB-T3/smaccoli/CPV_in_D02hh/data/pGun/Dp2Kmpippip_2016_Dw/505/pGun_Dp2Kmpippip.root
/home/LHCB-T3/smaccoli/CPV_in_D02hh/data/pGun/Dp2Kmpippip_2016_Dw/5060/pGun_Dp2Kmpippip.root
/home/LHCB-T3/smaccoli/CPV_in_D02hh/data/pGun/Dp2Kmpippip_2016_Dw/5061/pGun_Dp2Kmpippip.root
/home/LHCB-T3/smaccoli/CPV_in_D02hh/data/pGun/Dp2Kmpippip_2016_Dw/5062/pGun_Dp2Kmpippip.root
/home/LHCB-T3/smaccoli/CPV_in_D02hh/data/pGun/Dp2Kmpippip_2016_Dw/5063/pGun_Dp2Kmpippip.root
/home/LHCB-T3/smaccoli/CPV_in_D02hh/data/pGun/Dp2Kmpippip_2016_Dw/5064/pGun_Dp2Kmpippip.root
/home/LHCB-T3/smaccoli/CPV_in_D02hh/data/pGun/Dp2Kmpippip_2016_Dw/5065/pGun_Dp2Kmpippip.root
/home/LHCB-T3/smaccoli/CPV_in_D02hh/data/pGun/Dp2Kmpippip_2016_Dw/5066/pGun_Dp2Kmpippip.root
/home/LHCB-T3/smaccoli/CPV_in_D02hh/data/pGun/Dp2Kmpippip_2016_Dw/5067/pGun_Dp2Kmpippip.root
/home/LHCB-T3/smaccoli/CPV_in_D02hh/data/pGun/Dp2Kmpippip_2016_Dw/5068/pGun_Dp2Kmpippip.root
/home/LHCB-T3/smaccoli/CPV_in_D02hh/data/pGun/Dp2Kmpippip_2016_Dw/5069/pGun_Dp2Kmpippip.root
/home/LHCB-T3/smaccoli/CPV_in_D02hh/data/pGun/Dp2Kmpippip_2016_Dw/506/pGun_Dp2Kmpippip.root
/home/LHCB-T3/smaccoli/CPV_in_D02hh/data/pGun/Dp2Kmpippip_2016_Dw/5070/pGun_Dp2Kmpippip.root
/home/LHCB-T3/smaccoli/CPV_in_D02hh/data/pGun/Dp2Kmpippip_2016_Dw/5071/pGun_Dp2Kmpippip.root
/home/LHCB-T3/smaccoli/CPV_in_D02hh/data/pGun/Dp2Kmpippip_2016_Dw/5072/pGun_Dp2Kmpippip.root
/home/LHCB-T3/smaccoli/CPV_in_D02hh/data/pGun/Dp2Kmpippip_2016_Dw/5073/pGun_Dp2Kmpippip.root
/home/LHCB-T3/smaccoli/CPV_in_D02hh/data/pGun/Dp2Kmpippip_2016_Dw/5074/pGun_Dp2Kmpippip.root
/home/LHCB-T3/smaccoli/CPV_in_D02hh/data/pGun/Dp2Kmpippip_2016_Dw/5075/pGun_Dp2Kmpippip.root
/home/LHCB-T3/smaccoli/CPV_in_D02hh/data/pGun/Dp2Kmpippip_2016_Dw/5076/pGun_Dp2Kmpippip.root
/home/LHCB-T3/smaccoli/CPV_in_D02hh/data/pGun/Dp2Kmpippip_2016_Dw/5077/pGun_Dp2Kmpippip.root
/home/LHCB-T3/smaccoli/CPV_in_D02hh/data/pGun/Dp2Kmpippip_2016_Dw/5078/pGun_Dp2Kmpippip.root
/home/LHCB-T3/smaccoli/CPV_in_D02hh/data/pGun/Dp2Kmpippip_2016_Dw/5079/pGun_Dp2Kmpippip.root
/home/LHCB-T3/smaccoli/CPV_in_D02hh/data/pGun/Dp2Kmpippip_2016_Dw/507/pGun_Dp2Kmpippip.root
/home/LHCB-T3/smaccoli/CPV_in_D02hh/data/pGun/Dp2Kmpippip_2016_Dw/5080/pGun_Dp2Kmpippip.root
/home/LHCB-T3/smaccoli/CPV_in_D02hh/data/pGun/Dp2Kmpippip_2016_Dw/5081/pGun_Dp2Kmpippip.root
/home/LHCB-T3/smaccoli/CPV_in_D02hh/data/pGun/Dp2Kmpippip_2016_Dw/5082/pGun_Dp2Kmpippip.root
