/home/LHCB-T3/smaccoli/CPV_in_D02hh/data/pGun/Dp2Kmpippip_2016_Dw/5899/pGun_Dp2Kmpippip.root
/home/LHCB-T3/smaccoli/CPV_in_D02hh/data/pGun/Dp2Kmpippip_2016_Dw/589/pGun_Dp2Kmpippip.root
/home/LHCB-T3/smaccoli/CPV_in_D02hh/data/pGun/Dp2Kmpippip_2016_Dw/58/pGun_Dp2Kmpippip.root
/home/LHCB-T3/smaccoli/CPV_in_D02hh/data/pGun/Dp2Kmpippip_2016_Dw/5901/pGun_Dp2Kmpippip.root
/home/LHCB-T3/smaccoli/CPV_in_D02hh/data/pGun/Dp2Kmpippip_2016_Dw/5904/pGun_Dp2Kmpippip.root
/home/LHCB-T3/smaccoli/CPV_in_D02hh/data/pGun/Dp2Kmpippip_2016_Dw/5905/pGun_Dp2Kmpippip.root
/home/LHCB-T3/smaccoli/CPV_in_D02hh/data/pGun/Dp2Kmpippip_2016_Dw/5906/pGun_Dp2Kmpippip.root
/home/LHCB-T3/smaccoli/CPV_in_D02hh/data/pGun/Dp2Kmpippip_2016_Dw/5907/pGun_Dp2Kmpippip.root
/home/LHCB-T3/smaccoli/CPV_in_D02hh/data/pGun/Dp2Kmpippip_2016_Dw/5908/pGun_Dp2Kmpippip.root
/home/LHCB-T3/smaccoli/CPV_in_D02hh/data/pGun/Dp2Kmpippip_2016_Dw/590/pGun_Dp2Kmpippip.root
/home/LHCB-T3/smaccoli/CPV_in_D02hh/data/pGun/Dp2Kmpippip_2016_Dw/5910/pGun_Dp2Kmpippip.root
/home/LHCB-T3/smaccoli/CPV_in_D02hh/data/pGun/Dp2Kmpippip_2016_Dw/5911/pGun_Dp2Kmpippip.root
/home/LHCB-T3/smaccoli/CPV_in_D02hh/data/pGun/Dp2Kmpippip_2016_Dw/5913/pGun_Dp2Kmpippip.root
/home/LHCB-T3/smaccoli/CPV_in_D02hh/data/pGun/Dp2Kmpippip_2016_Dw/5914/pGun_Dp2Kmpippip.root
/home/LHCB-T3/smaccoli/CPV_in_D02hh/data/pGun/Dp2Kmpippip_2016_Dw/5915/pGun_Dp2Kmpippip.root
/home/LHCB-T3/smaccoli/CPV_in_D02hh/data/pGun/Dp2Kmpippip_2016_Dw/5918/pGun_Dp2Kmpippip.root
/home/LHCB-T3/smaccoli/CPV_in_D02hh/data/pGun/Dp2Kmpippip_2016_Dw/5919/pGun_Dp2Kmpippip.root
/home/LHCB-T3/smaccoli/CPV_in_D02hh/data/pGun/Dp2Kmpippip_2016_Dw/591/pGun_Dp2Kmpippip.root
/home/LHCB-T3/smaccoli/CPV_in_D02hh/data/pGun/Dp2Kmpippip_2016_Dw/5920/pGun_Dp2Kmpippip.root
/home/LHCB-T3/smaccoli/CPV_in_D02hh/data/pGun/Dp2Kmpippip_2016_Dw/5921/pGun_Dp2Kmpippip.root
/home/LHCB-T3/smaccoli/CPV_in_D02hh/data/pGun/Dp2Kmpippip_2016_Dw/5923/pGun_Dp2Kmpippip.root
/home/LHCB-T3/smaccoli/CPV_in_D02hh/data/pGun/Dp2Kmpippip_2016_Dw/5924/pGun_Dp2Kmpippip.root
/home/LHCB-T3/smaccoli/CPV_in_D02hh/data/pGun/Dp2Kmpippip_2016_Dw/5925/pGun_Dp2Kmpippip.root
/home/LHCB-T3/smaccoli/CPV_in_D02hh/data/pGun/Dp2Kmpippip_2016_Dw/5926/pGun_Dp2Kmpippip.root
/home/LHCB-T3/smaccoli/CPV_in_D02hh/data/pGun/Dp2Kmpippip_2016_Dw/5928/pGun_Dp2Kmpippip.root
/home/LHCB-T3/smaccoli/CPV_in_D02hh/data/pGun/Dp2Kmpippip_2016_Dw/5929/pGun_Dp2Kmpippip.root
/home/LHCB-T3/smaccoli/CPV_in_D02hh/data/pGun/Dp2Kmpippip_2016_Dw/592/pGun_Dp2Kmpippip.root
/home/LHCB-T3/smaccoli/CPV_in_D02hh/data/pGun/Dp2Kmpippip_2016_Dw/5932/pGun_Dp2Kmpippip.root
/home/LHCB-T3/smaccoli/CPV_in_D02hh/data/pGun/Dp2Kmpippip_2016_Dw/5933/pGun_Dp2Kmpippip.root
/home/LHCB-T3/smaccoli/CPV_in_D02hh/data/pGun/Dp2Kmpippip_2016_Dw/5934/pGun_Dp2Kmpippip.root
/home/LHCB-T3/smaccoli/CPV_in_D02hh/data/pGun/Dp2Kmpippip_2016_Dw/5935/pGun_Dp2Kmpippip.root
/home/LHCB-T3/smaccoli/CPV_in_D02hh/data/pGun/Dp2Kmpippip_2016_Dw/5936/pGun_Dp2Kmpippip.root
/home/LHCB-T3/smaccoli/CPV_in_D02hh/data/pGun/Dp2Kmpippip_2016_Dw/5937/pGun_Dp2Kmpippip.root
/home/LHCB-T3/smaccoli/CPV_in_D02hh/data/pGun/Dp2Kmpippip_2016_Dw/5938/pGun_Dp2Kmpippip.root
/home/LHCB-T3/smaccoli/CPV_in_D02hh/data/pGun/Dp2Kmpippip_2016_Dw/5939/pGun_Dp2Kmpippip.root
/home/LHCB-T3/smaccoli/CPV_in_D02hh/data/pGun/Dp2Kmpippip_2016_Dw/593/pGun_Dp2Kmpippip.root
/home/LHCB-T3/smaccoli/CPV_in_D02hh/data/pGun/Dp2Kmpippip_2016_Dw/5940/pGun_Dp2Kmpippip.root
/home/LHCB-T3/smaccoli/CPV_in_D02hh/data/pGun/Dp2Kmpippip_2016_Dw/5941/pGun_Dp2Kmpippip.root
/home/LHCB-T3/smaccoli/CPV_in_D02hh/data/pGun/Dp2Kmpippip_2016_Dw/5942/pGun_Dp2Kmpippip.root
/home/LHCB-T3/smaccoli/CPV_in_D02hh/data/pGun/Dp2Kmpippip_2016_Dw/5944/pGun_Dp2Kmpippip.root
/home/LHCB-T3/smaccoli/CPV_in_D02hh/data/pGun/Dp2Kmpippip_2016_Dw/5945/pGun_Dp2Kmpippip.root
/home/LHCB-T3/smaccoli/CPV_in_D02hh/data/pGun/Dp2Kmpippip_2016_Dw/5946/pGun_Dp2Kmpippip.root
/home/LHCB-T3/smaccoli/CPV_in_D02hh/data/pGun/Dp2Kmpippip_2016_Dw/5947/pGun_Dp2Kmpippip.root
/home/LHCB-T3/smaccoli/CPV_in_D02hh/data/pGun/Dp2Kmpippip_2016_Dw/5948/pGun_Dp2Kmpippip.root
/home/LHCB-T3/smaccoli/CPV_in_D02hh/data/pGun/Dp2Kmpippip_2016_Dw/5949/pGun_Dp2Kmpippip.root
/home/LHCB-T3/smaccoli/CPV_in_D02hh/data/pGun/Dp2Kmpippip_2016_Dw/594/pGun_Dp2Kmpippip.root
/home/LHCB-T3/smaccoli/CPV_in_D02hh/data/pGun/Dp2Kmpippip_2016_Dw/5950/pGun_Dp2Kmpippip.root
/home/LHCB-T3/smaccoli/CPV_in_D02hh/data/pGun/Dp2Kmpippip_2016_Dw/5951/pGun_Dp2Kmpippip.root
/home/LHCB-T3/smaccoli/CPV_in_D02hh/data/pGun/Dp2Kmpippip_2016_Dw/5953/pGun_Dp2Kmpippip.root
/home/LHCB-T3/smaccoli/CPV_in_D02hh/data/pGun/Dp2Kmpippip_2016_Dw/5954/pGun_Dp2Kmpippip.root
/home/LHCB-T3/smaccoli/CPV_in_D02hh/data/pGun/Dp2Kmpippip_2016_Dw/5955/pGun_Dp2Kmpippip.root
/home/LHCB-T3/smaccoli/CPV_in_D02hh/data/pGun/Dp2Kmpippip_2016_Dw/5956/pGun_Dp2Kmpippip.root
/home/LHCB-T3/smaccoli/CPV_in_D02hh/data/pGun/Dp2Kmpippip_2016_Dw/5957/pGun_Dp2Kmpippip.root
/home/LHCB-T3/smaccoli/CPV_in_D02hh/data/pGun/Dp2Kmpippip_2016_Dw/5958/pGun_Dp2Kmpippip.root
/home/LHCB-T3/smaccoli/CPV_in_D02hh/data/pGun/Dp2Kmpippip_2016_Dw/5959/pGun_Dp2Kmpippip.root
/home/LHCB-T3/smaccoli/CPV_in_D02hh/data/pGun/Dp2Kmpippip_2016_Dw/595/pGun_Dp2Kmpippip.root
/home/LHCB-T3/smaccoli/CPV_in_D02hh/data/pGun/Dp2Kmpippip_2016_Dw/5960/pGun_Dp2Kmpippip.root
/home/LHCB-T3/smaccoli/CPV_in_D02hh/data/pGun/Dp2Kmpippip_2016_Dw/5961/pGun_Dp2Kmpippip.root
/home/LHCB-T3/smaccoli/CPV_in_D02hh/data/pGun/Dp2Kmpippip_2016_Dw/5962/pGun_Dp2Kmpippip.root
/home/LHCB-T3/smaccoli/CPV_in_D02hh/data/pGun/Dp2Kmpippip_2016_Dw/5963/pGun_Dp2Kmpippip.root
/home/LHCB-T3/smaccoli/CPV_in_D02hh/data/pGun/Dp2Kmpippip_2016_Dw/5964/pGun_Dp2Kmpippip.root
/home/LHCB-T3/smaccoli/CPV_in_D02hh/data/pGun/Dp2Kmpippip_2016_Dw/5965/pGun_Dp2Kmpippip.root
/home/LHCB-T3/smaccoli/CPV_in_D02hh/data/pGun/Dp2Kmpippip_2016_Dw/5966/pGun_Dp2Kmpippip.root
/home/LHCB-T3/smaccoli/CPV_in_D02hh/data/pGun/Dp2Kmpippip_2016_Dw/5967/pGun_Dp2Kmpippip.root
/home/LHCB-T3/smaccoli/CPV_in_D02hh/data/pGun/Dp2Kmpippip_2016_Dw/5968/pGun_Dp2Kmpippip.root
/home/LHCB-T3/smaccoli/CPV_in_D02hh/data/pGun/Dp2Kmpippip_2016_Dw/5969/pGun_Dp2Kmpippip.root
/home/LHCB-T3/smaccoli/CPV_in_D02hh/data/pGun/Dp2Kmpippip_2016_Dw/596/pGun_Dp2Kmpippip.root
/home/LHCB-T3/smaccoli/CPV_in_D02hh/data/pGun/Dp2Kmpippip_2016_Dw/5970/pGun_Dp2Kmpippip.root
/home/LHCB-T3/smaccoli/CPV_in_D02hh/data/pGun/Dp2Kmpippip_2016_Dw/5971/pGun_Dp2Kmpippip.root
/home/LHCB-T3/smaccoli/CPV_in_D02hh/data/pGun/Dp2Kmpippip_2016_Dw/5972/pGun_Dp2Kmpippip.root
/home/LHCB-T3/smaccoli/CPV_in_D02hh/data/pGun/Dp2Kmpippip_2016_Dw/5974/pGun_Dp2Kmpippip.root
/home/LHCB-T3/smaccoli/CPV_in_D02hh/data/pGun/Dp2Kmpippip_2016_Dw/5975/pGun_Dp2Kmpippip.root
/home/LHCB-T3/smaccoli/CPV_in_D02hh/data/pGun/Dp2Kmpippip_2016_Dw/5976/pGun_Dp2Kmpippip.root
/home/LHCB-T3/smaccoli/CPV_in_D02hh/data/pGun/Dp2Kmpippip_2016_Dw/5978/pGun_Dp2Kmpippip.root
/home/LHCB-T3/smaccoli/CPV_in_D02hh/data/pGun/Dp2Kmpippip_2016_Dw/5979/pGun_Dp2Kmpippip.root
/home/LHCB-T3/smaccoli/CPV_in_D02hh/data/pGun/Dp2Kmpippip_2016_Dw/597/pGun_Dp2Kmpippip.root
/home/LHCB-T3/smaccoli/CPV_in_D02hh/data/pGun/Dp2Kmpippip_2016_Dw/5980/pGun_Dp2Kmpippip.root
/home/LHCB-T3/smaccoli/CPV_in_D02hh/data/pGun/Dp2Kmpippip_2016_Dw/5981/pGun_Dp2Kmpippip.root
/home/LHCB-T3/smaccoli/CPV_in_D02hh/data/pGun/Dp2Kmpippip_2016_Dw/5982/pGun_Dp2Kmpippip.root
/home/LHCB-T3/smaccoli/CPV_in_D02hh/data/pGun/Dp2Kmpippip_2016_Dw/5983/pGun_Dp2Kmpippip.root
/home/LHCB-T3/smaccoli/CPV_in_D02hh/data/pGun/Dp2Kmpippip_2016_Dw/5984/pGun_Dp2Kmpippip.root
/home/LHCB-T3/smaccoli/CPV_in_D02hh/data/pGun/Dp2Kmpippip_2016_Dw/5985/pGun_Dp2Kmpippip.root
/home/LHCB-T3/smaccoli/CPV_in_D02hh/data/pGun/Dp2Kmpippip_2016_Dw/5986/pGun_Dp2Kmpippip.root
/home/LHCB-T3/smaccoli/CPV_in_D02hh/data/pGun/Dp2Kmpippip_2016_Dw/5987/pGun_Dp2Kmpippip.root
/home/LHCB-T3/smaccoli/CPV_in_D02hh/data/pGun/Dp2Kmpippip_2016_Dw/5988/pGun_Dp2Kmpippip.root
/home/LHCB-T3/smaccoli/CPV_in_D02hh/data/pGun/Dp2Kmpippip_2016_Dw/5989/pGun_Dp2Kmpippip.root
/home/LHCB-T3/smaccoli/CPV_in_D02hh/data/pGun/Dp2Kmpippip_2016_Dw/598/pGun_Dp2Kmpippip.root
/home/LHCB-T3/smaccoli/CPV_in_D02hh/data/pGun/Dp2Kmpippip_2016_Dw/5990/pGun_Dp2Kmpippip.root
/home/LHCB-T3/smaccoli/CPV_in_D02hh/data/pGun/Dp2Kmpippip_2016_Dw/5991/pGun_Dp2Kmpippip.root
/home/LHCB-T3/smaccoli/CPV_in_D02hh/data/pGun/Dp2Kmpippip_2016_Dw/5992/pGun_Dp2Kmpippip.root
/home/LHCB-T3/smaccoli/CPV_in_D02hh/data/pGun/Dp2Kmpippip_2016_Dw/5994/pGun_Dp2Kmpippip.root
/home/LHCB-T3/smaccoli/CPV_in_D02hh/data/pGun/Dp2Kmpippip_2016_Dw/5995/pGun_Dp2Kmpippip.root
/home/LHCB-T3/smaccoli/CPV_in_D02hh/data/pGun/Dp2Kmpippip_2016_Dw/5996/pGun_Dp2Kmpippip.root
/home/LHCB-T3/smaccoli/CPV_in_D02hh/data/pGun/Dp2Kmpippip_2016_Dw/5997/pGun_Dp2Kmpippip.root
/home/LHCB-T3/smaccoli/CPV_in_D02hh/data/pGun/Dp2Kmpippip_2016_Dw/5998/pGun_Dp2Kmpippip.root
/home/LHCB-T3/smaccoli/CPV_in_D02hh/data/pGun/Dp2Kmpippip_2016_Dw/5999/pGun_Dp2Kmpippip.root
/home/LHCB-T3/smaccoli/CPV_in_D02hh/data/pGun/Dp2Kmpippip_2016_Dw/599/pGun_Dp2Kmpippip.root
/home/LHCB-T3/smaccoli/CPV_in_D02hh/data/pGun/Dp2Kmpippip_2016_Dw/59/pGun_Dp2Kmpippip.root
/home/LHCB-T3/smaccoli/CPV_in_D02hh/data/pGun/Dp2Kmpippip_2016_Dw/5/pGun_Dp2Kmpippip.root
