Dst_ETA	DeltaA: 4.10333e-06
Dst_PHI	DeltaA: 1.35059e-06
Dst_PT	DeltaA: 9.07908e-07
Dst_PX	DeltaA: 5.74158e-05
Dst_PY	DeltaA: -2.26156e-05
Dst_PZ	DeltaA: -1.14603e-05
sPi_ETA	DeltaA: -3.64049e-07
sPi_PHI	DeltaA: -6.30434e-06
sPi_PT	DeltaA: -4.89582e-07
sPi_PX	DeltaA: 5.17258e-05
sPi_PY	DeltaA: -1.02825e-05
sPi_PZ	DeltaA: -6.53392e-06
