Dst_ETA	DeltaA: 3.1372e-05
Dst_PHI	DeltaA: 0.00258278
Dst_PT	DeltaA: 3.97814e-06
Dst_PX	DeltaA: 0.00233982
Dst_PY	DeltaA: 0.000271973
Dst_PZ	DeltaA: 1.19608e-05
sPi_ETA	DeltaA: 6.21109e-05
sPi_PHI	DeltaA: 0.00481476
sPi_PT	DeltaA: 4.21766e-05
sPi_PX	DeltaA: 0.00220433
sPi_PY	DeltaA: 0.000331414
sPi_PZ	DeltaA: 6.90024e-06
