A_bkg =  0.015462 +/- 0.0018126 L(-1 - 1) 
A_sigD_blind = -0.0100820 +/- 0.00021395 L(-1 - 1) 
JSU1_delta_nu =  0.069270 +/- 0.0069101 L(-5 - 5) 
JSU1_delta_tau = -0.0393883 +/- 0.0048028 L(-5 - 5) 
JSU1_nu = -0.682188 +/- 0.031333 C L(-5 - 5) 
JSU1_tau =  0.79635 +/- 0.023123 C L(0 - 5) 
N_bkg =  3396231 +/- 4834.8 L(0 - 1e+10) 
N_sigD =  53670152 +/- 10739 L(0 - 1e+10) 
bkg_0_LMslope =  0.0000 C L(-10 - 1) 
bkg_0_frac =  1.0000 C L(0 - 1) 
bkg_0_slope = -0.00323729 +/- 0.000069160 C L(-10 - 0) 
bkg_delta_LMslope =  0.0000 C L(-10 - 10) 
bkg_delta_frac =  0.0000 C L(-10 - 10) 
bkg_delta_slope = -0.000230258 +/- 0.000033960 L(-10 - 10) 
sigD_0_frac1 =  0.16789 +/- 0.010448 C L(0 - 1) 
sigD_0_frac2 =  0.47426 +/- 0.010890 C L(0 - 1) 
sigD_0_mean1 =  1866.4 +/- 0.50487 C L(1850 - 2000) 
sigD_0_mean2 =  1869.4 +/- 0.12537 C L(1850 - 2000) 
sigD_0_mean3 =  1869.9 +/- 0.029057 C L(1850 - 2000) 
sigD_0_sigma1 =  19.900 +/- 0.55136 C L(0 - 40) 
sigD_0_sigma2 =  8.7766 +/- 0.076596 C L(0 - 50) 
sigD_0_sigma3 =  6.0965 +/- 0.034273 C L(0 - 20) 
sigD_delta_frac1 =  0.0000 C L(-10 - 10) 
sigD_delta_frac2 =  0.0000 C L(-10 - 10) 
sigD_delta_mean =  0.033076 +/- 0.0046008 L(-10 - 10) 
sigD_delta_sigma1 = -1.45770 +/- 0.081352 L(-10 - 10) 
sigD_delta_sigma2 =  0.049145 +/- 0.0092601 L(-10 - 10) 
sigD_delta_sigma3 =  0.034331 +/- 0.0043839 L(-10 - 10) 
