A_bkg = -0.0153473 +/- 0.0018322 L(-1 - 1) 
A_sigD_blind = -0.000414187 +/- 0.00021076 L(-1 - 1) 
JSU1_delta_nu = -0.0455164 +/- 0.0066228 L(-5 - 5) 
JSU1_delta_tau =  0.022916 +/- 0.0056720 L(-5 - 5) 
JSU1_nu = -0.779846 +/- 0.027247 C L(-5 - 5) 
JSU1_tau =  0.75479 +/- 0.014419 C L(0 - 5) 
N_bkg =  3558896 +/- 4656.2 L(0 - 1e+10) 
N_sigD =  55236109 +/- 10631 L(0 - 1e+10) 
bkg_0_LMslope =  0.0000 C L(-10 - 1) 
bkg_0_frac =  1.0000 C L(0 - 1) 
bkg_0_slope = -0.00318507 +/- 0.000063423 C L(-10 - 0) 
bkg_delta_LMslope =  0.0000 C L(-10 - 10) 
bkg_delta_frac =  0.0000 C L(-10 - 10) 
bkg_delta_slope =  0.00027450 +/- 0.000030740 L(-10 - 10) 
sigD_0_frac1 =  0.18012 +/- 0.0096923 C L(0 - 1) 
sigD_0_frac2 =  0.46993 +/- 0.013175 C L(0 - 1) 
sigD_0_mean1 =  1867.2 +/- 0.43955 C L(1850 - 2000) 
sigD_0_mean2 =  1868.9 +/- 0.17190 C L(1850 - 2000) 
sigD_0_mean3 =  1869.7 +/- 0.020157 C L(1850 - 2000) 
sigD_0_sigma1 =  18.839 +/- 0.46148 C L(0 - 40) 
sigD_0_sigma2 =  8.6132 +/- 0.080652 C L(0 - 50) 
sigD_0_sigma3 =  6.0549 +/- 0.030442 C L(0 - 20) 
sigD_delta_frac1 =  0.0000 C L(-10 - 10) 
sigD_delta_frac2 =  0.0000 C L(-10 - 10) 
sigD_delta_mean = -0.00172504 +/- 0.0051895 L(-10 - 10) 
sigD_delta_sigma1 =  1.0170 +/- 0.086815 L(-10 - 10) 
sigD_delta_sigma2 = -0.0362250 +/- 0.0097609 L(-10 - 10) 
sigD_delta_sigma3 = -0.0113267 +/- 0.0047782 L(-10 - 10) 
